\beamer@endinputifotherversion {3.24pt}
\select@language {brazilian}
\beamer@sectionintoc {1}{Introdu\IeC {\c c}\IeC {\~a}o}{3}{0}{1}
\beamer@sectionintoc {2}{Fundamenta\IeC {\c c}\IeC {\~a}o Te\IeC {\'o}rica e Tecnol\IeC {\'o}gica}{6}{0}{2}
\beamer@sectionintoc {3}{Trabalhos Relacionados}{16}{0}{3}
\beamer@sectionintoc {4}{Fase Preliminar de Desenvolvimento}{21}{0}{4}
\beamer@sectionintoc {5}{Conclus\IeC {\~o}es Preliminares}{29}{0}{5}
