\relax 
\providecommand\hyper@newdestlabel[2]{}
\providecommand\HyperFirstAtBeginDocument{\AtBeginDocument}
\HyperFirstAtBeginDocument{\ifx\hyper@anchor\@undefined
\global\let\oldcontentsline\contentsline
\gdef\contentsline#1#2#3#4{\oldcontentsline{#1}{#2}{#3}}
\global\let\oldnewlabel\newlabel
\gdef\newlabel#1#2{\newlabelxx{#1}#2}
\gdef\newlabelxx#1#2#3#4#5#6{\oldnewlabel{#1}{{#2}{#3}}}
\AtEndDocument{\ifx\hyper@anchor\@undefined
\let\contentsline\oldcontentsline
\let\newlabel\oldnewlabel
\fi}
\fi}
\global\let\hyper@last\relax 
\gdef\HyperFirstAtBeginDocument#1{#1}
\providecommand\HyField@AuxAddToFields[1]{}
\providecommand\HyField@AuxAddToCoFields[2]{}
\catcode `"\active 
\@writefile{toc}{\beamer@endinputifotherversion {3.24pt}}
\@writefile{nav}{\beamer@endinputifotherversion {3.24pt}}
\select@language{brazilian}
\@writefile{toc}{\select@language{brazilian}}
\@writefile{lof}{\select@language{brazilian}}
\@writefile{lot}{\select@language{brazilian}}
\@writefile{nav}{\headcommand {\slideentry {0}{0}{1}{1/1}{}{0}}}
\@writefile{nav}{\headcommand {\beamer@framepages {1}{1}}}
\@writefile{nav}{\headcommand {\slideentry {0}{0}{2}{2/2}{}{0}}}
\@writefile{nav}{\headcommand {\beamer@framepages {2}{2}}}
\@writefile{toc}{\beamer@sectionintoc {1}{Introdu\IeC {\c c}\IeC {\~a}o}{3}{0}{1}}
\@writefile{nav}{\headcommand {\sectionentry {1}{Introdu\IeC {\c c}\IeC {\~a}o}{3}{Introdu\IeC {\c c}\IeC {\~a}o}{0}}}
\@writefile{nav}{\headcommand {\beamer@sectionpages {1}{2}}}
\@writefile{nav}{\headcommand {\beamer@subsectionpages {1}{2}}}
\@writefile{nav}{\headcommand {\slideentry {1}{0}{3}{3/3}{}{0}}}
\@writefile{nav}{\headcommand {\beamer@framepages {3}{3}}}
\citation{whittle2010}
\@writefile{nav}{\headcommand {\slideentry {1}{0}{4}{4/4}{}{0}}}
\@writefile{nav}{\headcommand {\beamer@framepages {4}{4}}}
\@writefile{nav}{\headcommand {\slideentry {1}{0}{5}{5/5}{}{0}}}
\@writefile{nav}{\headcommand {\beamer@framepages {5}{5}}}
\@writefile{toc}{\beamer@sectionintoc {2}{Fundamenta\IeC {\c c}\IeC {\~a}o Te\IeC {\'o}rica e Tecnol\IeC {\'o}gica}{6}{0}{2}}
\@writefile{nav}{\headcommand {\sectionentry {2}{Fundamenta\IeC {\c c}\IeC {\~a}o Te\IeC {\'o}rica e Tecnol\IeC {\'o}gica}{6}{Fundamenta\IeC {\c c}\IeC {\~a}o Te\IeC {\'o}rica e Tecnol\IeC {\'o}gica}{0}}}
\@writefile{nav}{\headcommand {\beamer@sectionpages {3}{5}}}
\@writefile{nav}{\headcommand {\beamer@subsectionpages {3}{5}}}
\@writefile{nav}{\headcommand {\slideentry {2}{0}{6}{6/6}{}{0}}}
\@writefile{nav}{\headcommand {\beamer@framepages {6}{6}}}
\citation{pressman}
\citation{ian}
\@writefile{nav}{\headcommand {\slideentry {2}{0}{7}{7/7}{}{0}}}
\@writefile{nav}{\headcommand {\beamer@framepages {7}{7}}}
\@writefile{nav}{\headcommand {\slideentry {2}{0}{8}{8/8}{}{0}}}
\@writefile{nav}{\headcommand {\beamer@framepages {8}{8}}}
\@writefile{nav}{\headcommand {\slideentry {2}{0}{9}{9/9}{}{0}}}
\@writefile{nav}{\headcommand {\beamer@framepages {9}{9}}}
\citation{whittle2010}
\@writefile{nav}{\headcommand {\slideentry {2}{0}{10}{10/10}{}{0}}}
\@writefile{nav}{\headcommand {\beamer@framepages {10}{10}}}
\@writefile{nav}{\headcommand {\slideentry {2}{0}{11}{11/11}{}{0}}}
\@writefile{nav}{\headcommand {\beamer@framepages {11}{11}}}
\citation{huebscher}
\citation{herczeg}
\citation{qureshi2010requirements}
\@writefile{nav}{\headcommand {\slideentry {2}{0}{12}{12/12}{}{0}}}
\@writefile{nav}{\headcommand {\beamer@framepages {12}{12}}}
\citation{brun2009engineering}
\citation{sawyer2010requirements}
\citation{daengenharia}
\@writefile{nav}{\headcommand {\slideentry {2}{0}{13}{13/13}{}{0}}}
\@writefile{nav}{\headcommand {\beamer@framepages {13}{13}}}
\citation{desvirivieres}
\@writefile{nav}{\headcommand {\slideentry {2}{0}{14}{14/14}{}{0}}}
\@writefile{nav}{\headcommand {\beamer@framepages {14}{14}}}
\@writefile{nav}{\headcommand {\slideentry {2}{0}{15}{15/15}{}{0}}}
\@writefile{nav}{\headcommand {\beamer@framepages {15}{15}}}
\@writefile{toc}{\beamer@sectionintoc {3}{Trabalhos Relacionados}{16}{0}{3}}
\@writefile{nav}{\headcommand {\sectionentry {3}{Trabalhos Relacionados}{16}{Trabalhos Relacionados}{0}}}
\@writefile{nav}{\headcommand {\beamer@sectionpages {6}{15}}}
\@writefile{nav}{\headcommand {\beamer@subsectionpages {6}{15}}}
\@writefile{nav}{\headcommand {\slideentry {3}{0}{16}{16/16}{}{0}}}
\@writefile{nav}{\headcommand {\beamer@framepages {16}{16}}}
\@writefile{nav}{\headcommand {\slideentry {3}{0}{17}{17/17}{}{0}}}
\@writefile{nav}{\headcommand {\beamer@framepages {17}{17}}}
\citation{butler}
\citation{azevedo}
\citation{beckers2013structured}
\citation{ito}
\citation{varelaAraujoBritoMoreira2011}
\@writefile{nav}{\headcommand {\slideentry {3}{0}{18}{18/18}{}{0}}}
\@writefile{nav}{\headcommand {\beamer@framepages {18}{18}}}
\citation{zarinah}
\citation{umoh2011refinto}
\citation{daramola}
\citation{daramolaSatalhaneSindreOmoronia2011}
\@writefile{nav}{\headcommand {\slideentry {3}{0}{19}{19/19}{}{0}}}
\@writefile{nav}{\headcommand {\beamer@framepages {19}{19}}}
\citation{ali}
\citation{hussein2013}
\citation{fredericks}
\@writefile{nav}{\headcommand {\slideentry {3}{0}{20}{20/20}{}{0}}}
\@writefile{nav}{\headcommand {\beamer@framepages {20}{20}}}
\@writefile{toc}{\beamer@sectionintoc {4}{Fase Preliminar de Desenvolvimento}{21}{0}{4}}
\@writefile{nav}{\headcommand {\sectionentry {4}{Fase Preliminar de Desenvolvimento}{21}{Fase Preliminar de Desenvolvimento}{0}}}
\@writefile{nav}{\headcommand {\beamer@sectionpages {16}{20}}}
\@writefile{nav}{\headcommand {\beamer@subsectionpages {16}{20}}}
\@writefile{nav}{\headcommand {\slideentry {4}{0}{21}{21/21}{}{0}}}
\@writefile{nav}{\headcommand {\beamer@framepages {21}{21}}}
\citation{whittle2010}
\@writefile{nav}{\headcommand {\slideentry {4}{0}{22}{22/22}{}{0}}}
\@writefile{nav}{\headcommand {\beamer@framepages {22}{22}}}
\@writefile{nav}{\headcommand {\slideentry {4}{0}{23}{23/23}{}{0}}}
\@writefile{nav}{\headcommand {\beamer@framepages {23}{23}}}
\@writefile{nav}{\headcommand {\slideentry {4}{0}{24}{24/24}{}{0}}}
\@writefile{nav}{\headcommand {\beamer@framepages {24}{24}}}
\@writefile{nav}{\headcommand {\slideentry {4}{0}{25}{25/25}{}{0}}}
\@writefile{nav}{\headcommand {\beamer@framepages {25}{25}}}
\@writefile{nav}{\headcommand {\slideentry {4}{0}{26}{26/26}{}{0}}}
\@writefile{nav}{\headcommand {\beamer@framepages {26}{26}}}
\@writefile{nav}{\headcommand {\slideentry {4}{0}{27}{27/27}{}{0}}}
\@writefile{nav}{\headcommand {\beamer@framepages {27}{27}}}
\@writefile{nav}{\headcommand {\slideentry {4}{0}{28}{28/28}{}{0}}}
\@writefile{nav}{\headcommand {\beamer@framepages {28}{28}}}
\@writefile{toc}{\beamer@sectionintoc {5}{Conclus\IeC {\~o}es Preliminares}{29}{0}{5}}
\@writefile{nav}{\headcommand {\sectionentry {5}{Conclus\IeC {\~o}es Preliminares}{29}{Conclus\IeC {\~o}es Preliminares}{0}}}
\@writefile{nav}{\headcommand {\beamer@sectionpages {21}{28}}}
\@writefile{nav}{\headcommand {\beamer@subsectionpages {21}{28}}}
\@writefile{nav}{\headcommand {\slideentry {5}{0}{29}{29/29}{}{0}}}
\@writefile{nav}{\headcommand {\beamer@framepages {29}{29}}}
\@writefile{nav}{\headcommand {\slideentry {5}{0}{30}{30/30}{}{0}}}
\@writefile{nav}{\headcommand {\beamer@framepages {30}{30}}}
\@writefile{nav}{\headcommand {\slideentry {5}{0}{31}{31/31}{}{0}}}
\@writefile{nav}{\headcommand {\beamer@framepages {31}{31}}}
\bibcite{ian}{\hyperlink {beamerbibian}{1}}
\bibcite{varelaAraujoBritoMoreira2011}{\hyperlink {beamerbibvarelaAraujoBritoMoreira2011}{2}}
\bibcite{butler}{\hyperlink {beamerbibbutler}{3}}
\bibcite{azevedo}{\hyperlink {beamerbibazevedo}{4}}
\bibcite{ali}{\hyperlink {beamerbibali}{5}}
\@writefile{nav}{\headcommand {\slideentry {5}{0}{32}{32/32}{}{0}}}
\@writefile{nav}{\headcommand {\beamer@framepages {32}{32}}}
\bibcite{daengenharia}{\hyperlink {beamerbibdaengenharia}{6}}
\bibcite{umoh2011refinto}{\hyperlink {beamerbibumoh2011refinto}{7}}
\bibcite{zarinah}{\hyperlink {beamerbibzarinah}{8}}
\bibcite{daramola}{\hyperlink {beamerbibdaramola}{9}}
\bibcite{ito}{\hyperlink {beamerbibito}{10}}
\@writefile{nav}{\headcommand {\slideentry {5}{0}{33}{33/33}{}{0}}}
\@writefile{nav}{\headcommand {\beamer@framepages {33}{33}}}
\bibcite{beckers2013structured}{\hyperlink {beamerbibbeckers2013structured}{11}}
\bibcite{daramolaSatalhaneSindreOmoronia2011}{\hyperlink {beamerbibdaramolaSatalhaneSindreOmoronia2011}{12}}
\bibcite{hussein2013}{\hyperlink {beamerbibhussein2013}{13}}
\bibcite{fredericks}{\hyperlink {beamerbibfredericks}{14}}
\bibcite{pressman}{\hyperlink {beamerbibpressman}{15}}
\@writefile{nav}{\headcommand {\slideentry {5}{0}{34}{34/34}{}{0}}}
\@writefile{nav}{\headcommand {\beamer@framepages {34}{34}}}
\bibcite{whittle2010}{\hyperlink {beamerbibwhittle2010}{16}}
\bibcite{brun2009engineering}{\hyperlink {beamerbibbrun2009engineering}{17}}
\bibcite{sawyer2010requirements}{\hyperlink {beamerbibsawyer2010requirements}{18}}
\bibcite{desvirivieres}{\hyperlink {beamerbibdesvirivieres}{19}}
\@writefile{nav}{\headcommand {\slideentry {5}{0}{35}{35/35}{}{0}}}
\@writefile{nav}{\headcommand {\beamer@framepages {35}{35}}}
\bibcite{huebscher}{\hyperlink {beamerbibhuebscher}{20}}
\bibcite{herczeg}{\hyperlink {beamerbibherczeg}{21}}
\bibcite{qureshi2010requirements}{\hyperlink {beamerbibqureshi2010requirements}{22}}
\@writefile{nav}{\headcommand {\slideentry {5}{0}{36}{36/36}{}{0}}}
\@writefile{nav}{\headcommand {\beamer@framepages {36}{36}}}
\@writefile{nav}{\headcommand {\slideentry {5}{0}{37}{37/37}{}{0}}}
\@writefile{nav}{\headcommand {\beamer@framepages {37}{37}}}
\@writefile{nav}{\headcommand {\beamer@partpages {1}{37}}}
\@writefile{nav}{\headcommand {\beamer@subsectionpages {29}{37}}}
\@writefile{nav}{\headcommand {\beamer@sectionpages {29}{37}}}
\@writefile{nav}{\headcommand {\beamer@documentpages {37}}}
\@writefile{nav}{\headcommand {\def \inserttotalframenumber {37}}}
