\select@language {brazil}
\contentsline {figure}{\numberline {1}{\ignorespaces Vis\IeC {\~a}o de processo de Engenharia de Requisitos utilizada nesse trabalho.}}{27}{figure.2.1}
\contentsline {figure}{\numberline {2}{\ignorespaces Principais propriedades de um sistema autoadaptativo.}}{35}{figure.2.2}
\contentsline {figure}{\numberline {3}{\ignorespaces Arquitetura da Plataforma Eclipse~\cite {desrivieres2004eclipse}.}}{40}{figure.2.3}
\contentsline {figure}{\numberline {4}{\ignorespaces Arquitetura de um \textit {plugin} eclipse.}}{41}{figure.2.4}
\contentsline {figure}{\numberline {5}{\ignorespaces Operadores Relax~\cite {whittle2010relax}.}}{49}{figure.4.5}
\contentsline {figure}{\numberline {6}{\ignorespaces Sem\IeC {\^a}ntica das Express\IeC {\~o}es Relax~\cite {whittle2010relax}.}}{49}{figure.4.6}
\contentsline {figure}{\numberline {7}{\ignorespaces Diagrama de Caso de Uso.}}{50}{figure.4.7}
\contentsline {figure}{\numberline {8}{\ignorespaces Diagrama de Atividades.}}{51}{figure.4.8}
\contentsline {figure}{\numberline {9}{\ignorespaces Modelagem de Dom\IeC {\'\i }nio.}}{53}{figure.4.9}
\contentsline {figure}{\numberline {10}{\ignorespaces Arquitetura \ac {mvc}.}}{54}{figure.4.10}
\contentsline {figure}{\numberline {11}{\ignorespaces \textit {StoryBoard} da ferramenta Relax~\textit {Editor}.}}{54}{figure.4.11}
