\relax 
\providecommand\hyper@newdestlabel[2]{}
\providecommand\BKM@entry[2]{}
\providecommand\zref@newlabel[2]{}
\providecommand*{\memsetcounter}[2]{}
\providecommand\HyperFirstAtBeginDocument{\AtBeginDocument}
\HyperFirstAtBeginDocument{\ifx\hyper@anchor\@undefined
\global\let\oldcontentsline\contentsline
\gdef\contentsline#1#2#3#4{\oldcontentsline{#1}{#2}{#3}}
\global\let\oldnewlabel\newlabel
\gdef\newlabel#1#2{\newlabelxx{#1}#2}
\gdef\newlabelxx#1#2#3#4#5#6{\oldnewlabel{#1}{{#2}{#3}}}
\AtEndDocument{\ifx\hyper@anchor\@undefined
\let\contentsline\oldcontentsline
\let\newlabel\oldnewlabel
\fi}
\fi}
\global\let\hyper@last\relax 
\gdef\HyperFirstAtBeginDocument#1{#1}
\providecommand\HyField@AuxAddToFields[1]{}
\providecommand\HyField@AuxAddToCoFields[2]{}
\catcode `"\active 
\citation{abnt-url-package=url}
\providecommand\acro@used@once[4]{}
\providecommand\acro@used@twice[4]{}
\providecommand\acro@pages[2]{}
\@writefile{toc}{\changetocdepth  {4}}
\select@language{brazil}
\@writefile{toc}{\select@language{brazil}}
\@writefile{lof}{\select@language{brazil}}
\@writefile{lot}{\select@language{brazil}}
\BKM@entry{id=1,dest={6368617074657262312E30},srcline={291}}{466F6C686120646520726F73746F}
\BKM@entry{id=2,dest={6368617074657262322E30},srcline={14}}{466F6C6861206465206170726F76615C3334375C3334336F}
\BKM@entry{id=3,dest={6368617074657262332E30},srcline={2}}{446564696361745C333633726961}
\BKM@entry{id=4,dest={6368617074657262342E30},srcline={2}}{45705C3335356772616665}
\BKM@entry{id=5,dest={6368617074657262352E30},srcline={2}}{526573756D6F}
\citation{whittle2010relax}
\citation{whittle2010relax}
\@writefile{brf}{\backcite{whittle2010relax}{{9}{(document)}{Doc-Start}}}
\@writefile{brf}{\backcite{whittle2010relax}{{9}{(document)}{Doc-Start}}}
\BKM@entry{id=6,dest={6368617074657262362E30},srcline={1}}{4162737472616374}
\citation{whittle2010relax}
\citation{whittle2010relax}
\@writefile{brf}{\backcite{whittle2010relax}{{11}{(document)}{Doc-Start}}}
\@writefile{brf}{\backcite{whittle2010relax}{{11}{(document)}{Doc-Start}}}
\BKM@entry{id=7,dest={6C6F662E30},srcline={330}}{4C6973746120646520696C75737472615C3334375C3336356573}
\citation{desrivieres2004eclipse}
\citation{whittle2010relax}
\citation{whittle2010relax}
\@writefile{toc}{\setlength  {\cftchapterindent }{\cftlastnumwidth } \setlength  {\cftchapternumwidth }{2em}}
\@writefile{brf}{\backcite{desrivieres2004eclipse}{{13}{(document)}{Doc-Start}}}
\@writefile{brf}{\backcite{whittle2010relax}{{13}{(document)}{Doc-Start}}}
\@writefile{brf}{\backcite{whittle2010relax}{{13}{(document)}{Doc-Start}}}
\acro@used@once{mvc}{13}{13}{15}
\@@wrindexm@m{monografia}{mvc@{MVC}|hyperpage}{13}
\BKM@entry{id=8,dest={6C6F742E30},srcline={335}}{4C6973746120646520746162656C6173}
\@writefile{toc}{\setlength  {\cftchapterindent }{\cftlastnumwidth } \setlength  {\cftchapternumwidth }{2em}}
\BKM@entry{id=9,dest={6C6F612E30},srcline={347}}{4C69737461206465207369676C6173}
\acro@print@list
\@writefile{toc}{\setlength  {\cftchapterindent }{\cftlastnumwidth } \setlength  {\cftchapternumwidth }{2em}}
\BKM@entry{id=10,dest={6C6F732E30},srcline={353}}{4C6973746120646520735C3335356D626F6C6F73}
\BKM@entry{id=11,dest={746F632E30},srcline={361}}{53756D5C33343172696F}
\@writefile{toc}{\setlength  {\cftchapterindent }{\cftlastnumwidth } \setlength  {\cftchapternumwidth }{2em}}
\BKM@entry{id=12,dest={636861707465722E31},srcline={2}}{496E74726F64755C3334375C3334336F}
\citation{sommervilleengenharia}
\citation{pressman2011engenharia}
\citation{pfleeger2010software}
\citation{sommervilleengenharia}
\citation{whittle2010relax}
\citation{cheng2009software}
\citation{qureshi2010requirements}
\citation{bencomo2012self}
\citation{bencomo2012self}
\@writefile{toc}{\setlength  {\cftchapterindent }{0em} \setlength  {\cftchapternumwidth }{\cftlastnumwidth }}
\@writefile{toc}{\contentsline {chapter}{\chapternumberline {1}\MakeTextUppercase  {Introdu\IeC {\c c}\IeC {\~a}o}}{21}{chapter.1}}
\newlabel{introducao}{{1}{21}{Introdução}{chapter.1}{}}
\@writefile{brf}{\backcite{sommervilleengenharia}{{21}{1}{chapter.1}}}
\acro@used@once{er}{21}{21}{23}
\@@wrindexm@m{monografia}{er@{ER}|hyperpage}{21}
\@writefile{brf}{\backcite{pressman2011engenharia}{{21}{1}{chapter.1}}}
\acro@used@twice{er}{21}{21}{23}
\@@wrindexm@m{monografia}{er@{ER}|hyperpage}{21}
\@writefile{brf}{\backcite{pfleeger2010software}{{21}{1}{chapter.1}}}
\acro@used@twice{er}{21}{21}{23}
\@@wrindexm@m{monografia}{er@{ER}|hyperpage}{21}
\@writefile{brf}{\backcite{sommervilleengenharia}{{21}{1}{chapter.1}}}
\acro@used@once{sa}{21}{21}{23}
\@@wrindexm@m{monografia}{sa@{SA}|hyperpage}{21}
\@writefile{brf}{\backcite{whittle2010relax}{{21}{1}{chapter.1}}}
\@writefile{brf}{\backcite{cheng2009software}{{21}{1}{chapter.1}}}
\@writefile{brf}{\backcite{qureshi2010requirements}{{21}{1}{chapter.1}}}
\acro@used@once{sbs}{21}{21}{23}
\@@wrindexm@m{monografia}{sbs@{SBS}|hyperpage}{21}
\acro@used@twice{sbs}{21}{21}{23}
\@@wrindexm@m{monografia}{sbs@{SBS}|hyperpage}{21}
\@writefile{brf}{\backcite{bencomo2012self}{{21}{1}{chapter.1}}}
\citation{qureshi2010continuous}
\citation{whittle2010relax}
\citation{whittle2010relax}
\citation{sawyer2010requirements}
\citation{qureshi2010requirements}
\citation{qureshi2009engineering}
\citation{qureshi2010continuous}
\citation{bencomo2010requirements}
\citation{bencomo2012self}
\citation{welsh2010understanding}
\BKM@entry{id=13,dest={73656374696F6E2E312E31},srcline={22}}{4F626A657469766F73}
\citation{whittle2010relax}
\BKM@entry{id=14,dest={73656374696F6E2E312E32},srcline={31}}{4D65746F646F6C6F676961}
\@writefile{brf}{\backcite{bencomo2012self}{{22}{1}{chapter.1}}}
\acro@used@twice{sa}{22}{22}{24}
\@@wrindexm@m{monografia}{sa@{SA}|hyperpage}{22}
\acro@used@twice{er}{22}{22}{24}
\@@wrindexm@m{monografia}{er@{ER}|hyperpage}{22}
\@writefile{brf}{\backcite{qureshi2010continuous}{{22}{1}{chapter.1}}}
\@writefile{brf}{\backcite{whittle2010relax}{{22}{1}{chapter.1}}}
\acro@used@twice{er}{22}{22}{24}
\@@wrindexm@m{monografia}{er@{ER}|hyperpage}{22}
\acro@used@twice{sa}{22}{22}{24}
\@@wrindexm@m{monografia}{sa@{SA}|hyperpage}{22}
\@writefile{brf}{\backcite{whittle2010relax}{{22}{1}{chapter.1}}}
\acro@used@twice{sa}{22}{22}{24}
\@@wrindexm@m{monografia}{sa@{SA}|hyperpage}{22}
\@writefile{brf}{\backcite{sawyer2010requirements, qureshi2010requirements, qureshi2009engineering}{{22}{1}{chapter.1}}}
\@writefile{brf}{\backcite{sawyer2010requirements, qureshi2010requirements, qureshi2009engineering}{{22}{1}{chapter.1}}}
\@writefile{brf}{\backcite{sawyer2010requirements, qureshi2010requirements, qureshi2009engineering}{{22}{1}{chapter.1}}}
\@writefile{brf}{\backcite{qureshi2010continuous,bencomo2010requirements}{{22}{1}{chapter.1}}}
\@writefile{brf}{\backcite{qureshi2010continuous,bencomo2010requirements}{{22}{1}{chapter.1}}}
\@writefile{brf}{\backcite{bencomo2012self, welsh2010understanding}{{22}{1}{chapter.1}}}
\@writefile{brf}{\backcite{bencomo2012self, welsh2010understanding}{{22}{1}{chapter.1}}}
\acro@used@twice{er}{22}{22}{24}
\@@wrindexm@m{monografia}{er@{ER}|hyperpage}{22}
\acro@used@twice{sa}{22}{22}{24}
\@@wrindexm@m{monografia}{sa@{SA}|hyperpage}{22}
\@writefile{toc}{\contentsline {section}{\numberline {1.1}Objetivos}{22}{section.1.1}}
\acro@used@twice{sa}{22}{22}{24}
\@@wrindexm@m{monografia}{sa@{SA}|hyperpage}{22}
\acro@used@twice{sa}{22}{22}{24}
\@@wrindexm@m{monografia}{sa@{SA}|hyperpage}{22}
\@writefile{brf}{\backcite{whittle2010relax}{{22}{1.1}{section.1.1}}}
\@writefile{toc}{\contentsline {section}{\numberline {1.2}Metodologia}{22}{section.1.2}}
\BKM@entry{id=15,dest={73656374696F6E2E312E33},srcline={41}}{4F7267616E697A615C3334375C3334336F20646F20446F63756D656E746F}
\acro@used@twice{er}{23}{23}{25}
\@@wrindexm@m{monografia}{er@{ER}|hyperpage}{23}
\acro@used@twice{er}{23}{23}{25}
\@@wrindexm@m{monografia}{er@{ER}|hyperpage}{23}
\acro@used@twice{sa}{23}{23}{25}
\@@wrindexm@m{monografia}{sa@{SA}|hyperpage}{23}
\acro@used@twice{er}{23}{23}{25}
\@@wrindexm@m{monografia}{er@{ER}|hyperpage}{23}
\acro@used@twice{sa}{23}{23}{25}
\@@wrindexm@m{monografia}{sa@{SA}|hyperpage}{23}
\acro@used@once{rup}{23}{23}{25}
\@@wrindexm@m{monografia}{rup@{RUP}|hyperpage}{23}
\@writefile{toc}{\contentsline {section}{\numberline {1.3}Organiza\IeC {\c c}\IeC {\~a}o do Documento}{23}{section.1.3}}
\acro@used@twice{er}{23}{23}{25}
\@@wrindexm@m{monografia}{er@{ER}|hyperpage}{23}
\acro@used@twice{sa}{23}{23}{25}
\@@wrindexm@m{monografia}{sa@{SA}|hyperpage}{23}
\BKM@entry{id=16,dest={636861707465722E32},srcline={4}}{46756E64616D656E74615C3334375C3334336F2054655C333633726963612065205465636E6F6C5C33363367696361}
\BKM@entry{id=17,dest={73656374696F6E2E322E31},srcline={7}}{456E67656E68617269612064652052657175697369746F73}
\citation{pressman2011engenharia}
\citation{sommervilleengenharia}
\BKM@entry{id=18,dest={73756273656374696F6E2E322E312E31},srcline={18}}{50726F636573736F20646520456E67656E68617269612064652052657175697369746F73}
\citation{sommervilleengenharia}
\@writefile{toc}{\setlength  {\cftchapterindent }{0em} \setlength  {\cftchapternumwidth }{\cftlastnumwidth }}
\@writefile{toc}{\contentsline {chapter}{\chapternumberline {2}\MakeTextUppercase  {Fundamenta\IeC {\c c}\IeC {\~a}o Te\IeC {\'o}rica e Tecnol\IeC {\'o}gica}}{25}{chapter.2}}
\acro@used@twice{er}{25}{25}{27}
\@@wrindexm@m{monografia}{er@{ER}|hyperpage}{25}
\acro@used@twice{sa}{25}{25}{27}
\@@wrindexm@m{monografia}{sa@{SA}|hyperpage}{25}
\@writefile{toc}{\contentsline {section}{\numberline {2.1}Engenharia de Requisitos}{25}{section.2.1}}
\acro@used@twice{er}{25}{25}{27}
\@@wrindexm@m{monografia}{er@{ER}|hyperpage}{25}
\acro@used@twice{er}{25}{25}{27}
\@@wrindexm@m{monografia}{er@{ER}|hyperpage}{25}
\@writefile{brf}{\backcite{pressman2011engenharia}{{25}{2.1}{section.2.1}}}
\acro@used@twice{er}{25}{25}{27}
\@@wrindexm@m{monografia}{er@{ER}|hyperpage}{25}
\@writefile{brf}{\backcite{sommervilleengenharia}{{25}{2.1}{section.2.1}}}
\acro@used@twice{er}{25}{25}{27}
\@@wrindexm@m{monografia}{er@{ER}|hyperpage}{25}
\acro@used@twice{er}{25}{25}{27}
\@@wrindexm@m{monografia}{er@{ER}|hyperpage}{25}
\citation{sommervilleengenharia}
\citation{pfleeger2004software}
\citation{pressman2011engenharia}
\citation{pressman2011engenharia}
\citation{pfleeger2004software}
\citation{sommervilleengenharia}
\@writefile{toc}{\contentsline {subsection}{\numberline {2.1.1}Processo de Engenharia de Requisitos}{26}{subsection.2.1.1}}
\@writefile{brf}{\backcite{sommervilleengenharia}{{26}{2.1.1}{subsection.2.1.1}}}
\acro@used@twice{er}{26}{26}{28}
\@@wrindexm@m{monografia}{er@{ER}|hyperpage}{26}
\acro@used@twice{er}{26}{26}{28}
\@@wrindexm@m{monografia}{er@{ER}|hyperpage}{26}
\@writefile{brf}{\backcite{sommervilleengenharia}{{26}{2.1.1}{subsection.2.1.1}}}
\@writefile{brf}{\backcite{pfleeger2004software}{{26}{2.1.1}{subsection.2.1.1}}}
\@writefile{brf}{\backcite{pressman2011engenharia}{{26}{2.1.1}{subsection.2.1.1}}}
\acro@used@twice{er}{26}{26}{28}
\@@wrindexm@m{monografia}{er@{ER}|hyperpage}{26}
\citation{sommervilleengenharia}
\citation{pfleeger2004software}
\citation{pressman2011engenharia}
\BKM@entry{id=19,dest={73756273756273656374696F6E2E322E312E312E31},srcline={41}}{496E766573746967615C3334375C3334336F}
\citation{wazlawick2004analise}
\acro@used@twice{er}{27}{27}{29}
\@@wrindexm@m{monografia}{er@{ER}|hyperpage}{27}
\@writefile{brf}{\backcite{pressman2011engenharia}{{27}{2.1.1}{subsection.2.1.1}}}
\@writefile{brf}{\backcite{pfleeger2004software}{{27}{2.1.1}{subsection.2.1.1}}}
\@writefile{brf}{\backcite{sommervilleengenharia}{{27}{2.1.1}{subsection.2.1.1}}}
\acro@used@twice{er}{27}{27}{29}
\@@wrindexm@m{monografia}{er@{ER}|hyperpage}{27}
\@writefile{brf}{\backcite{sommervilleengenharia}{{27}{2.1.1}{subsection.2.1.1}}}
\@writefile{brf}{\backcite{pfleeger2004software}{{27}{2.1.1}{subsection.2.1.1}}}
\@writefile{brf}{\backcite{pressman2011engenharia}{{27}{2.1.1}{subsection.2.1.1}}}
\@writefile{lof}{\contentsline {figure}{\numberline {1}{\ignorespaces Vis\IeC {\~a}o de processo de Engenharia de Requisitos utilizada nesse trabalho.}}{27}{figure.2.1}}
\newlabel{fig_modeloER}{{1}{27}{Visão de processo de Engenharia de Requisitos utilizada nesse trabalho}{figure.2.1}{}}
\@writefile{toc}{\contentsline {subsubsection}{\numberline {2.1.1.1}Investiga\IeC {\c c}\IeC {\~a}o}{27}{subsubsection.2.1.1.1}}
\citation{pressman2011engenharia}
\citation{pressman2011engenharia}
\citation{sommervilleengenharia}
\citation{sommervilleengenharia}
\@writefile{brf}{\backcite{wazlawick2004analise}{{28}{2.1.1.1}{subsubsection.2.1.1.1}}}
\@writefile{brf}{\backcite{pressman2011engenharia}{{28}{2.1.1.1}{subsubsection.2.1.1.1}}}
\@writefile{brf}{\backcite{pressman2011engenharia}{{28}{2.1.1.1}{subsubsection.2.1.1.1}}}
\acro@used@once{jad}{28}{28}{30}
\@@wrindexm@m{monografia}{jad@{JAD}|hyperpage}{28}
\@writefile{brf}{\backcite{sommervilleengenharia}{{28}{2.1.1.1}{subsubsection.2.1.1.1}}}
\citation{sommervilleengenharia}
\citation{aanalise}
\citation{aanalise}
\citation{aanalise}
\@writefile{brf}{\backcite{sommervilleengenharia}{{29}{2.1.1.1}{subsubsection.2.1.1.1}}}
\@writefile{brf}{\backcite{sommervilleengenharia}{{29}{2.1.1.1}{subsubsection.2.1.1.1}}}
\@writefile{brf}{\backcite{aanalise}{{29}{2.1.1.1}{subsubsection.2.1.1.1}}}
\@writefile{brf}{\backcite{aanalise}{{29}{2.1.1.1}{subsubsection.2.1.1.1}}}
\@writefile{brf}{\backcite{aanalise}{{29}{2.1.1.1}{subsubsection.2.1.1.1}}}
\citation{aanalise}
\BKM@entry{id=20,dest={73756273756273656374696F6E2E322E312E312E32},srcline={103}}{416E5C3334316C697365}
\citation{sommervilleengenharia}
\citation{sommervilleengenharia}
\citation{wazlawick2004analise}
\citation{wazlawick2004analise}
\acro@used@twice{jad}{30}{30}{32}
\@@wrindexm@m{monografia}{jad@{JAD}|hyperpage}{30}
\@writefile{brf}{\backcite{aanalise}{{30}{2.1.1.1}{subsubsection.2.1.1.1}}}
\@writefile{toc}{\contentsline {subsubsection}{\numberline {2.1.1.2}An\IeC {\'a}lise}{30}{subsubsection.2.1.1.2}}
\@writefile{brf}{\backcite{sommervilleengenharia}{{30}{2.1.1.2}{subsubsection.2.1.1.2}}}
\@writefile{brf}{\backcite{sommervilleengenharia}{{30}{2.1.1.2}{subsubsection.2.1.1.2}}}
\@writefile{brf}{\backcite{wazlawick2004analise}{{30}{2.1.1.2}{subsubsection.2.1.1.2}}}
\citation{wazlawick2004analise}
\citation{wazlawick2004analise}
\citation{wazlawick2004analise}
\BKM@entry{id=21,dest={73756273756273656374696F6E2E322E312E312E33},srcline={154}}{457370656369666963615C3334375C3334336F}
\citation{pfleeger2004software}
\@writefile{brf}{\backcite{wazlawick2004analise}{{31}{2.1.1.2}{subsubsection.2.1.1.2}}}
\@writefile{brf}{\backcite{wazlawick2004analise}{{31}{2.1.1.2}{subsubsection.2.1.1.2}}}
\@writefile{brf}{\backcite{wazlawick2004analise}{{31}{2.1.1.2}{subsubsection.2.1.1.2}}}
\acro@used@once{uml}{31}{31}{33}
\@@wrindexm@m{monografia}{uml@{UML}|hyperpage}{31}
\@writefile{brf}{\backcite{wazlawick2004analise}{{31}{2.1.1.2}{subsubsection.2.1.1.2}}}
\@writefile{toc}{\contentsline {subsubsection}{\numberline {2.1.1.3}Especifica\IeC {\c c}\IeC {\~a}o}{31}{subsubsection.2.1.1.3}}
\@writefile{brf}{\backcite{pfleeger2004software}{{31}{2.1.1.3}{subsubsection.2.1.1.3}}}
\citation{pfleeger2004software}
\citation{pfleeger2004software}
\citation{pfleeger2004software}
\citation{pfleeger2004software}
\BKM@entry{id=22,dest={73756273756273656374696F6E2E322E312E312E34},srcline={174}}{56616C6964615C3334375C3334336F}
\citation{sommervilleengenharia}
\acro@used@twice{er}{32}{32}{34}
\@@wrindexm@m{monografia}{er@{ER}|hyperpage}{32}
\acro@used@twice{er}{32}{32}{34}
\@@wrindexm@m{monografia}{er@{ER}|hyperpage}{32}
\@writefile{brf}{\backcite{pfleeger2004software}{{32}{2.1.1.3}{subsubsection.2.1.1.3}}}
\@writefile{brf}{\backcite{pfleeger2004software}{{32}{2.1.1.3}{subsubsection.2.1.1.3}}}
\@writefile{brf}{\backcite{pfleeger2004software}{{32}{2.1.1.3}{subsubsection.2.1.1.3}}}
\@writefile{brf}{\backcite{pfleeger2004software}{{32}{2.1.1.3}{subsubsection.2.1.1.3}}}
\@writefile{toc}{\contentsline {subsubsection}{\numberline {2.1.1.4}Valida\IeC {\c c}\IeC {\~a}o}{32}{subsubsection.2.1.1.4}}
\citation{pressman2011engenharia}
\citation{sommervilleengenharia}
\@writefile{brf}{\backcite{sommervilleengenharia}{{33}{2.1.1.4}{subsubsection.2.1.1.4}}}
\acro@used@twice{er}{33}{33}{35}
\@@wrindexm@m{monografia}{er@{ER}|hyperpage}{33}
\@writefile{brf}{\backcite{pressman2011engenharia}{{33}{2.1.1.4}{subsubsection.2.1.1.4}}}
\@writefile{brf}{\backcite{sommervilleengenharia}{{33}{2.1.1.4}{subsubsection.2.1.1.4}}}
\citation{sommervilleengenharia}
\BKM@entry{id=23,dest={73656374696F6E2E322E32},srcline={204}}{53697374656D6173204175746F6164617074617469766F73}
\citation{saltzer2009principles}
\citation{whittle2010relax}
\citation{sawyer2010requirements}
\BKM@entry{id=24,dest={73756273656374696F6E2E322E322E31},srcline={213}}{50726F707269656461646573206465204175746F6164617074615C3334375C3334336F}
\citation{brun2009engineering}
\citation{daengenharia}
\citation{andre2010architectures}
\@writefile{brf}{\backcite{sommervilleengenharia}{{34}{2.1.1.4}{subsubsection.2.1.1.4}}}
\@writefile{toc}{\contentsline {section}{\numberline {2.2}Sistemas Autoadaptativos}{34}{section.2.2}}
\@writefile{brf}{\backcite{whittle2010relax}{{34}{2.2}{section.2.2}}}
\@writefile{brf}{\backcite{sawyer2010requirements}{{34}{2.2}{section.2.2}}}
\@writefile{toc}{\contentsline {subsection}{\numberline {2.2.1}Propriedades de Autoadapta\IeC {\c c}\IeC {\~a}o}{34}{subsection.2.2.1}}
\@writefile{brf}{\backcite{brun2009engineering}{{34}{2.2.1}{subsection.2.2.1}}}
\@writefile{brf}{\backcite{daengenharia}{{34}{2.2.1}{subsection.2.2.1}}}
\@writefile{brf}{\backcite{saltzer2009principles}{{34}{1}{Hfootnote.1}}}
\citation{bencomo2012self}
\citation{adaptiveDynamicAndResilientSystem}
\@writefile{lof}{\contentsline {figure}{\numberline {2}{\ignorespaces Principais propriedades de um sistema autoadaptativo.}}{35}{figure.2.2}}
\newlabel{fig_SA_Propriedades}{{2}{35}{Principais propriedades de um sistema autoadaptativo}{figure.2.2}{}}
\@writefile{brf}{\backcite{andre2010architectures}{{35}{2.2.1}{figure.2.2}}}
\@writefile{brf}{\backcite{bencomo2012self}{{35}{2.2.1}{figure.2.2}}}
\citation{qureshi2010requirements}
\citation{adaptiveDynamicAndResilientSystem}
\citation{adaptiveDynamicAndResilientSystem}
\citation{qureshi2010requirements}
\citation{bencomo2012self}
\BKM@entry{id=25,dest={73756273656374696F6E2E322E322E32},srcline={250}}{41626F72646167656E732064652053697374656D6173204175746F6164617074617469766F73}
\@writefile{brf}{\backcite{adaptiveDynamicAndResilientSystem}{{36}{2.2.1}{figure.2.2}}}
\acro@used@twice{sa}{36}{36}{38}
\@@wrindexm@m{monografia}{sa@{SA}|hyperpage}{36}
\@writefile{brf}{\backcite{qureshi2010requirements}{{36}{2.2.1}{figure.2.2}}}
\acro@used@twice{sbs}{36}{36}{38}
\@@wrindexm@m{monografia}{sbs@{SBS}|hyperpage}{36}
\@writefile{brf}{\backcite{adaptiveDynamicAndResilientSystem}{{36}{2.2.1}{figure.2.2}}}
\acro@used@twice{sa}{36}{36}{38}
\@@wrindexm@m{monografia}{sa@{SA}|hyperpage}{36}
\@writefile{brf}{\backcite{adaptiveDynamicAndResilientSystem}{{36}{2.2.1}{figure.2.2}}}
\@writefile{brf}{\backcite{qureshi2010requirements}{{36}{2.2.1}{figure.2.2}}}
\acro@used@twice{sbs}{36}{36}{38}
\@@wrindexm@m{monografia}{sbs@{SBS}|hyperpage}{36}
\acro@used@twice{sa}{36}{36}{38}
\@@wrindexm@m{monografia}{sa@{SA}|hyperpage}{36}
\@writefile{brf}{\backcite{bencomo2012self}{{36}{2.2.1}{figure.2.2}}}
\acro@used@twice{sa}{36}{36}{38}
\@@wrindexm@m{monografia}{sa@{SA}|hyperpage}{36}
\citation{huebscher2008survey}
\citation{abordagensDeEngDeReqComAuto}
\citation{herczeg2010smart}
\citation{qureshi2010requirements}
\@writefile{toc}{\contentsline {subsection}{\numberline {2.2.2}Abordagens de Sistemas Autoadaptativos}{37}{subsection.2.2.2}}
\acro@used@twice{sa}{37}{37}{39}
\@@wrindexm@m{monografia}{sa@{SA}|hyperpage}{37}
\@writefile{brf}{\backcite{huebscher2008survey}{{37}{2.2.2}{subsection.2.2.2}}}
\@writefile{brf}{\backcite{abordagensDeEngDeReqComAuto}{{37}{2.2.2}{subsection.2.2.2}}}
\@writefile{brf}{\backcite{herczeg2010smart}{{37}{2.2.2}{subsection.2.2.2}}}
\acro@used@twice{sbs}{37}{37}{39}
\@@wrindexm@m{monografia}{sbs@{SBS}|hyperpage}{37}
\@writefile{brf}{\backcite{qureshi2010requirements}{{37}{2.2.2}{subsection.2.2.2}}}
\acro@used@twice{sbs}{37}{37}{39}
\@@wrindexm@m{monografia}{sbs@{SBS}|hyperpage}{37}
\BKM@entry{id=26,dest={73756273656374696F6E2E322E322E33},srcline={272}}{41626F72646167656E732064652061706F696F20616F20446573656E766F6C76696D656E746F2064652053697374656D6173204175746F6164617074617469766F73}
\citation{brun2009engineering}
\citation{brun2009engineering}
\citation{sawyer2010requirements}
\citation{sawyer2010requirements}
\citation{daengenharia}
\@writefile{toc}{\contentsline {subsection}{\numberline {2.2.3}Abordagens de apoio ao Desenvolvimento de Sistemas Autoadaptativos}{38}{subsection.2.2.3}}
\@writefile{brf}{\backcite{brun2009engineering}{{38}{2.2.3}{subsection.2.2.3}}}
\@writefile{brf}{\backcite{brun2009engineering}{{38}{2.2.3}{subsection.2.2.3}}}
\acro@used@twice{er}{38}{38}{40}
\@@wrindexm@m{monografia}{er@{ER}|hyperpage}{38}
\acro@used@twice{sbs}{38}{38}{40}
\@@wrindexm@m{monografia}{sbs@{SBS}|hyperpage}{38}
\@writefile{brf}{\backcite{sawyer2010requirements}{{38}{2.2.3}{subsection.2.2.3}}}
\acro@used@twice{er}{38}{38}{40}
\@@wrindexm@m{monografia}{er@{ER}|hyperpage}{38}
\acro@used@twice{sa}{38}{38}{40}
\@@wrindexm@m{monografia}{sa@{SA}|hyperpage}{38}
\acro@used@twice{sa}{38}{38}{40}
\@@wrindexm@m{monografia}{sa@{SA}|hyperpage}{38}
\acro@used@twice{er}{38}{38}{40}
\@@wrindexm@m{monografia}{er@{ER}|hyperpage}{38}
\@writefile{brf}{\backcite{sawyer2010requirements}{{38}{2.2.3}{subsection.2.2.3}}}
\acro@used@twice{sa}{38}{38}{40}
\@@wrindexm@m{monografia}{sa@{SA}|hyperpage}{38}
\BKM@entry{id=27,dest={73656374696F6E2E322E33},srcline={286}}{506C617461666F726D612045636C697073652070617261206F20446573656E766F6C76696D656E746F20646520506C7567696E73}
\citation{ecliseDocumentationLuna}
\citation{desrivieres2004eclipse}
\BKM@entry{id=28,dest={73756273656374696F6E2E322E332E31},srcline={292}}{417271756974657475726120646120506C617461666F726D612045636C69707365}
\citation{desrivieres2004eclipse}
\citation{desrivieres2004eclipse}
\citation{desrivieres2004eclipse}
\citation{desrivieres2004eclipse}
\acro@used@twice{er}{39}{39}{41}
\@@wrindexm@m{monografia}{er@{ER}|hyperpage}{39}
\@writefile{brf}{\backcite{daengenharia}{{39}{2.2.3}{subsection.2.2.3}}}
\@writefile{toc}{\contentsline {section}{\numberline {2.3}Plataforma Eclipse para o Desenvolvimento de Plugins}{39}{section.2.3}}
\acro@used@once{ide}{39}{39}{41}
\@@wrindexm@m{monografia}{ide@{IDE}|hyperpage}{39}
\@writefile{brf}{\backcite{ecliseDocumentationLuna}{{39}{2.3}{section.2.3}}}
\@writefile{brf}{\backcite{desrivieres2004eclipse}{{39}{2.3}{section.2.3}}}
\acro@used@once{api}{39}{39}{41}
\@@wrindexm@m{monografia}{api@{API}|hyperpage}{39}
\@writefile{toc}{\contentsline {subsection}{\numberline {2.3.1}Arquitetura da Plataforma Eclipse}{39}{subsection.2.3.1}}
\@writefile{brf}{\backcite{desrivieres2004eclipse}{{39}{2.3.1}{figure.2.3}}}
\BKM@entry{id=29,dest={73756273656374696F6E2E322E332E32},srcline={330}}{417271756974657475726120646520756D20506C7567696E2045636C69707365}
\@writefile{lof}{\contentsline {figure}{\numberline {3}{\ignorespaces Arquitetura da Plataforma Eclipse~\cite  {desrivieres2004eclipse}.}}{40}{figure.2.3}}
\@writefile{brf}{\backcite{desrivieres2004eclipse}{{40}{3}{figure.2.3}}}
\newlabel{fig_arquiteturaDaPlataforma}{{3}{40}{Arquitetura da Plataforma Eclipse~\cite {desrivieres2004eclipse}}{figure.2.3}{}}
\@writefile{brf}{\backcite{desrivieres2004eclipse}{{40}{2.3.1}{figure.2.3}}}
\acro@used@twice{ide}{40}{40}{42}
\@@wrindexm@m{monografia}{ide@{IDE}|hyperpage}{40}
\@writefile{toc}{\contentsline {subsection}{\numberline {2.3.2}Arquitetura de um Plugin Eclipse}{40}{subsection.2.3.2}}
\acro@used@once{xml}{40}{40}{42}
\@@wrindexm@m{monografia}{xml@{XML}|hyperpage}{40}
\citation{apostilaEclipseI}
\citation{apostilaEclipseI}
\citation{apostilaEclipseI}
\@writefile{lof}{\contentsline {figure}{\numberline {4}{\ignorespaces Arquitetura de um \textit  {plugin} eclipse.}}{41}{figure.2.4}}
\newlabel{fig_arquiteturaPlugin}{{4}{41}{Arquitetura de um \textit {plugin} eclipse}{figure.2.4}{}}
\acro@used@once{jar}{41}{41}{43}
\@@wrindexm@m{monografia}{jar@{JAR}|hyperpage}{41}
\acro@used@twice{jar}{41}{41}{43}
\@@wrindexm@m{monografia}{jar@{JAR}|hyperpage}{41}
\acro@used@twice{jar}{41}{41}{43}
\@@wrindexm@m{monografia}{jar@{JAR}|hyperpage}{41}
\acro@used@twice{jar}{41}{41}{43}
\@@wrindexm@m{monografia}{jar@{JAR}|hyperpage}{41}
\@writefile{brf}{\backcite{apostilaEclipseI}{{41}{2.3.2}{figure.2.4}}}
\@writefile{brf}{\backcite{apostilaEclipseI}{{41}{2.3.2}{figure.2.4}}}
\acro@used@twice{jar}{41}{41}{43}
\@@wrindexm@m{monografia}{jar@{JAR}|hyperpage}{41}
\acro@used@twice{xml}{41}{41}{43}
\@@wrindexm@m{monografia}{xml@{XML}|hyperpage}{41}
\@writefile{brf}{\backcite{apostilaEclipseI}{{41}{2.3.2}{figure.2.4}}}
\citation{apostilaEclipseI}
\BKM@entry{id=30,dest={73756273656374696F6E2E322E332E33},srcline={355}}{506C7567696E20446576656C6F706D656E7420456E7669726F6E6D656E74}
\citation{ecliseDocumentationLuna}
\citation{ecliseDocumentationLuna}
\BKM@entry{id=31,dest={73656374696F6E2E322E34},srcline={361}}{436F6E636C75735C3334336F20646F204361705C33353574756C6F}
\@writefile{brf}{\backcite{apostilaEclipseI}{{42}{2.3.2}{figure.2.4}}}
\@writefile{toc}{\contentsline {subsection}{\numberline {2.3.3}\textit  {Plugin Development Environment}}{42}{subsection.2.3.3}}
\@writefile{brf}{\backcite{ecliseDocumentationLuna}{{42}{2.3.3}{subsection.2.3.3}}}
\acro@used@twice{api}{42}{42}{44}
\@@wrindexm@m{monografia}{api@{API}|hyperpage}{42}
\acro@used@twice{api}{42}{42}{44}
\@@wrindexm@m{monografia}{api@{API}|hyperpage}{42}
\acro@used@twice{api}{42}{42}{44}
\@@wrindexm@m{monografia}{api@{API}|hyperpage}{42}
\@writefile{brf}{\backcite{ecliseDocumentationLuna}{{42}{2.3.3}{subsection.2.3.3}}}
\@writefile{toc}{\contentsline {section}{\numberline {2.4}Conclus\IeC {\~a}o do Cap\IeC {\'\i }tulo}{42}{section.2.4}}
\acro@used@twice{er}{42}{42}{44}
\@@wrindexm@m{monografia}{er@{ER}|hyperpage}{42}
\BKM@entry{id=32,dest={636861707465722E33},srcline={365}}{54726162616C686F732052656C6163696F6E61646F73}
\BKM@entry{id=33,dest={73656374696F6E2E332E31},srcline={369}}{4D65746F646F6C6F676961}
\BKM@entry{id=34,dest={73656374696F6E2E332E32},srcline={387}}{54726162616C686F73}
\@writefile{toc}{\setlength  {\cftchapterindent }{0em} \setlength  {\cftchapternumwidth }{\cftlastnumwidth }}
\@writefile{toc}{\contentsline {chapter}{\chapternumberline {3}\MakeTextUppercase  {Trabalhos Relacionados}}{43}{chapter.3}}
\acro@used@twice{er}{43}{43}{45}
\@@wrindexm@m{monografia}{er@{ER}|hyperpage}{43}
\@writefile{toc}{\contentsline {section}{\numberline {3.1}Metodologia}{43}{section.3.1}}
\acro@used@twice{er}{43}{43}{45}
\@@wrindexm@m{monografia}{er@{ER}|hyperpage}{43}
\acro@used@twice{sa}{43}{43}{45}
\@@wrindexm@m{monografia}{sa@{SA}|hyperpage}{43}
\@writefile{toc}{\contentsline {section}{\numberline {3.2}Trabalhos}{43}{section.3.2}}
\acro@used@twice{er}{43}{43}{45}
\@@wrindexm@m{monografia}{er@{ER}|hyperpage}{43}
\BKM@entry{id=35,dest={73756273656374696F6E2E332E322E31},srcline={391}}{46657272616D656E7461732064652041706F696F20616F2050726F636573736F20646520456E67656E68617269612064652052657175697369746F73}
\citation{butlersecure}
\citation{azevedointegrative}
\citation{ali2010reasoning}
\citation{ali2014requirements}
\citation{ito2011support}
\citation{umoh2011refinto}
\citation{zarinah2009supporting}
\citation{beckers2013structured}
\citation{daramolaSatalhaneSindreOmoronia2011}
\citation{daramolaSindreStalhane2012}
\citation{varelaAraujoBritoMoreira2011}
\acro@used@twice{er}{44}{44}{46}
\@@wrindexm@m{monografia}{er@{ER}|hyperpage}{44}
\acro@used@twice{sa}{44}{44}{46}
\@@wrindexm@m{monografia}{sa@{SA}|hyperpage}{44}
\@writefile{toc}{\contentsline {subsection}{\numberline {3.2.1}Ferramentas de Apoio ao Processo de Engenharia de Requisitos}{44}{subsection.3.2.1}}
\@writefile{brf}{\backcite{butlersecure}{{44}{3.2.1}{subsection.3.2.1}}}
\@writefile{brf}{\backcite{azevedointegrative}{{44}{3.2.1}{subsection.3.2.1}}}
\@writefile{brf}{\backcite{ali2010reasoning}{{44}{3.2.1}{subsection.3.2.1}}}
\@writefile{brf}{\backcite{ali2014requirements}{{44}{3.2.1}{subsection.3.2.1}}}
\@writefile{brf}{\backcite{ito2011support}{{44}{3.2.1}{subsection.3.2.1}}}
\@writefile{brf}{\backcite{umoh2011refinto}{{44}{3.2.1}{subsection.3.2.1}}}
\acro@used@twice{er}{44}{44}{46}
\@@wrindexm@m{monografia}{er@{ER}|hyperpage}{44}
\@writefile{brf}{\backcite{zarinah2009supporting}{{44}{3.2.1}{subsection.3.2.1}}}
\@writefile{brf}{\backcite{beckers2013structured}{{44}{3.2.1}{subsection.3.2.1}}}
\@writefile{brf}{\backcite{daramolaSatalhaneSindreOmoronia2011,daramolaSindreStalhane2012}{{44}{3.2.1}{subsection.3.2.1}}}
\@writefile{brf}{\backcite{daramolaSatalhaneSindreOmoronia2011,daramolaSindreStalhane2012}{{44}{3.2.1}{subsection.3.2.1}}}
\@writefile{brf}{\backcite{varelaAraujoBritoMoreira2011}{{44}{3.2.1}{subsection.3.2.1}}}
\BKM@entry{id=36,dest={73756273656374696F6E2E332E322E32},srcline={404}}{46657272616D656E7461732064652041706F696F20616F2050726F636573736F20646520456E67656E68617269612064652052657175697369746F7320706172612053697374656D6173204175746F6164617074617469766F73}
\citation{ali2013reasoning}
\citation{hussein2013scenario}
\citation{fredericks2014autorelax}
\citation{ali2013reasoning}
\citation{hussein2013scenario}
\citation{fredericks2014autorelax}
\BKM@entry{id=37,dest={73656374696F6E2E332E33},srcline={413}}{416E5C3334316C697365}
\citation{butlersecure}
\citation{azevedointegrative}
\citation{ali2010reasoning}
\citation{ali2013reasoning}
\citation{ali2014requirements}
\citation{hussein2013scenario}
\citation{umoh2011refinto}
\citation{zarinah2009supporting}
\citation{beckers2013structured}
\citation{daramolaSatalhaneSindreOmoronia2011}
\citation{daramolaSindreStalhane2012}
\citation{varelaAraujoBritoMoreira2011}
\citation{fredericks2014autorelax}
\@writefile{toc}{\contentsline {subsection}{\numberline {3.2.2}Ferramentas de Apoio ao Processo de Engenharia de Requisitos para Sistemas Autoadaptativos}{45}{subsection.3.2.2}}
\acro@used@twice{er}{45}{45}{47}
\@@wrindexm@m{monografia}{er@{ER}|hyperpage}{45}
\acro@used@twice{er}{45}{45}{47}
\@@wrindexm@m{monografia}{er@{ER}|hyperpage}{45}
\acro@used@twice{sa}{45}{45}{47}
\@@wrindexm@m{monografia}{sa@{SA}|hyperpage}{45}
\@writefile{brf}{\backcite{ali2013reasoning,hussein2013scenario,fredericks2014autorelax}{{45}{3.2.2}{subsection.3.2.2}}}
\@writefile{brf}{\backcite{ali2013reasoning,hussein2013scenario,fredericks2014autorelax}{{45}{3.2.2}{subsection.3.2.2}}}
\@writefile{brf}{\backcite{ali2013reasoning,hussein2013scenario,fredericks2014autorelax}{{45}{3.2.2}{subsection.3.2.2}}}
\@writefile{brf}{\backcite{ali2013reasoning}{{45}{3.2.2}{subsection.3.2.2}}}
\@writefile{brf}{\backcite{hussein2013scenario}{{45}{3.2.2}{subsection.3.2.2}}}
\@writefile{brf}{\backcite{fredericks2014autorelax}{{45}{3.2.2}{subsection.3.2.2}}}
\@writefile{toc}{\contentsline {section}{\numberline {3.3}An\IeC {\'a}lise}{45}{section.3.3}}
\acro@used@twice{er}{45}{45}{47}
\@@wrindexm@m{monografia}{er@{ER}|hyperpage}{45}
\acro@used@twice{sa}{45}{45}{47}
\@@wrindexm@m{monografia}{sa@{SA}|hyperpage}{45}
\@writefile{brf}{\backcite{butlersecure,azevedointegrative}{{45}{3.3}{section.3.3}}}
\@writefile{brf}{\backcite{butlersecure,azevedointegrative}{{45}{3.3}{section.3.3}}}
\@writefile{brf}{\backcite{ali2010reasoning,ali2013reasoning,ali2014requirements,hussein2013scenario}{{45}{3.3}{section.3.3}}}
\@writefile{brf}{\backcite{ali2010reasoning,ali2013reasoning,ali2014requirements,hussein2013scenario}{{45}{3.3}{section.3.3}}}
\@writefile{brf}{\backcite{ali2010reasoning,ali2013reasoning,ali2014requirements,hussein2013scenario}{{45}{3.3}{section.3.3}}}
\@writefile{brf}{\backcite{ali2010reasoning,ali2013reasoning,ali2014requirements,hussein2013scenario}{{45}{3.3}{section.3.3}}}
\@writefile{brf}{\backcite{umoh2011refinto,zarinah2009supporting,beckers2013structured,daramolaSatalhaneSindreOmoronia2011,daramolaSindreStalhane2012}{{45}{3.3}{section.3.3}}}
\@writefile{brf}{\backcite{umoh2011refinto,zarinah2009supporting,beckers2013structured,daramolaSatalhaneSindreOmoronia2011,daramolaSindreStalhane2012}{{45}{3.3}{section.3.3}}}
\@writefile{brf}{\backcite{umoh2011refinto,zarinah2009supporting,beckers2013structured,daramolaSatalhaneSindreOmoronia2011,daramolaSindreStalhane2012}{{45}{3.3}{section.3.3}}}
\@writefile{brf}{\backcite{umoh2011refinto,zarinah2009supporting,beckers2013structured,daramolaSatalhaneSindreOmoronia2011,daramolaSindreStalhane2012}{{45}{3.3}{section.3.3}}}
\@writefile{brf}{\backcite{umoh2011refinto,zarinah2009supporting,beckers2013structured,daramolaSatalhaneSindreOmoronia2011,daramolaSindreStalhane2012}{{45}{3.3}{section.3.3}}}
\citation{fredericks2014autorelax}
\citation{ali2010reasoning}
\citation{ali2013reasoning}
\citation{ali2014requirements}
\BKM@entry{id=38,dest={73656374696F6E2E332E34},srcline={422}}{436F6E636C75735C3334336F20646F204361705C33353574756C6F}
\@writefile{brf}{\backcite{varelaAraujoBritoMoreira2011,fredericks2014autorelax}{{46}{3.3}{section.3.3}}}
\@writefile{brf}{\backcite{varelaAraujoBritoMoreira2011,fredericks2014autorelax}{{46}{3.3}{section.3.3}}}
\@writefile{brf}{\backcite{fredericks2014autorelax}{{46}{3.3}{section.3.3}}}
\@writefile{brf}{\backcite{ali2010reasoning,ali2013reasoning,ali2014requirements}{{46}{3.3}{section.3.3}}}
\@writefile{brf}{\backcite{ali2010reasoning,ali2013reasoning,ali2014requirements}{{46}{3.3}{section.3.3}}}
\@writefile{brf}{\backcite{ali2010reasoning,ali2013reasoning,ali2014requirements}{{46}{3.3}{section.3.3}}}
\@writefile{toc}{\contentsline {section}{\numberline {3.4}Conclus\IeC {\~a}o do Cap\IeC {\'\i }tulo}{46}{section.3.4}}
\acro@used@twice{er}{46}{46}{48}
\@@wrindexm@m{monografia}{er@{ER}|hyperpage}{46}
\acro@used@twice{sa}{46}{46}{48}
\@@wrindexm@m{monografia}{sa@{SA}|hyperpage}{46}
\acro@used@twice{er}{46}{46}{48}
\@@wrindexm@m{monografia}{er@{ER}|hyperpage}{46}
\acro@used@twice{sa}{46}{46}{48}
\@@wrindexm@m{monografia}{sa@{SA}|hyperpage}{46}
\BKM@entry{id=39,dest={636861707465722E34},srcline={428}}{46617365205072656C696D696E617220646520446573656E766F6C76696D656E746F}
\citation{larman2002utilizando}
\BKM@entry{id=40,dest={73656374696F6E2E342E31},srcline={434}}{4661736520646520436F6E6365705C3334375C3334336F}
\citation{larman2002utilizando}
\BKM@entry{id=41,dest={73756273656374696F6E2E342E312E31},srcline={438}}{4465636C6172615C3334375C3334336F20646F2050726F626C656D61}
\citation{whittle2010relax}
\citation{whittle2010relax}
\citation{whittle2010relax}
\@writefile{toc}{\setlength  {\cftchapterindent }{0em} \setlength  {\cftchapternumwidth }{\cftlastnumwidth }}
\@writefile{toc}{\contentsline {chapter}{\chapternumberline {4}\MakeTextUppercase  {Fase Preliminar de Desenvolvimento}}{47}{chapter.4}}
\acro@used@twice{rup}{47}{47}{49}
\@@wrindexm@m{monografia}{rup@{RUP}|hyperpage}{47}
\@writefile{brf}{\backcite{larman2002utilizando}{{47}{4}{chapter.4}}}
\@writefile{toc}{\contentsline {section}{\numberline {4.1}Fase de Concep\IeC {\c c}\IeC {\~a}o}{47}{section.4.1}}
\acro@used@twice{rup}{47}{47}{49}
\@@wrindexm@m{monografia}{rup@{RUP}|hyperpage}{47}
\@writefile{brf}{\backcite{larman2002utilizando}{{47}{4.1}{section.4.1}}}
\@writefile{toc}{\contentsline {subsection}{\numberline {4.1.1}Declara\IeC {\c c}\IeC {\~a}o do Problema}{47}{subsection.4.1.1}}
\@writefile{brf}{\backcite{whittle2010relax}{{47}{4.1.1}{subsection.4.1.1}}}
\acro@used@twice{sa}{47}{47}{49}
\@@wrindexm@m{monografia}{sa@{SA}|hyperpage}{47}
\acro@used@twice{ide}{47}{47}{49}
\@@wrindexm@m{monografia}{ide@{IDE}|hyperpage}{47}
\acro@used@twice{sa}{47}{47}{49}
\@@wrindexm@m{monografia}{sa@{SA}|hyperpage}{47}
\@writefile{brf}{\backcite{whittle2010relax}{{47}{4.1.1}{subsection.4.1.1}}}
\acro@used@twice{sa}{47}{47}{49}
\@@wrindexm@m{monografia}{sa@{SA}|hyperpage}{47}
\@writefile{brf}{\backcite{whittle2010relax}{{47}{4.1.1}{subsection.4.1.1}}}
\newlabel{item2}{{4.1.1}{47}{Declaração do Problema}{subsection.4.1.1}{}}
\citation{whittle2010relax}
\citation{whittle2010relax}
\citation{whittle2010relax}
\citation{whittle2010relax}
\citation{whittle2010relax}
\BKM@entry{id=42,dest={73756273656374696F6E2E342E312E32},srcline={485}}{4465636C6172615C3334375C3334336F20646F2050726F6475746F}
\BKM@entry{id=43,dest={73756273656374696F6E2E342E312E33},srcline={490}}{416D6269656E746520646F205573755C33343172696F}
\newlabel{item3}{{4.1.1}{48}{Declaração do Problema}{subsection.4.1.1}{}}
\newlabel{req1}{{4.1}{48}{Declaração do Problema}{equation.4.1.1}{}}
\newlabel{req2}{{4.2}{48}{Declaração do Problema}{equation.4.1.2}{}}
\@writefile{brf}{\backcite{whittle2010relax}{{48}{4.1.1}{equation.4.1.2}}}
\@writefile{toc}{\contentsline {subsection}{\numberline {4.1.2}Declara\IeC {\c c}\IeC {\~a}o do Produto}{48}{subsection.4.1.2}}
\acro@used@twice{sa}{48}{48}{50}
\@@wrindexm@m{monografia}{sa@{SA}|hyperpage}{48}
\@writefile{toc}{\contentsline {subsection}{\numberline {4.1.3}Ambiente do Usu\IeC {\'a}rio}{48}{subsection.4.1.3}}
\acro@used@twice{ide}{48}{48}{50}
\@@wrindexm@m{monografia}{ide@{IDE}|hyperpage}{48}
\BKM@entry{id=44,dest={73756273656374696F6E2E342E312E34},srcline={493}}{5669735C3334336F20476572616C20646F2050726F6475746F}
\@writefile{lof}{\contentsline {figure}{\numberline {5}{\ignorespaces Operadores Relax~\cite  {whittle2010relax}.}}{49}{figure.4.5}}
\@writefile{brf}{\backcite{whittle2010relax}{{49}{5}{figure.4.5}}}
\newlabel{fig_GloSintaxe}{{5}{49}{Operadores Relax~\cite {whittle2010relax}}{figure.4.5}{}}
\@writefile{lof}{\contentsline {figure}{\numberline {6}{\ignorespaces Sem\IeC {\^a}ntica das Express\IeC {\~o}es Relax~\cite  {whittle2010relax}.}}{49}{figure.4.6}}
\@writefile{brf}{\backcite{whittle2010relax}{{49}{6}{figure.4.6}}}
\newlabel{fig_GloSemantica}{{6}{49}{Semântica das Expressões Relax~\cite {whittle2010relax}}{figure.4.6}{}}
\@writefile{toc}{\contentsline {subsection}{\numberline {4.1.4}Vis\IeC {\~a}o Geral do Produto}{49}{subsection.4.1.4}}
\BKM@entry{id=45,dest={73656374696F6E2E342E32},srcline={517}}{4661736520646520456C61626F72615C3334375C3334336F2D20496E746572615C3334375C3334336F2031}
\citation{larman2002utilizando}
\@writefile{lof}{\contentsline {figure}{\numberline {7}{\ignorespaces Diagrama de Caso de Uso.}}{50}{figure.4.7}}
\newlabel{fig_useCaseS}{{7}{50}{Diagrama de Caso de Uso}{figure.4.7}{}}
\@writefile{toc}{\contentsline {section}{\numberline {4.2}Fase de Elabora\IeC {\c c}\IeC {\~a}o- Intera\IeC {\c c}\IeC {\~a}o 1}{50}{section.4.2}}
\@writefile{brf}{\backcite{larman2002utilizando}{{50}{4.2}{section.4.2}}}
\@writefile{lof}{\contentsline {figure}{\numberline {8}{\ignorespaces Diagrama de Atividades.}}{51}{figure.4.8}}
\newlabel{fig_activy}{{8}{51}{Diagrama de Atividades}{figure.4.8}{}}
\BKM@entry{id=46,dest={73756273656374696F6E2E342E322E31},srcline={525}}{4573745C33363372696173}
\BKM@entry{id=47,dest={73756273656374696F6E2E342E322E32},srcline={557}}{4D6F64656C6F206465204361736F2064652055736F}
\BKM@entry{id=48,dest={73756273656374696F6E2E342E322E33},srcline={561}}{4D6F64656C6F20646520446F6D5C3335356E696F}
\BKM@entry{id=49,dest={73756273656374696F6E2E342E322E34},srcline={571}}{4172717569746574757261205574696C697A616461}
\@writefile{toc}{\contentsline {subsection}{\numberline {4.2.1}Est\IeC {\'o}rias}{52}{subsection.4.2.1}}
\acro@used@once{xp}{52}{52}{54}
\@@wrindexm@m{monografia}{xp@{XP}|hyperpage}{52}
\@writefile{lot}{\contentsline {table}{\numberline {1}{\ignorespaces Narrativas de Requisitos}}{52}{table.4.1}}
\newlabel{tab:estorias}{{1}{52}{Narrativas de Requisitos}{table.4.1}{}}
\@writefile{toc}{\contentsline {subsection}{\numberline {4.2.2}Modelo de Caso de Uso}{52}{subsection.4.2.2}}
\@writefile{toc}{\contentsline {subsection}{\numberline {4.2.3}Modelo de Dom\IeC {\'\i }nio}{52}{subsection.4.2.3}}
\BKM@entry{id=50,dest={73756273656374696F6E2E342E322E35},srcline={583}}{53746F7279426F6172642064612046657272616D656E7461}
\@writefile{lof}{\contentsline {figure}{\numberline {9}{\ignorespaces Modelagem de Dom\IeC {\'\i }nio.}}{53}{figure.4.9}}
\newlabel{fig_modeloDeDominio}{{9}{53}{Modelagem de Domínio}{figure.4.9}{}}
\@writefile{toc}{\contentsline {subsection}{\numberline {4.2.4}Arquitetura Utilizada}{53}{subsection.4.2.4}}
\acro@used@twice{ide}{53}{53}{55}
\@@wrindexm@m{monografia}{ide@{IDE}|hyperpage}{53}
\acro@used@twice{mvc}{53}{53}{55}
\@@wrindexm@m{monografia}{mvc@{MVC}|hyperpage}{53}
\acro@used@twice{ide}{53}{53}{55}
\@@wrindexm@m{monografia}{ide@{IDE}|hyperpage}{53}
\@writefile{toc}{\contentsline {subsection}{\numberline {4.2.5}\textit  {StoryBoard} da Ferramenta}{53}{subsection.4.2.5}}
\BKM@entry{id=51,dest={73656374696F6E2E342E33},srcline={596}}{436F6E636C75735C3334336F20646F204361705C33353574756C6F}
\@writefile{lof}{\contentsline {figure}{\numberline {10}{\ignorespaces Arquitetura \ac {mvc}.}}{54}{figure.4.10}}
\acro@used@twice{mvc}{54}{54}{56}
\@@wrindexm@m{monografia}{mvc@{MVC}|hyperpage}{54}
\newlabel{fig_arquiteturaUtilizada}{{10}{54}{Arquitetura \ac {mvc}}{figure.4.10}{}}
\@writefile{lof}{\contentsline {figure}{\numberline {11}{\ignorespaces \textit  {StoryBoard} da ferramenta Relax~\textit  {Editor}.}}{54}{figure.4.11}}
\newlabel{fig_modeloStoryI}{{11}{54}{\textit {StoryBoard} da ferramenta Relax~\textit {Editor}}{figure.4.11}{}}
\@writefile{toc}{\contentsline {section}{\numberline {4.3}Conclus\IeC {\~a}o do Cap\IeC {\'\i }tulo}{54}{section.4.3}}
\BKM@entry{id=52,dest={636861707465722E35},srcline={2}}{436F6E636C75735C3336356573205072656C696D696E61726573}
\citation{whittle2010relax}
\BKM@entry{id=53,dest={73656374696F6E2E352E31},srcline={14}}{43726F6E6F6772616D61}
\bibdata{abntex2-options,bibliografia,abntex2-modelo-references}
\@writefile{toc}{\setlength  {\cftchapterindent }{0em} \setlength  {\cftchapternumwidth }{\cftlastnumwidth }}
\@writefile{toc}{\contentsline {chapter}{\chapternumberline {5}\MakeTextUppercase  {Conclus\IeC {\~o}es Preliminares}}{55}{chapter.5}}
\newlabel{conclusao}{{5}{55}{Conclusões Preliminares}{chapter.5}{}}
\acro@used@twice{ide}{55}{55}{57}
\@@wrindexm@m{monografia}{ide@{IDE}|hyperpage}{55}
\@writefile{brf}{\backcite{whittle2010relax}{{55}{5}{chapter.5}}}
\acro@used@twice{ide}{55}{55}{57}
\@@wrindexm@m{monografia}{ide@{IDE}|hyperpage}{55}
\acro@used@twice{mvc}{55}{55}{57}
\@@wrindexm@m{monografia}{mvc@{MVC}|hyperpage}{55}
\acro@used@twice{ide}{55}{55}{57}
\@@wrindexm@m{monografia}{ide@{IDE}|hyperpage}{55}
\acro@used@twice{rup}{55}{55}{57}
\@@wrindexm@m{monografia}{rup@{RUP}|hyperpage}{55}
\@writefile{toc}{\contentsline {section}{\numberline {5.1}Cronograma}{55}{section.5.1}}
\@writefile{toc}{\vspace  {\cftbeforechapterskip }}
\@writefile{lot}{\contentsline {table}{\numberline {2}{\ignorespaces Cronograma das Atividades}}{56}{table.5.2}}
\newlabel{tab:nivinv}{{2}{56}{Cronograma das Atividades}{table.5.2}{}}
\acro@used@twice{er}{56}{56}{58}
\@@wrindexm@m{monografia}{er@{ER}|hyperpage}{56}
\acro@used@twice{sa}{56}{56}{58}
\@@wrindexm@m{monografia}{sa@{SA}|hyperpage}{56}
\acro@used@twice{ide}{56}{56}{58}
\@@wrindexm@m{monografia}{ide@{IDE}|hyperpage}{56}
\acro@used@once{tcc}{56}{56}{58}
\@@wrindexm@m{monografia}{tcc@{TCC}|hyperpage}{56}
\acro@used@twice{tcc}{56}{56}{58}
\@@wrindexm@m{monografia}{tcc@{TCC}|hyperpage}{56}
\BKM@entry{id=54,dest={73656374696F6E2A2E3130},srcline={3}}{52656665725C3335326E63696173}
\bibcite{ali2010reasoning}{Ali, Dalpiaz e Giorgini 2010}
\bibciteEXPL{ali2010reasoning}{Ali, Dalpiaz e Giorgini}
\bibciteIMPL{ali2010reasoning}{ALI; DALPIAZ; GIORGINI}
\bibciteYEAR{ali2010reasoning}{2010}
\bibcite{ali2013reasoning}{Ali, Dalpiaz e Giorgini 2013}
\bibciteEXPL{ali2013reasoning}{Ali, Dalpiaz e Giorgini}
\bibciteIMPL{ali2013reasoning}{ALI; DALPIAZ; GIORGINI}
\bibciteYEAR{ali2013reasoning}{2013}
\bibcite{ali2014requirements}{Ali, Dalpiaz e Giorgini 2014}
\bibciteEXPL{ali2014requirements}{Ali, Dalpiaz e Giorgini}
\bibciteIMPL{ali2014requirements}{ALI; DALPIAZ; GIORGINI}
\bibciteYEAR{ali2014requirements}{2014}
\bibcite{andre2010architectures}{Andr{\'e} et al. 2010}
\bibciteEXPL{andre2010architectures}{Andr{\'e} et al.}
\bibciteIMPL{andre2010architectures}{ANDR{\'E} et al.}
\bibciteYEAR{andre2010architectures}{2010}
\bibcite{azevedointegrative}{Azevedo et al. 2011}
\bibciteEXPL{azevedointegrative}{Azevedo et al.}
\bibciteIMPL{azevedointegrative}{AZEVEDO et al.}
\bibciteYEAR{azevedointegrative}{2011}
\bibcite{apostilaEclipseI}{Balsiger 2010}
\bibciteEXPL{apostilaEclipseI}{Balsiger}
\bibciteIMPL{apostilaEclipseI}{BALSIGER}
\bibciteYEAR{apostilaEclipseI}{2010}
\bibcite{beckers2013structured}{Beckers et al. 2013}
\bibciteEXPL{beckers2013structured}{Beckers et al.}
\bibciteIMPL{beckers2013structured}{BECKERS et al.}
\bibciteYEAR{beckers2013structured}{2013}
\bibcite{bencomo2012self}{Bencomo et al. 2012}
\bibciteEXPL{bencomo2012self}{Bencomo et al.}
\bibciteIMPL{bencomo2012self}{BENCOMO et al.}
\bibciteYEAR{bencomo2012self}{2012}
\bibcite{bencomo2010requirements}{Bencomo et al. 2010}
\bibciteEXPL{bencomo2010requirements}{Bencomo et al.}
\bibciteIMPL{bencomo2010requirements}{BENCOMO et al.}
\bibciteYEAR{bencomo2010requirements}{2010}
\bibcite{brun2009engineering}{Brun et al. 2009}
\bibciteEXPL{brun2009engineering}{Brun et al.}
\bibciteIMPL{brun2009engineering}{BRUN et al.}
\bibciteYEAR{brun2009engineering}{2009}
\bibcite{butlersecure}{Butler e TSSG 2011}
\bibciteEXPL{butlersecure}{Butler e TSSG}
\bibciteIMPL{butlersecure}{BUTLER; TSSG}
\bibciteYEAR{butlersecure}{2011}
\bibcite{cheng2009software}{Cheng et al. 2009}
\bibciteEXPL{cheng2009software}{Cheng et al.}
\bibciteIMPL{cheng2009software}{CHENG et al.}
\bibciteYEAR{cheng2009software}{2009}
\bibcite{daramolaSindreStalhane2012}{Daramola e Stalhane 2012}
\bibciteEXPL{daramolaSindreStalhane2012}{Daramola e Stalhane}
\bibciteIMPL{daramolaSindreStalhane2012}{DARAMOLA; STALHANE}
\bibciteYEAR{daramolaSindreStalhane2012}{2012}
\bibcite{daramolaSatalhaneSindreOmoronia2011}{Daramola Tor~Stalhane e Omoronyia 2011}
\bibciteEXPL{daramolaSatalhaneSindreOmoronia2011}{Daramola Tor~Stalhane e Omoronyia}
\bibciteIMPL{daramolaSatalhaneSindreOmoronia2011}{DARAMOLA TOR~STALHANE; OMORONYIA}
\bibciteYEAR{daramolaSatalhaneSindreOmoronia2011}{2011}
\bibcite{desrivieres2004eclipse}{desRivieres e Wiegand 2004}
\bibciteEXPL{desrivieres2004eclipse}{desRivieres e Wiegand}
\bibciteIMPL{desrivieres2004eclipse}{DESRIVIERES; WIEGAND}
\bibciteYEAR{desrivieres2004eclipse}{2004}
\@writefile{toc}{\setlength  {\cftchapterindent }{\cftlastnumwidth } \setlength  {\cftchapternumwidth }{2em}}
\@writefile{toc}{\contentsline {chapter}{Refer\^encias}{57}{section*.10}}
\bibcite{ecliseDocumentationLuna}{Eclipse Foundation 2014}
\bibciteEXPL{ecliseDocumentationLuna}{Eclipse Foundation}
\bibciteIMPL{ecliseDocumentationLuna}{ECLIPSE FOUNDATION}
\bibciteYEAR{ecliseDocumentationLuna}{2014}
\bibcite{fredericks2014autorelax}{Fredericks, DeVries e Cheng 2014}
\bibciteEXPL{fredericks2014autorelax}{Fredericks, DeVries e Cheng}
\bibciteIMPL{fredericks2014autorelax}{FREDERICKS; DEVRIES; CHENG}
\bibciteYEAR{fredericks2014autorelax}{2014}
\bibcite{herczeg2010smart}{Herczeg 2010}
\bibciteEXPL{herczeg2010smart}{Herczeg}
\bibciteIMPL{herczeg2010smart}{HERCZEG}
\bibciteYEAR{herczeg2010smart}{2010}
\bibcite{huebscher2008survey}{Huebscher e McCann 2008}
\bibciteEXPL{huebscher2008survey}{Huebscher e McCann}
\bibciteIMPL{huebscher2008survey}{HUEBSCHER; MCCANN}
\bibciteYEAR{huebscher2008survey}{2008}
\bibcite{hussein2013scenario}{Hussein et al. 2013}
\bibciteEXPL{hussein2013scenario}{Hussein et al.}
\bibciteIMPL{hussein2013scenario}{HUSSEIN et al.}
\bibciteYEAR{hussein2013scenario}{2013}
\bibcite{ito2011support}{Ito et al. 2011}
\bibciteEXPL{ito2011support}{Ito et al.}
\bibciteIMPL{ito2011support}{ITO et al.}
\bibciteYEAR{ito2011support}{2011}
\bibcite{saltzer2009principles}{Jerome e Kaashoek 2009}
\bibciteEXPL{saltzer2009principles}{Jerome e Kaashoek}
\bibciteIMPL{saltzer2009principles}{JEROME; KAASHOEK}
\bibciteYEAR{saltzer2009principles}{2009}
\bibcite{daengenharia}{Junior 2013}
\bibciteEXPL{daengenharia}{Junior}
\bibciteIMPL{daengenharia}{JUNIOR}
\bibciteYEAR{daengenharia}{2013}
\bibcite{larman2002utilizando}{Larman 2002}
\bibciteEXPL{larman2002utilizando}{Larman}
\bibciteIMPL{larman2002utilizando}{LARMAN}
\bibciteYEAR{larman2002utilizando}{2002}
\bibcite{zarinah2009supporting}{MK e S 2009}
\bibciteEXPL{zarinah2009supporting}{MK e S}
\bibciteIMPL{zarinah2009supporting}{MK; S}
\bibciteYEAR{zarinah2009supporting}{2009}
\bibcite{aanalise}{Moraes 2009}
\bibciteEXPL{aanalise}{Moraes}
\bibciteIMPL{aanalise}{MORAES}
\bibciteYEAR{aanalise}{2009}
\bibcite{pfleeger2004software}{Pfleeger e Atlee 2004}
\bibciteEXPL{pfleeger2004software}{Pfleeger e Atlee}
\bibciteIMPL{pfleeger2004software}{PFLEEGER; ATLEE}
\bibciteYEAR{pfleeger2004software}{2004}
\bibcite{pfleeger2010software}{Pfleeger e Atlee 2010}
\bibciteEXPL{pfleeger2010software}{Pfleeger e Atlee}
\bibciteIMPL{pfleeger2010software}{PFLEEGER; ATLEE}
\bibciteYEAR{pfleeger2010software}{2010}
\bibcite{abordagensDeEngDeReqComAuto}{Pimentel 2008}
\bibciteEXPL{abordagensDeEngDeReqComAuto}{Pimentel}
\bibciteIMPL{abordagensDeEngDeReqComAuto}{PIMENTEL}
\bibciteYEAR{abordagensDeEngDeReqComAuto}{2008}
\bibcite{pressman2011engenharia}{Pressman 2011}
\bibciteEXPL{pressman2011engenharia}{Pressman}
\bibciteIMPL{pressman2011engenharia}{PRESSMAN}
\bibciteYEAR{pressman2011engenharia}{2011}
\bibcite{qureshi2009engineering}{Qureshi e Perini 2009}
\bibciteEXPL{qureshi2009engineering}{Qureshi e Perini}
\bibciteIMPL{qureshi2009engineering}{QURESHI; PERINI}
\bibciteYEAR{qureshi2009engineering}{2009}
\bibcite{qureshi2010continuous}{Qureshi e Perini 2010}
\bibciteEXPL{qureshi2010continuous}{Qureshi e Perini}
\bibciteIMPL{qureshi2010continuous}{QURESHI; PERINI}
\bibciteYEAR{qureshi2010continuous}{2010a}
\bibcite{qureshi2010requirements}{Qureshi e Perini 2010}
\bibciteEXPL{qureshi2010requirements}{Qureshi e Perini}
\bibciteIMPL{qureshi2010requirements}{QURESHI; PERINI}
\bibciteYEAR{qureshi2010requirements}{2010b}
\bibcite{sawyer2010requirements}{Sawyer et al. 2010}
\bibciteEXPL{sawyer2010requirements}{Sawyer et al.}
\bibciteIMPL{sawyer2010requirements}{SAWYER et al.}
\bibciteYEAR{sawyer2010requirements}{2010}
\bibcite{sommervilleengenharia}{Sommerville 2011}
\bibciteEXPL{sommervilleengenharia}{Sommerville}
\bibciteIMPL{sommervilleengenharia}{SOMMERVILLE}
\bibciteYEAR{sommervilleengenharia}{2011}
\bibcite{adaptiveDynamicAndResilientSystem}{Suri e Cabri 2014}
\bibciteEXPL{adaptiveDynamicAndResilientSystem}{Suri e Cabri}
\bibciteIMPL{adaptiveDynamicAndResilientSystem}{SURI; CABRI}
\bibciteYEAR{adaptiveDynamicAndResilientSystem}{2014}
\bibcite{umoh2011refinto}{Umoh, Sampaio e Theodoulidis 2011}
\bibciteEXPL{umoh2011refinto}{Umoh, Sampaio e Theodoulidis}
\bibciteIMPL{umoh2011refinto}{UMOH; SAMPAIO; THEODOULIDIS}
\bibciteYEAR{umoh2011refinto}{2011}
\bibcite{varelaAraujoBritoMoreira2011}{Varela Jo{\~a}o~Ara{\'u}jo 2011}
\bibciteEXPL{varelaAraujoBritoMoreira2011}{Varela Jo{\~a}o~Ara{\'u}jo}
\bibciteIMPL{varelaAraujoBritoMoreira2011}{VARELA JO{\~A}O~ARA{\'U}JO}
\bibciteYEAR{varelaAraujoBritoMoreira2011}{2011}
\bibcite{wazlawick2004analise}{Wazlawick 2004}
\bibciteEXPL{wazlawick2004analise}{Wazlawick}
\bibciteIMPL{wazlawick2004analise}{WAZLAWICK}
\bibciteYEAR{wazlawick2004analise}{2004}
\bibcite{welsh2010understanding}{Welsh e Sawyer 2010}
\bibciteEXPL{welsh2010understanding}{Welsh e Sawyer}
\bibciteIMPL{welsh2010understanding}{WELSH; SAWYER}
\bibciteYEAR{welsh2010understanding}{2010}
\bibcite{whittle2010relax}{Whittle et al. 2010}
\bibciteEXPL{whittle2010relax}{Whittle et al.}
\bibciteIMPL{whittle2010relax}{WHITTLE et al.}
\bibciteYEAR{whittle2010relax}{2010}
\@writefile{toc}{\cftinsert {AAA}}
\@switch{ANEXO} 
\@writefile{toc}{\setlength  {\cftpartindent }{\cftlastnumwidth } \setlength  {\cftpartnumwidth }{2em}}
\@writefile{toc}{\cftinsert {A}}
\BKM@entry{id=55,dest={73656374696F6E2A2E3131},srcline={5}}{416E65786F73}
\@writefile{toc}{\contentsline {part}{\uppercase {Anexos}}{61}{section*.11}}
\newlabel{LastPage}{{}{62}{}{page.62}{}}
\xdef\lastpage@lastpage{62}
\xdef\lastpage@lastpageHy{62}
\bibstyle{abntex2-alf}
\memsetcounter{lastsheet}{64}
\memsetcounter{lastpage}{62}
