\relax 
\providecommand\hyper@newdestlabel[2]{}
\providecommand\BKM@entry[2]{}
\providecommand\zref@newlabel[2]{}
\providecommand*{\memsetcounter}[2]{}
\providecommand\HyperFirstAtBeginDocument{\AtBeginDocument}
\HyperFirstAtBeginDocument{\ifx\hyper@anchor\@undefined
\global\let\oldcontentsline\contentsline
\gdef\contentsline#1#2#3#4{\oldcontentsline{#1}{#2}{#3}}
\global\let\oldnewlabel\newlabel
\gdef\newlabel#1#2{\newlabelxx{#1}#2}
\gdef\newlabelxx#1#2#3#4#5#6{\oldnewlabel{#1}{{#2}{#3}}}
\AtEndDocument{\ifx\hyper@anchor\@undefined
\let\contentsline\oldcontentsline
\let\newlabel\oldnewlabel
\fi}
\fi}
\global\let\hyper@last\relax 
\gdef\HyperFirstAtBeginDocument#1{#1}
\providecommand\HyField@AuxAddToFields[1]{}
\providecommand\HyField@AuxAddToCoFields[2]{}
\catcode`"\active
\citation{abnt-url-package=url}
\providecommand\acro@used@once[4]{}
\providecommand\acro@used@twice[4]{}
\providecommand\acro@pages[2]{}
\providecommand\acro@rerun@check{}
\@writefile{toc}{\changetocdepth  {4}}
\select@language{brazil}
\@writefile{toc}{\select@language{brazil}}
\@writefile{lof}{\select@language{brazil}}
\@writefile{lot}{\select@language{brazil}}
\BKM@entry{id=1,dest={6368617074657262312E30},srcline={341}}{466F6C686120646520726F73746F}
\BKM@entry{id=2,dest={6368617074657262322E30},srcline={2}}{446564696361745C333633726961}
\BKM@entry{id=3,dest={6368617074657262332E30},srcline={2}}{45705C3335356772616665}
\BKM@entry{id=4,dest={6368617074657262342E30},srcline={2}}{526573756D6F}
\citation{whittle2010relax}
\citation{whittle2010relax}
\@writefile{brf}{\backcite{whittle2010relax}{{7}{(document)}{Doc-Start}}}
\@writefile{brf}{\backcite{whittle2010relax}{{7}{(document)}{Doc-Start}}}
\BKM@entry{id=5,dest={6368617074657262352E30},srcline={1}}{4162737472616374}
\citation{whittle2010relax}
\citation{whittle2010relax}
\@writefile{brf}{\backcite{whittle2010relax}{{9}{(document)}{Doc-Start}}}
\@writefile{brf}{\backcite{whittle2010relax}{{9}{(document)}{Doc-Start}}}
\BKM@entry{id=6,dest={6C6F662E30},srcline={381}}{4C6973746120646520696C75737472615C3334375C3336356573}
\citation{aho2008compiladores}
\citation{desrivieres2004eclipse}
\@writefile{toc}{\setlength  {\cftchapterindent }{\cftlastnumwidth } \setlength  {\cftchapternumwidth }{2em}}
\@writefile{brf}{\backcite{aho2008compiladores}{{11}{(document)}{Doc-Start}}}
\@writefile{brf}{\backcite{desrivieres2004eclipse}{{11}{(document)}{Doc-Start}}}
\acro@used@once{xml}{11}{11}{13}
\@@wrindexm@m{monografia}{xml@{XML}|hyperpage}{11}
\BKM@entry{id=7,dest={6C6F742E30},srcline={386}}{4C6973746120646520746162656C6173}
\@writefile{toc}{\setlength  {\cftchapterindent }{\cftlastnumwidth } \setlength  {\cftchapternumwidth }{2em}}
\BKM@entry{id=8,dest={6C6F612E30},srcline={398}}{4C69737461206465207369676C6173}
\acro@print@list
\@writefile{toc}{\setlength  {\cftchapterindent }{\cftlastnumwidth } \setlength  {\cftchapternumwidth }{2em}}
\BKM@entry{id=9,dest={6C6F732E30},srcline={404}}{4C6973746120646520735C3335356D626F6C6F73}
\BKM@entry{id=10,dest={746F632E30},srcline={412}}{53756D5C33343172696F}
\@writefile{toc}{\setlength  {\cftchapterindent }{\cftlastnumwidth } \setlength  {\cftchapternumwidth }{2em}}
\BKM@entry{id=11,dest={636861707465722E31},srcline={5}}{496E74726F64755C3334375C3334336F}
\citation{sommervilleengenharia}
\citation{pressman2011engenharia}
\citation{pfleeger2010software}
\citation{sommervilleengenharia}
\citation{whittle2010relax}
\citation{cheng2009software}
\citation{qureshi2010requirements}
\citation{bencomo2012self}
\citation{bencomo2012self}
\@writefile{toc}{\setlength  {\cftchapterindent }{0em} \setlength  {\cftchapternumwidth }{\cftlastnumwidth }}
\@writefile{toc}{\contentsline {chapter}{\chapternumberline {1}\MakeTextUppercase  {Introdu\IeC {\c c}\IeC {\~a}o}}{21}{chapter.1}}
\newlabel{introducao}{{1}{21}{Introdução}{chapter.1}{}}
\@writefile{brf}{\backcite{sommervilleengenharia}{{21}{1}{chapter.1}}}
\acro@used@once{er}{21}{21}{23}
\@@wrindexm@m{monografia}{er@{ER}|hyperpage}{21}
\@writefile{brf}{\backcite{pressman2011engenharia}{{21}{1}{chapter.1}}}
\acro@used@twice{er}{21}{21}{23}
\@@wrindexm@m{monografia}{er@{ER}|hyperpage}{21}
\@writefile{brf}{\backcite{pfleeger2010software}{{21}{1}{chapter.1}}}
\acro@used@twice{er}{21}{21}{23}
\@@wrindexm@m{monografia}{er@{ER}|hyperpage}{21}
\@writefile{brf}{\backcite{sommervilleengenharia}{{21}{1}{chapter.1}}}
\acro@used@once{sa}{21}{21}{23}
\@@wrindexm@m{monografia}{sa@{SA}|hyperpage}{21}
\@writefile{brf}{\backcite{whittle2010relax}{{21}{1}{chapter.1}}}
\@writefile{brf}{\backcite{cheng2009software}{{21}{1}{chapter.1}}}
\@writefile{brf}{\backcite{qureshi2010requirements}{{21}{1}{chapter.1}}}
\acro@used@once{sbs}{21}{21}{23}
\@@wrindexm@m{monografia}{sbs@{SBS}|hyperpage}{21}
\acro@used@twice{sbs}{21}{21}{23}
\@@wrindexm@m{monografia}{sbs@{SBS}|hyperpage}{21}
\@writefile{brf}{\backcite{bencomo2012self}{{21}{1}{chapter.1}}}
\citation{qureshi2010continuous}
\citation{whittle2010relax}
\citation{whittle2010relax}
\citation{sawyer2010requirements}
\citation{qureshi2010requirements}
\citation{qureshi2009engineering}
\citation{qureshi2010continuous}
\citation{bencomo2010requirements}
\citation{bencomo2012self}
\citation{welsh2010understanding}
\BKM@entry{id=12,dest={73656374696F6E2E312E31},srcline={43}}{4F626A657469766F73}
\BKM@entry{id=13,dest={73656374696F6E2E312E32},srcline={53}}{4D65746F646F6C6F676961}
\@writefile{brf}{\backcite{bencomo2012self}{{22}{1}{chapter.1}}}
\acro@used@twice{sa}{22}{22}{24}
\@@wrindexm@m{monografia}{sa@{SA}|hyperpage}{22}
\acro@used@twice{er}{22}{22}{24}
\@@wrindexm@m{monografia}{er@{ER}|hyperpage}{22}
\@writefile{brf}{\backcite{qureshi2010continuous}{{22}{1}{chapter.1}}}
\@writefile{brf}{\backcite{whittle2010relax}{{22}{1}{chapter.1}}}
\acro@used@twice{er}{22}{22}{24}
\@@wrindexm@m{monografia}{er@{ER}|hyperpage}{22}
\acro@used@twice{sa}{22}{22}{24}
\@@wrindexm@m{monografia}{sa@{SA}|hyperpage}{22}
\@writefile{brf}{\backcite{whittle2010relax}{{22}{1}{chapter.1}}}
\acro@used@twice{sa}{22}{22}{24}
\@@wrindexm@m{monografia}{sa@{SA}|hyperpage}{22}
\@writefile{brf}{\backcite{sawyer2010requirements, qureshi2010requirements, qureshi2009engineering}{{22}{1}{chapter.1}}}
\@writefile{brf}{\backcite{sawyer2010requirements, qureshi2010requirements, qureshi2009engineering}{{22}{1}{chapter.1}}}
\@writefile{brf}{\backcite{sawyer2010requirements, qureshi2010requirements, qureshi2009engineering}{{22}{1}{chapter.1}}}
\@writefile{brf}{\backcite{qureshi2010continuous,bencomo2010requirements}{{22}{1}{chapter.1}}}
\@writefile{brf}{\backcite{qureshi2010continuous,bencomo2010requirements}{{22}{1}{chapter.1}}}
\@writefile{brf}{\backcite{bencomo2012self, welsh2010understanding}{{22}{1}{chapter.1}}}
\@writefile{brf}{\backcite{bencomo2012self, welsh2010understanding}{{22}{1}{chapter.1}}}
\acro@used@twice{er}{22}{22}{24}
\@@wrindexm@m{monografia}{er@{ER}|hyperpage}{22}
\acro@used@twice{sa}{22}{22}{24}
\@@wrindexm@m{monografia}{sa@{SA}|hyperpage}{22}
\@writefile{toc}{\contentsline {section}{\numberline {1.1}Objetivos}{22}{section.1.1}}
\acro@used@twice{er}{22}{22}{24}
\@@wrindexm@m{monografia}{er@{ER}|hyperpage}{22}
\acro@used@twice{sa}{22}{22}{24}
\@@wrindexm@m{monografia}{sa@{SA}|hyperpage}{22}
\@writefile{toc}{\contentsline {section}{\numberline {1.2}Metodologia}{22}{section.1.2}}
\acro@used@twice{er}{22}{22}{24}
\@@wrindexm@m{monografia}{er@{ER}|hyperpage}{22}
\acro@used@twice{er}{22}{22}{24}
\@@wrindexm@m{monografia}{er@{ER}|hyperpage}{22}
\acro@used@twice{sa}{22}{22}{24}
\@@wrindexm@m{monografia}{sa@{SA}|hyperpage}{22}
\BKM@entry{id=14,dest={73656374696F6E2E312E33},srcline={64}}{4F7267616E697A615C3334375C3334336F20646F20446F63756D656E746F}
\acro@used@twice{er}{23}{23}{25}
\@@wrindexm@m{monografia}{er@{ER}|hyperpage}{23}
\acro@used@twice{sa}{23}{23}{25}
\@@wrindexm@m{monografia}{sa@{SA}|hyperpage}{23}
\@writefile{toc}{\contentsline {section}{\numberline {1.3}Organiza\IeC {\c c}\IeC {\~a}o do Documento}{23}{section.1.3}}
\acro@used@twice{er}{23}{23}{25}
\@@wrindexm@m{monografia}{er@{ER}|hyperpage}{23}
\acro@used@twice{sa}{23}{23}{25}
\@@wrindexm@m{monografia}{sa@{SA}|hyperpage}{23}
\BKM@entry{id=15,dest={636861707465722E32},srcline={4}}{46756E64616D656E74615C3334375C3334336F2054655C33363372696361}
\BKM@entry{id=16,dest={73656374696F6E2E322E31},srcline={7}}{456E67656E68617269612064652052657175697369746F73}
\citation{pressman2011engenharia}
\citation{sommervilleengenharia}
\BKM@entry{id=17,dest={73756273656374696F6E2E322E312E31},srcline={20}}{50726F636573736F20646520456E67656E68617269612064652052657175697369746F73}
\citation{sommervilleengenharia}
\@writefile{toc}{\setlength  {\cftchapterindent }{0em} \setlength  {\cftchapternumwidth }{\cftlastnumwidth }}
\@writefile{toc}{\contentsline {chapter}{\chapternumberline {2}\MakeTextUppercase  {Fundamenta\IeC {\c c}\IeC {\~a}o Te\IeC {\'o}rica}}{25}{chapter.2}}
\acro@used@twice{er}{25}{25}{27}
\@@wrindexm@m{monografia}{er@{ER}|hyperpage}{25}
\acro@used@twice{sa}{25}{25}{27}
\@@wrindexm@m{monografia}{sa@{SA}|hyperpage}{25}
\@writefile{toc}{\contentsline {section}{\numberline {2.1}Engenharia de Requisitos}{25}{section.2.1}}
\newlabel{section1er}{{2.1}{25}{Engenharia de Requisitos}{section.2.1}{}}
\acro@used@twice{er}{25}{25}{27}
\@@wrindexm@m{monografia}{er@{ER}|hyperpage}{25}
\acro@used@twice{er}{25}{25}{27}
\@@wrindexm@m{monografia}{er@{ER}|hyperpage}{25}
\@writefile{brf}{\backcite{pressman2011engenharia}{{25}{2.1}{section.2.1}}}
\acro@used@twice{er}{25}{25}{27}
\@@wrindexm@m{monografia}{er@{ER}|hyperpage}{25}
\@writefile{brf}{\backcite{sommervilleengenharia}{{25}{2.1}{section.2.1}}}
\acro@used@twice{er}{25}{25}{27}
\@@wrindexm@m{monografia}{er@{ER}|hyperpage}{25}
\acro@used@twice{er}{25}{25}{27}
\@@wrindexm@m{monografia}{er@{ER}|hyperpage}{25}
\@writefile{toc}{\contentsline {subsection}{\numberline {2.1.1}Processo de Engenharia de Requisitos}{25}{subsection.2.1.1}}
\@writefile{brf}{\backcite{sommervilleengenharia}{{25}{2.1.1}{subsection.2.1.1}}}
\acro@used@twice{er}{25}{25}{27}
\@@wrindexm@m{monografia}{er@{ER}|hyperpage}{25}
\acro@used@twice{er}{25}{25}{27}
\@@wrindexm@m{monografia}{er@{ER}|hyperpage}{25}
\citation{sommervilleengenharia}
\citation{pfleeger2004software}
\citation{pressman2011engenharia}
\citation{pressman2011engenharia}
\citation{pfleeger2004software}
\citation{sommervilleengenharia}
\@writefile{brf}{\backcite{sommervilleengenharia}{{26}{2.1.1}{subsection.2.1.1}}}
\@writefile{brf}{\backcite{pfleeger2004software}{{26}{2.1.1}{subsection.2.1.1}}}
\@writefile{brf}{\backcite{pressman2011engenharia}{{26}{2.1.1}{subsection.2.1.1}}}
\acro@used@twice{er}{26}{26}{28}
\@@wrindexm@m{monografia}{er@{ER}|hyperpage}{26}
\acro@used@twice{er}{26}{26}{28}
\@@wrindexm@m{monografia}{er@{ER}|hyperpage}{26}
\@writefile{brf}{\backcite{pressman2011engenharia}{{26}{2.1.1}{subsection.2.1.1}}}
\citation{sommervilleengenharia}
\citation{pfleeger2004software}
\citation{pressman2011engenharia}
\BKM@entry{id=18,dest={73756273756273656374696F6E2E322E312E312E31},srcline={47}}{496E766573746967615C3334375C3334336F}
\citation{wazlawick2004analise}
\citation{pressman2011engenharia}
\citation{pressman2011engenharia}
\@writefile{brf}{\backcite{pfleeger2004software}{{27}{2.1.1}{subsection.2.1.1}}}
\@writefile{brf}{\backcite{sommervilleengenharia}{{27}{2.1.1}{subsection.2.1.1}}}
\acro@used@twice{er}{27}{27}{29}
\@@wrindexm@m{monografia}{er@{ER}|hyperpage}{27}
\@writefile{brf}{\backcite{sommervilleengenharia}{{27}{2.1.1}{subsection.2.1.1}}}
\@writefile{brf}{\backcite{pfleeger2004software}{{27}{2.1.1}{subsection.2.1.1}}}
\@writefile{brf}{\backcite{pressman2011engenharia}{{27}{2.1.1}{subsection.2.1.1}}}
\@writefile{lof}{\contentsline {figure}{\numberline {1}{\ignorespaces Vis\IeC {\~a}o de processo de Engenharia de Requisitos utilizada nesse trabalho.}}{27}{figure.2.1}}
\newlabel{fig_modeloER}{{1}{27}{Visão de processo de Engenharia de Requisitos utilizada nesse trabalho}{figure.2.1}{}}
\@writefile{toc}{\contentsline {subsubsection}{\numberline {2.1.1.1}Investiga\IeC {\c c}\IeC {\~a}o}{27}{subsubsection.2.1.1.1}}
\@writefile{brf}{\backcite{wazlawick2004analise}{{27}{2.1.1.1}{subsubsection.2.1.1.1}}}
\citation{sommervilleengenharia}
\citation{sommervilleengenharia}
\citation{sommervilleengenharia}
\@writefile{brf}{\backcite{pressman2011engenharia}{{28}{2.1.1.1}{subsubsection.2.1.1.1}}}
\@writefile{brf}{\backcite{pressman2011engenharia}{{28}{2.1.1.1}{subsubsection.2.1.1.1}}}
\acro@used@once{jad}{28}{28}{30}
\@@wrindexm@m{monografia}{jad@{JAD}|hyperpage}{28}
\@writefile{brf}{\backcite{sommervilleengenharia}{{28}{2.1.1.1}{subsubsection.2.1.1.1}}}
\@writefile{brf}{\backcite{sommervilleengenharia}{{28}{2.1.1.1}{subsubsection.2.1.1.1}}}
\@writefile{brf}{\backcite{sommervilleengenharia}{{28}{2.1.1.1}{subsubsection.2.1.1.1}}}
\citation{aanalise}
\citation{aanalise}
\citation{aanalise}
\citation{aanalise}
\@writefile{brf}{\backcite{aanalise}{{29}{2.1.1.1}{subsubsection.2.1.1.1}}}
\@writefile{brf}{\backcite{aanalise}{{29}{2.1.1.1}{subsubsection.2.1.1.1}}}
\@writefile{brf}{\backcite{aanalise}{{29}{2.1.1.1}{subsubsection.2.1.1.1}}}
\acro@used@twice{jad}{29}{29}{31}
\@@wrindexm@m{monografia}{jad@{JAD}|hyperpage}{29}
\BKM@entry{id=19,dest={73756273756273656374696F6E2E322E312E312E32},srcline={109}}{416E5C3334316C697365}
\citation{sommervilleengenharia}
\citation{sommervilleengenharia}
\citation{wazlawick2004analise}
\citation{wazlawick2004analise}
\citation{wazlawick2004analise}
\@writefile{brf}{\backcite{aanalise}{{30}{2.1.1.1}{subsubsection.2.1.1.1}}}
\@writefile{toc}{\contentsline {subsubsection}{\numberline {2.1.1.2}An\IeC {\'a}lise}{30}{subsubsection.2.1.1.2}}
\@writefile{brf}{\backcite{sommervilleengenharia}{{30}{2.1.1.2}{subsubsection.2.1.1.2}}}
\@writefile{brf}{\backcite{sommervilleengenharia}{{30}{2.1.1.2}{subsubsection.2.1.1.2}}}
\@writefile{brf}{\backcite{wazlawick2004analise}{{30}{2.1.1.2}{subsubsection.2.1.1.2}}}
\@writefile{brf}{\backcite{wazlawick2004analise}{{30}{2.1.1.2}{subsubsection.2.1.1.2}}}
\citation{wazlawick2004analise}
\citation{wazlawick2004analise}
\BKM@entry{id=20,dest={73756273756273656374696F6E2E322E312E312E33},srcline={162}}{457370656369666963615C3334375C3334336F}
\citation{pfleeger2004software}
\@writefile{brf}{\backcite{wazlawick2004analise}{{31}{2.1.1.2}{subsubsection.2.1.1.2}}}
\@writefile{brf}{\backcite{wazlawick2004analise}{{31}{2.1.1.2}{subsubsection.2.1.1.2}}}
\acro@used@once{uml}{31}{31}{33}
\@@wrindexm@m{monografia}{uml@{UML}|hyperpage}{31}
\@writefile{brf}{\backcite{wazlawick2004analise}{{31}{2.1.1.2}{subsubsection.2.1.1.2}}}
\@writefile{toc}{\contentsline {subsubsection}{\numberline {2.1.1.3}Especifica\IeC {\c c}\IeC {\~a}o}{31}{subsubsection.2.1.1.3}}
\@writefile{brf}{\backcite{pfleeger2004software}{{31}{2.1.1.3}{subsubsection.2.1.1.3}}}
\acro@used@twice{er}{31}{31}{33}
\@@wrindexm@m{monografia}{er@{ER}|hyperpage}{31}
\acro@used@twice{er}{31}{31}{33}
\@@wrindexm@m{monografia}{er@{ER}|hyperpage}{31}
\citation{pfleeger2004software}
\citation{pfleeger2004software}
\citation{pfleeger2004software}
\citation{pfleeger2004software}
\BKM@entry{id=21,dest={73756273756273656374696F6E2E322E312E312E34},srcline={182}}{56616C6964615C3334375C3334336F}
\citation{sommervilleengenharia}
\acro@used@twice{er}{32}{32}{34}
\@@wrindexm@m{monografia}{er@{ER}|hyperpage}{32}
\@writefile{brf}{\backcite{pfleeger2004software}{{32}{2.1.1.3}{subsubsection.2.1.1.3}}}
\@writefile{brf}{\backcite{pfleeger2004software}{{32}{2.1.1.3}{subsubsection.2.1.1.3}}}
\@writefile{brf}{\backcite{pfleeger2004software}{{32}{2.1.1.3}{subsubsection.2.1.1.3}}}
\@writefile{brf}{\backcite{pfleeger2004software}{{32}{2.1.1.3}{subsubsection.2.1.1.3}}}
\@writefile{toc}{\contentsline {subsubsection}{\numberline {2.1.1.4}Valida\IeC {\c c}\IeC {\~a}o}{32}{subsubsection.2.1.1.4}}
\@writefile{brf}{\backcite{sommervilleengenharia}{{32}{2.1.1.4}{subsubsection.2.1.1.4}}}
\acro@used@twice{er}{32}{32}{34}
\@@wrindexm@m{monografia}{er@{ER}|hyperpage}{32}
\citation{pressman2011engenharia}
\citation{sommervilleengenharia}
\citation{sommervilleengenharia}
\@writefile{brf}{\backcite{pressman2011engenharia}{{33}{2.1.1.4}{subsubsection.2.1.1.4}}}
\@writefile{brf}{\backcite{sommervilleengenharia}{{33}{2.1.1.4}{subsubsection.2.1.1.4}}}
\BKM@entry{id=22,dest={73656374696F6E2E322E32},srcline={213}}{53697374656D6173204175746F6164617074617469766F73}
\citation{saltzer2009principles}
\citation{whittle2010relax}
\citation{whittle2010relax}
\citation{sawyer2010requirements}
\BKM@entry{id=23,dest={73756273656374696F6E2E322E322E31},srcline={223}}{50726F707269656461646573206465204175746F6164617074615C3334375C3334336F}
\citation{brun2009engineering}
\citation{daengenharia}
\citation{andre2010architectures}
\@writefile{brf}{\backcite{sommervilleengenharia}{{34}{2.1.1.4}{subsubsection.2.1.1.4}}}
\@writefile{toc}{\contentsline {section}{\numberline {2.2}Sistemas Autoadaptativos}{34}{section.2.2}}
\newlabel{section2sa}{{2.2}{34}{Sistemas Autoadaptativos}{section.2.2}{}}
\@writefile{brf}{\backcite{whittle2010relax}{{34}{2.2}{section.2.2}}}
\@writefile{brf}{\backcite{whittle2010relax}{{34}{2.2}{section.2.2}}}
\@writefile{brf}{\backcite{sawyer2010requirements}{{34}{2.2}{section.2.2}}}
\@writefile{toc}{\contentsline {subsection}{\numberline {2.2.1}Propriedades de Autoadapta\IeC {\c c}\IeC {\~a}o}{34}{subsection.2.2.1}}
\@writefile{brf}{\backcite{brun2009engineering}{{34}{2.2.1}{subsection.2.2.1}}}
\@writefile{brf}{\backcite{daengenharia}{{34}{2.2.1}{subsection.2.2.1}}}
\@writefile{brf}{\backcite{saltzer2009principles}{{34}{1}{Hfootnote.1}}}
\citation{bencomo2012self}
\citation{adaptiveDynamicAndResilientSystem}
\citation{qureshi2010requirements}
\@writefile{lof}{\contentsline {figure}{\numberline {2}{\ignorespaces Principais propriedades de um Sistema Autoadaptativo.}}{35}{figure.2.2}}
\newlabel{fig_SA_Propriedades}{{2}{35}{Principais propriedades de um Sistema Autoadaptativo}{figure.2.2}{}}
\@writefile{brf}{\backcite{andre2010architectures}{{35}{2.2.1}{figure.2.2}}}
\@writefile{brf}{\backcite{bencomo2012self}{{35}{2.2.1}{figure.2.2}}}
\@writefile{brf}{\backcite{adaptiveDynamicAndResilientSystem}{{35}{2.2.1}{figure.2.2}}}
\acro@used@twice{sa}{35}{35}{37}
\@@wrindexm@m{monografia}{sa@{SA}|hyperpage}{35}
\@writefile{brf}{\backcite{qureshi2010requirements}{{35}{2.2.1}{figure.2.2}}}
\acro@used@twice{sbs}{35}{35}{37}
\@@wrindexm@m{monografia}{sbs@{SBS}|hyperpage}{35}
\citation{adaptiveDynamicAndResilientSystem}
\citation{adaptiveDynamicAndResilientSystem}
\citation{qureshi2010requirements}
\citation{bencomo2012self}
\BKM@entry{id=24,dest={73756273656374696F6E2E322E322E32},srcline={258}}{41626F72646167656E732064652053697374656D6173204175746F6164617074617469766F73}
\citation{huebscher2008survey}
\citation{abordagensDeEngDeReqComAuto}
\@writefile{brf}{\backcite{adaptiveDynamicAndResilientSystem}{{36}{2.2.1}{figure.2.2}}}
\acro@used@twice{sa}{36}{36}{38}
\@@wrindexm@m{monografia}{sa@{SA}|hyperpage}{36}
\@writefile{brf}{\backcite{adaptiveDynamicAndResilientSystem}{{36}{2.2.1}{figure.2.2}}}
\@writefile{brf}{\backcite{qureshi2010requirements}{{36}{2.2.1}{figure.2.2}}}
\acro@used@twice{sbs}{36}{36}{38}
\@@wrindexm@m{monografia}{sbs@{SBS}|hyperpage}{36}
\acro@used@twice{sa}{36}{36}{38}
\@@wrindexm@m{monografia}{sa@{SA}|hyperpage}{36}
\@writefile{brf}{\backcite{bencomo2012self}{{36}{2.2.1}{figure.2.2}}}
\acro@used@twice{sa}{36}{36}{38}
\@@wrindexm@m{monografia}{sa@{SA}|hyperpage}{36}
\@writefile{toc}{\contentsline {subsection}{\numberline {2.2.2}Abordagens de Sistemas Autoadaptativos}{36}{subsection.2.2.2}}
\acro@used@twice{sa}{36}{36}{38}
\@@wrindexm@m{monografia}{sa@{SA}|hyperpage}{36}
\@writefile{brf}{\backcite{huebscher2008survey}{{36}{2.2.2}{subsection.2.2.2}}}
\citation{herczeg2010smart}
\citation{qureshi2010requirements}
\BKM@entry{id=25,dest={73756273656374696F6E2E322E322E33},srcline={280}}{41626F72646167656E732064652061706F696F20616F20446573656E766F6C76696D656E746F2064652053697374656D6173204175746F6164617074617469766F73}
\citation{brun2009engineering}
\citation{brun2009engineering}
\@writefile{brf}{\backcite{abordagensDeEngDeReqComAuto}{{37}{2.2.2}{subsection.2.2.2}}}
\@writefile{brf}{\backcite{herczeg2010smart}{{37}{2.2.2}{subsection.2.2.2}}}
\acro@used@twice{sbs}{37}{37}{39}
\@@wrindexm@m{monografia}{sbs@{SBS}|hyperpage}{37}
\@writefile{brf}{\backcite{qureshi2010requirements}{{37}{2.2.2}{subsection.2.2.2}}}
\acro@used@twice{sbs}{37}{37}{39}
\@@wrindexm@m{monografia}{sbs@{SBS}|hyperpage}{37}
\@writefile{toc}{\contentsline {subsection}{\numberline {2.2.3}Abordagens de apoio ao Desenvolvimento de Sistemas Autoadaptativos}{37}{subsection.2.2.3}}
\@writefile{brf}{\backcite{brun2009engineering}{{37}{2.2.3}{subsection.2.2.3}}}
\citation{sawyer2010requirements}
\citation{sawyer2010requirements}
\citation{daengenharia}
\BKM@entry{id=26,dest={73656374696F6E2E322E33},srcline={296}}{4C696E67756167656D2052656C6178}
\citation{whittle2010relax}
\@writefile{brf}{\backcite{brun2009engineering}{{38}{2.2.3}{subsection.2.2.3}}}
\acro@used@twice{er}{38}{38}{40}
\@@wrindexm@m{monografia}{er@{ER}|hyperpage}{38}
\acro@used@twice{sbs}{38}{38}{40}
\@@wrindexm@m{monografia}{sbs@{SBS}|hyperpage}{38}
\@writefile{brf}{\backcite{sawyer2010requirements}{{38}{2.2.3}{subsection.2.2.3}}}
\acro@used@twice{er}{38}{38}{40}
\@@wrindexm@m{monografia}{er@{ER}|hyperpage}{38}
\acro@used@twice{sa}{38}{38}{40}
\@@wrindexm@m{monografia}{sa@{SA}|hyperpage}{38}
\acro@used@twice{sa}{38}{38}{40}
\@@wrindexm@m{monografia}{sa@{SA}|hyperpage}{38}
\acro@used@twice{er}{38}{38}{40}
\@@wrindexm@m{monografia}{er@{ER}|hyperpage}{38}
\@writefile{brf}{\backcite{sawyer2010requirements}{{38}{2.2.3}{subsection.2.2.3}}}
\acro@used@twice{sa}{38}{38}{40}
\@@wrindexm@m{monografia}{sa@{SA}|hyperpage}{38}
\acro@used@twice{er}{38}{38}{40}
\@@wrindexm@m{monografia}{er@{ER}|hyperpage}{38}
\@writefile{brf}{\backcite{daengenharia}{{38}{2.2.3}{subsection.2.2.3}}}
\@writefile{toc}{\contentsline {section}{\numberline {2.3}Linguagem Relax}{38}{section.2.3}}
\newlabel{sectionLR}{{2.3}{38}{Linguagem Relax}{section.2.3}{}}
\acro@used@twice{sa}{38}{38}{40}
\@@wrindexm@m{monografia}{sa@{SA}|hyperpage}{38}
\citation{whittle2010relax}
\BKM@entry{id=27,dest={73756273656374696F6E2E322E332E31},srcline={324}}{566F636162756C5C33343172696F206461204C696E67756167656D}
\citation{whittle2010relax}
\citation{whittle2010relax}
\acro@used@twice{sa}{39}{39}{41}
\@@wrindexm@m{monografia}{sa@{SA}|hyperpage}{39}
\@writefile{brf}{\backcite{whittle2010relax}{{39}{2.3}{section.2.3}}}
\acro@used@twice{sa}{39}{39}{41}
\@@wrindexm@m{monografia}{sa@{SA}|hyperpage}{39}
\@writefile{brf}{\backcite{whittle2010relax}{{39}{2.3}{section.2.3}}}
\@writefile{toc}{\contentsline {subsection}{\numberline {2.3.1}Vocabul\IeC {\'a}rio da Linguagem}{39}{subsection.2.3.1}}
\@writefile{lot}{\contentsline {table}{\numberline {1}{\ignorespaces Operadores Relax}}{40}{table.2.1}}
\@writefile{brf}{\backcite{whittle2010relax}{{40}{1}{table.2.1}}}
\newlabel{tab:operadoresRelaxEDefinicoes}{{1}{40}{Operadores Relax}{table.2.1}{}}
\BKM@entry{id=28,dest={73756273756273656374696F6E2E322E332E312E31},srcline={394}}{53696E745C3334317865}
\BKM@entry{id=29,dest={73756273756273656374696F6E2E322E332E312E32},srcline={437}}{53656D5C3334326E74696361}
\citation{whittle2010relax}
\acro@used@twice{sa}{41}{41}{43}
\@@wrindexm@m{monografia}{sa@{SA}|hyperpage}{41}
\@writefile{toc}{\contentsline {subsubsection}{\numberline {2.3.1.1}Sint\IeC {\'a}xe}{41}{subsubsection.2.3.1.1}}
\citation{whittle2010relax}
\citation{whittle2010relax}
\citation{bilobrovec2004implementaccao}
\BKM@entry{id=30,dest={73656374696F6E2E322E34},srcline={510}}{436F6E7369646572615C3334375C333635657320646F204361705C33353574756C6F}
\@writefile{toc}{\contentsline {subsubsection}{\numberline {2.3.1.2}Sem\IeC {\^a}ntica}{42}{subsubsection.2.3.1.2}}
\acro@used@once{fbtl}{42}{42}{44}
\@@wrindexm@m{monografia}{fbtl@{FBTL}|hyperpage}{42}
\@writefile{brf}{\backcite{whittle2010relax}{{42}{2.3.1.2}{subsubsection.2.3.1.2}}}
\@writefile{lot}{\contentsline {table}{\numberline {2}{\ignorespaces Sem\IeC {\^a}ntica para Express\IeC {\~a}o Relax}}{42}{table.2.2}}
\@writefile{brf}{\backcite{whittle2010relax}{{42}{2}{table.2.2}}}
\newlabel{fig_semanticaOperador}{{2}{42}{Semântica para Expressão Relax}{table.2.2}{}}
\@writefile{brf}{\backcite{bilobrovec2004implementaccao}{{42}{2.3.1.2}{table.2.2}}}
\@writefile{toc}{\contentsline {section}{\numberline {2.4}Considera\IeC {\c c}\IeC {\~o}es do Cap\IeC {\'\i }tulo}{43}{section.2.4}}
\acro@used@twice{er}{43}{43}{45}
\@@wrindexm@m{monografia}{er@{ER}|hyperpage}{43}
\acro@used@twice{er}{43}{43}{45}
\@@wrindexm@m{monografia}{er@{ER}|hyperpage}{43}
\acro@used@twice{sa}{43}{43}{45}
\@@wrindexm@m{monografia}{sa@{SA}|hyperpage}{43}
\acro@used@twice{sa}{43}{43}{45}
\@@wrindexm@m{monografia}{sa@{SA}|hyperpage}{43}
\BKM@entry{id=31,dest={636861707465722E33},srcline={1}}{42617365205465636E6F6C5C33363367696361}
\BKM@entry{id=32,dest={73656374696F6E2E332E31},srcline={5}}{50726F6365737361646F72206465204C696E67756167656D}
\citation{aho2008compiladores}
\citation{deitel2010java}
\citation{aho2008compiladores}
\citation{aho2008compiladores}
\citation{aho2008compiladores}
\citation{aho2008compiladores}
\citation{aho2008compiladores}
\citation{aho2008compiladores}
\@writefile{toc}{\setlength  {\cftchapterindent }{0em} \setlength  {\cftchapternumwidth }{\cftlastnumwidth }}
\@writefile{toc}{\contentsline {chapter}{\chapternumberline {3}\MakeTextUppercase  {Base Tecnol\IeC {\'o}gica}}{45}{chapter.3}}
\@writefile{toc}{\contentsline {section}{\numberline {3.1}Processador de Linguagem}{45}{section.3.1}}
\newlabel{sectionProcessadorDeLinguagem}{{3.1}{45}{Processador de Linguagem}{section.3.1}{}}
\@writefile{brf}{\backcite{aho2008compiladores}{{45}{3.1}{section.3.1}}}
\acro@used@once{jvm}{45}{45}{47}
\@@wrindexm@m{monografia}{jvm@{JVM}|hyperpage}{45}
\@writefile{brf}{\backcite{deitel2010java}{{45}{3.1}{section.3.1}}}
\@writefile{brf}{\backcite{aho2008compiladores}{{45}{3.1}{figure.3.3}}}
\@writefile{brf}{\backcite{aho2008compiladores}{{45}{3.1}{figure.3.3}}}
\@writefile{brf}{\backcite{aho2008compiladores}{{45}{3.1}{figure.3.3}}}
\BKM@entry{id=33,dest={73756273656374696F6E2E332E312E31},srcline={29}}{47657261646F726573207061726120437269617220416E616C697361646F726573204C5C3335317869636F20652064652053696E745C3334317865}
\citation{manualjflexparausuario}
\citation{manualjflexparausuario}
\BKM@entry{id=34,dest={73756273756273656374696F6E2E332E312E312E31},srcline={35}}{45737472757475726120646520756D6120457370656369666963615C3334375C3334336F204C5C33353178696361204A466C6578}
\citation{manualjflexparausuario}
\@writefile{lof}{\contentsline {figure}{\numberline {3}{\ignorespaces Estrutura fundamental de um compilador~\cite  {aho2008compiladores}.}}{46}{figure.3.3}}
\@writefile{brf}{\backcite{aho2008compiladores}{{46}{3}{figure.3.3}}}
\newlabel{fig_compiladorLocao}{{3}{46}{Estrutura fundamental de um compilador~\cite {aho2008compiladores}}{figure.3.3}{}}
\@writefile{brf}{\backcite{aho2008compiladores}{{46}{3.1}{figure.3.3}}}
\@writefile{toc}{\contentsline {subsection}{\numberline {3.1.1}Geradores para Criar Analisadores L\IeC {\'e}xico e de Sint\IeC {\'a}xe}{46}{subsection.3.1.1}}
\@writefile{brf}{\backcite{manualjflexparausuario}{{46}{3.1.1}{subsection.3.1.1}}}
\@writefile{brf}{\backcite{manualjflexparausuario}{{46}{3.1.1}{subsection.3.1.1}}}
\@writefile{toc}{\contentsline {subsubsection}{\numberline {3.1.1.1}Estrutura de uma Especifica\IeC {\c c}\IeC {\~a}o L\IeC {\'e}xica JFlex}{47}{subsubsection.3.1.1.1}}
\@writefile{brf}{\backcite{manualjflexparausuario}{{47}{3.1.1.1}{subsubsection.3.1.1.1}}}
\BKM@entry{id=35,dest={73756273756273656374696F6E2E332E312E312E32},srcline={84}}{45737472757475726120646520756D6120457370656369666963615C3334375C3334336F2053696E745C3334317469636120435550}
\citation{manualcupparausuario}
\citation{manualcupparausuario}
\@writefile{toc}{\contentsline {subsubsection}{\numberline {3.1.1.2}Estrutura de uma Especifica\IeC {\c c}\IeC {\~a}o Sint\IeC {\'a}tica CUP}{48}{subsubsection.3.1.1.2}}
\@writefile{brf}{\backcite{manualcupparausuario}{{48}{3.1.1.2}{subsubsection.3.1.1.2}}}
\@writefile{brf}{\backcite{manualcupparausuario}{{48}{3.1.1.2}{subsubsection.3.1.1.2}}}
\BKM@entry{id=36,dest={73656374696F6E2E332E32},srcline={138}}{506C617461666F726D612045636C697073652070617261206F20446573656E766F6C76696D656E746F20646520506C7567696E73}
\citation{ecliseDocumentationLuna}
\citation{desrivieres2004eclipse}
\BKM@entry{id=37,dest={73756273656374696F6E2E332E322E31},srcline={144}}{417271756974657475726120646120506C617461666F726D612045636C69707365}
\citation{desrivieres2004eclipse}
\citation{desrivieres2004eclipse}
\citation{desrivieres2004eclipse}
\@writefile{toc}{\contentsline {section}{\numberline {3.2}Plataforma Eclipse para o Desenvolvimento de \textit  {Plugins}}{49}{section.3.2}}
\newlabel{sectionPlataformaEclipse}{{3.2}{49}{Plataforma Eclipse para o Desenvolvimento de \textit {Plugins}}{section.3.2}{}}
\acro@used@once{ide}{49}{49}{51}
\@@wrindexm@m{monografia}{ide@{IDE}|hyperpage}{49}
\@writefile{brf}{\backcite{ecliseDocumentationLuna}{{49}{3.2}{section.3.2}}}
\@writefile{brf}{\backcite{desrivieres2004eclipse}{{49}{3.2}{section.3.2}}}
\acro@used@once{api}{49}{49}{51}
\@@wrindexm@m{monografia}{api@{API}|hyperpage}{49}
\@writefile{toc}{\contentsline {subsection}{\numberline {3.2.1}Arquitetura da Plataforma Eclipse}{49}{subsection.3.2.1}}
\citation{desrivieres2004eclipse}
\@writefile{lof}{\contentsline {figure}{\numberline {4}{\ignorespaces Arquitetura da Plataforma Eclipse~\cite  {desrivieres2004eclipse}.}}{50}{figure.3.4}}
\@writefile{brf}{\backcite{desrivieres2004eclipse}{{50}{4}{figure.3.4}}}
\newlabel{fig_arquiteturaDaPlataforma}{{4}{50}{Arquitetura da Plataforma Eclipse~\cite {desrivieres2004eclipse}}{figure.3.4}{}}
\@writefile{brf}{\backcite{desrivieres2004eclipse}{{50}{3.2.1}{figure.3.4}}}
\@writefile{brf}{\backcite{desrivieres2004eclipse}{{50}{3.2.1}{figure.3.4}}}
\BKM@entry{id=38,dest={73756273656374696F6E2E332E322E32},srcline={185}}{417271756974657475726120646520756D20506C7567696E2045636C69707365}
\citation{apostilaEclipseI}
\citation{apostilaEclipseI}
\acro@used@twice{ide}{51}{51}{53}
\@@wrindexm@m{monografia}{ide@{IDE}|hyperpage}{51}
\@writefile{toc}{\contentsline {subsection}{\numberline {3.2.2}Arquitetura de um \textit  {Plugin} Eclipse}{51}{subsection.3.2.2}}
\acro@used@twice{xml}{51}{51}{53}
\@@wrindexm@m{monografia}{xml@{XML}|hyperpage}{51}
\@writefile{lof}{\contentsline {figure}{\numberline {5}{\ignorespaces Arquitetura de um \textit  {plugin} eclipse.}}{51}{figure.3.5}}
\newlabel{fig_arquiteturaPlugin}{{5}{51}{Arquitetura de um \textit {plugin} eclipse}{figure.3.5}{}}
\acro@used@once{jar}{51}{51}{53}
\@@wrindexm@m{monografia}{jar@{JAR}|hyperpage}{51}
\acro@used@twice{jar}{51}{51}{53}
\@@wrindexm@m{monografia}{jar@{JAR}|hyperpage}{51}
\acro@used@twice{jar}{51}{51}{53}
\@@wrindexm@m{monografia}{jar@{JAR}|hyperpage}{51}
\acro@used@twice{jar}{51}{51}{53}
\@@wrindexm@m{monografia}{jar@{JAR}|hyperpage}{51}
\citation{apostilaEclipseI}
\citation{apostilaEclipseI}
\BKM@entry{id=39,dest={73756273656374696F6E2E332E322E33},srcline={211}}{506C7567696E20446576656C6F706D656E7420456E7669726F6E6D656E74}
\citation{ecliseDocumentationLuna}
\citation{ecliseDocumentationLuna}
\BKM@entry{id=40,dest={73656374696F6E2E332E33},srcline={217}}{436F6E7369646572615C3334375C333635657320646F204361705C33353574756C6F}
\@writefile{brf}{\backcite{apostilaEclipseI}{{52}{3.2.2}{figure.3.5}}}
\@writefile{brf}{\backcite{apostilaEclipseI}{{52}{3.2.2}{figure.3.5}}}
\acro@used@twice{jar}{52}{52}{54}
\@@wrindexm@m{monografia}{jar@{JAR}|hyperpage}{52}
\acro@used@twice{xml}{52}{52}{54}
\@@wrindexm@m{monografia}{xml@{XML}|hyperpage}{52}
\@writefile{brf}{\backcite{apostilaEclipseI}{{52}{3.2.2}{figure.3.5}}}
\@writefile{brf}{\backcite{apostilaEclipseI}{{52}{3.2.2}{figure.3.5}}}
\@writefile{toc}{\contentsline {subsection}{\numberline {3.2.3}\textit  {Plugin Development Environment}}{52}{subsection.3.2.3}}
\@writefile{brf}{\backcite{ecliseDocumentationLuna}{{52}{3.2.3}{subsection.3.2.3}}}
\acro@used@twice{api}{52}{52}{54}
\@@wrindexm@m{monografia}{api@{API}|hyperpage}{52}
\acro@used@twice{api}{52}{52}{54}
\@@wrindexm@m{monografia}{api@{API}|hyperpage}{52}
\acro@used@twice{api}{52}{52}{54}
\@@wrindexm@m{monografia}{api@{API}|hyperpage}{52}
\@writefile{brf}{\backcite{ecliseDocumentationLuna}{{52}{3.2.3}{subsection.3.2.3}}}
\@writefile{toc}{\contentsline {section}{\numberline {3.3}Considera\IeC {\c c}\IeC {\~o}es do Cap\IeC {\'\i }tulo}{52}{section.3.3}}
\BKM@entry{id=41,dest={636861707465722E34},srcline={2}}{54726162616C686F732052656C6163696F6E61646F73}
\BKM@entry{id=42,dest={73656374696F6E2E342E31},srcline={6}}{4D65746F646F6C6F676961}
\BKM@entry{id=43,dest={73656374696F6E2E342E32},srcline={25}}{54726162616C686F73}
\@writefile{toc}{\setlength  {\cftchapterindent }{0em} \setlength  {\cftchapternumwidth }{\cftlastnumwidth }}
\@writefile{toc}{\contentsline {chapter}{\chapternumberline {4}\MakeTextUppercase  {Trabalhos Relacionados}}{55}{chapter.4}}
\acro@used@twice{er}{55}{55}{57}
\@@wrindexm@m{monografia}{er@{ER}|hyperpage}{55}
\@writefile{toc}{\contentsline {section}{\numberline {4.1}Metodologia}{55}{section.4.1}}
\newlabel{sectionMetodologia}{{4.1}{55}{Metodologia}{section.4.1}{}}
\acro@used@twice{er}{55}{55}{57}
\@@wrindexm@m{monografia}{er@{ER}|hyperpage}{55}
\acro@used@twice{sa}{55}{55}{57}
\@@wrindexm@m{monografia}{sa@{SA}|hyperpage}{55}
\@writefile{toc}{\contentsline {section}{\numberline {4.2}Trabalhos}{55}{section.4.2}}
\newlabel{sectionTrabalhosF}{{4.2}{55}{Trabalhos}{section.4.2}{}}
\acro@used@twice{er}{55}{55}{57}
\@@wrindexm@m{monografia}{er@{ER}|hyperpage}{55}
\BKM@entry{id=44,dest={73756273656374696F6E2E342E322E31},srcline={29}}{46657272616D656E7461732064652041706F696F20616F2050726F636573736F20646520456E67656E68617269612064652052657175697369746F73}
\citation{butlersecure}
\citation{azevedointegrative}
\citation{ali2010reasoning}
\citation{ali2014requirements}
\citation{ito2011support}
\citation{umoh2011refinto}
\citation{zarinah2009supporting}
\citation{beckers2013structured}
\citation{daramolaSatalhaneSindreOmoronia2011}
\citation{daramolaSindreStalhane2012}
\citation{varelaAraujoBritoMoreira2011}
\acro@used@twice{er}{56}{56}{58}
\@@wrindexm@m{monografia}{er@{ER}|hyperpage}{56}
\acro@used@twice{sa}{56}{56}{58}
\@@wrindexm@m{monografia}{sa@{SA}|hyperpage}{56}
\@writefile{toc}{\contentsline {subsection}{\numberline {4.2.1}Ferramentas de Apoio ao Processo de Engenharia de Requisitos}{56}{subsection.4.2.1}}
\@writefile{brf}{\backcite{butlersecure}{{56}{4.2.1}{subsection.4.2.1}}}
\@writefile{brf}{\backcite{azevedointegrative}{{56}{4.2.1}{subsection.4.2.1}}}
\@writefile{brf}{\backcite{ali2010reasoning}{{56}{4.2.1}{subsection.4.2.1}}}
\@writefile{brf}{\backcite{ali2014requirements}{{56}{4.2.1}{subsection.4.2.1}}}
\@writefile{brf}{\backcite{ito2011support}{{56}{4.2.1}{subsection.4.2.1}}}
\@writefile{brf}{\backcite{umoh2011refinto}{{56}{4.2.1}{subsection.4.2.1}}}
\acro@used@twice{er}{56}{56}{58}
\@@wrindexm@m{monografia}{er@{ER}|hyperpage}{56}
\@writefile{brf}{\backcite{zarinah2009supporting}{{56}{4.2.1}{subsection.4.2.1}}}
\@writefile{brf}{\backcite{beckers2013structured}{{56}{4.2.1}{subsection.4.2.1}}}
\@writefile{brf}{\backcite{daramolaSatalhaneSindreOmoronia2011,daramolaSindreStalhane2012}{{56}{4.2.1}{subsection.4.2.1}}}
\@writefile{brf}{\backcite{daramolaSatalhaneSindreOmoronia2011,daramolaSindreStalhane2012}{{56}{4.2.1}{subsection.4.2.1}}}
\@writefile{brf}{\backcite{varelaAraujoBritoMoreira2011}{{56}{4.2.1}{subsection.4.2.1}}}
\BKM@entry{id=45,dest={73756273656374696F6E2E342E322E32},srcline={43}}{46657272616D656E7461732064652041706F696F20616F2050726F636573736F20646520456E67656E68617269612064652052657175697369746F7320706172612053697374656D6173204175746F6164617074617469766F73}
\citation{ali2013reasoning}
\citation{hussein2013scenario}
\citation{fredericks2014autorelax}
\citation{ali2013reasoning}
\citation{hussein2013scenario}
\citation{fredericks2014autorelax}
\BKM@entry{id=46,dest={73656374696F6E2E342E33},srcline={53}}{416E5C3334316C697365}
\citation{butlersecure}
\citation{azevedointegrative}
\citation{ali2010reasoning}
\citation{ali2013reasoning}
\citation{ali2014requirements}
\citation{hussein2013scenario}
\citation{umoh2011refinto}
\citation{zarinah2009supporting}
\citation{beckers2013structured}
\citation{daramolaSatalhaneSindreOmoronia2011}
\citation{daramolaSindreStalhane2012}
\citation{varelaAraujoBritoMoreira2011}
\citation{fredericks2014autorelax}
\@writefile{toc}{\contentsline {subsection}{\numberline {4.2.2}Ferramentas de Apoio ao Processo de Engenharia de Requisitos para Sistemas Autoadaptativos}{57}{subsection.4.2.2}}
\acro@used@twice{er}{57}{57}{59}
\@@wrindexm@m{monografia}{er@{ER}|hyperpage}{57}
\acro@used@twice{er}{57}{57}{59}
\@@wrindexm@m{monografia}{er@{ER}|hyperpage}{57}
\acro@used@twice{sa}{57}{57}{59}
\@@wrindexm@m{monografia}{sa@{SA}|hyperpage}{57}
\@writefile{brf}{\backcite{ali2013reasoning,hussein2013scenario,fredericks2014autorelax}{{57}{4.2.2}{subsection.4.2.2}}}
\@writefile{brf}{\backcite{ali2013reasoning,hussein2013scenario,fredericks2014autorelax}{{57}{4.2.2}{subsection.4.2.2}}}
\@writefile{brf}{\backcite{ali2013reasoning,hussein2013scenario,fredericks2014autorelax}{{57}{4.2.2}{subsection.4.2.2}}}
\@writefile{brf}{\backcite{ali2013reasoning}{{57}{4.2.2}{subsection.4.2.2}}}
\@writefile{brf}{\backcite{hussein2013scenario}{{57}{4.2.2}{subsection.4.2.2}}}
\@writefile{brf}{\backcite{fredericks2014autorelax}{{57}{4.2.2}{subsection.4.2.2}}}
\@writefile{toc}{\contentsline {section}{\numberline {4.3}An\IeC {\'a}lise}{57}{section.4.3}}
\newlabel{sectionAnalise}{{4.3}{57}{Análise}{section.4.3}{}}
\acro@used@twice{er}{57}{57}{59}
\@@wrindexm@m{monografia}{er@{ER}|hyperpage}{57}
\acro@used@twice{sa}{57}{57}{59}
\@@wrindexm@m{monografia}{sa@{SA}|hyperpage}{57}
\@writefile{brf}{\backcite{butlersecure,azevedointegrative}{{57}{4.3}{section.4.3}}}
\@writefile{brf}{\backcite{butlersecure,azevedointegrative}{{57}{4.3}{section.4.3}}}
\@writefile{brf}{\backcite{ali2010reasoning,ali2013reasoning,ali2014requirements,hussein2013scenario}{{57}{4.3}{section.4.3}}}
\@writefile{brf}{\backcite{ali2010reasoning,ali2013reasoning,ali2014requirements,hussein2013scenario}{{57}{4.3}{section.4.3}}}
\@writefile{brf}{\backcite{ali2010reasoning,ali2013reasoning,ali2014requirements,hussein2013scenario}{{57}{4.3}{section.4.3}}}
\@writefile{brf}{\backcite{ali2010reasoning,ali2013reasoning,ali2014requirements,hussein2013scenario}{{57}{4.3}{section.4.3}}}
\@writefile{brf}{\backcite{umoh2011refinto,zarinah2009supporting,beckers2013structured,daramolaSatalhaneSindreOmoronia2011,daramolaSindreStalhane2012}{{57}{4.3}{section.4.3}}}
\@writefile{brf}{\backcite{umoh2011refinto,zarinah2009supporting,beckers2013structured,daramolaSatalhaneSindreOmoronia2011,daramolaSindreStalhane2012}{{57}{4.3}{section.4.3}}}
\@writefile{brf}{\backcite{umoh2011refinto,zarinah2009supporting,beckers2013structured,daramolaSatalhaneSindreOmoronia2011,daramolaSindreStalhane2012}{{57}{4.3}{section.4.3}}}
\@writefile{brf}{\backcite{umoh2011refinto,zarinah2009supporting,beckers2013structured,daramolaSatalhaneSindreOmoronia2011,daramolaSindreStalhane2012}{{57}{4.3}{section.4.3}}}
\@writefile{brf}{\backcite{umoh2011refinto,zarinah2009supporting,beckers2013structured,daramolaSatalhaneSindreOmoronia2011,daramolaSindreStalhane2012}{{57}{4.3}{section.4.3}}}
\@writefile{brf}{\backcite{varelaAraujoBritoMoreira2011,fredericks2014autorelax}{{57}{4.3}{section.4.3}}}
\citation{fredericks2014autorelax}
\citation{ali2010reasoning}
\citation{ali2013reasoning}
\citation{ali2014requirements}
\BKM@entry{id=47,dest={73656374696F6E2E342E34},srcline={63}}{436F6E7369646572615C3334375C333635657320646F204361705C33353574756C6F}
\@writefile{brf}{\backcite{varelaAraujoBritoMoreira2011,fredericks2014autorelax}{{58}{4.3}{section.4.3}}}
\@writefile{brf}{\backcite{fredericks2014autorelax}{{58}{4.3}{section.4.3}}}
\@writefile{brf}{\backcite{ali2010reasoning,ali2013reasoning,ali2014requirements}{{58}{4.3}{section.4.3}}}
\@writefile{brf}{\backcite{ali2010reasoning,ali2013reasoning,ali2014requirements}{{58}{4.3}{section.4.3}}}
\@writefile{brf}{\backcite{ali2010reasoning,ali2013reasoning,ali2014requirements}{{58}{4.3}{section.4.3}}}
\@writefile{toc}{\contentsline {section}{\numberline {4.4}Considera\IeC {\c c}\IeC {\~o}es do Cap\IeC {\'\i }tulo}{58}{section.4.4}}
\acro@used@twice{er}{58}{58}{60}
\@@wrindexm@m{monografia}{er@{ER}|hyperpage}{58}
\acro@used@twice{sa}{58}{58}{60}
\@@wrindexm@m{monografia}{sa@{SA}|hyperpage}{58}
\acro@used@twice{er}{58}{58}{60}
\@@wrindexm@m{monografia}{er@{ER}|hyperpage}{58}
\acro@used@twice{sa}{58}{58}{60}
\@@wrindexm@m{monografia}{sa@{SA}|hyperpage}{58}
\BKM@entry{id=48,dest={636861707465722E35},srcline={1}}{446573656E766F6C76696D656E746F2064612046657272616D656E7461}
\BKM@entry{id=49,dest={73656374696F6E2E352E31},srcline={5}}{416E5C3334316C697365}
\citation{whittle2010relax}
\citation{whittle2010relax}
\BKM@entry{id=50,dest={73756273656374696F6E2E352E312E31},srcline={11}}{486973745C33363372696173206465205573755C33343172696F}
\citation{whittle2010relax}
\BKM@entry{id=51,dest={73756273656374696F6E2E352E312E32},srcline={43}}{53746F7279426F617264}
\@writefile{toc}{\setlength  {\cftchapterindent }{0em} \setlength  {\cftchapternumwidth }{\cftlastnumwidth }}
\@writefile{toc}{\contentsline {chapter}{\chapternumberline {5}\MakeTextUppercase  {Desenvolvimento da Ferramenta}}{59}{chapter.5}}
\@writefile{toc}{\contentsline {section}{\numberline {5.1}An\IeC {\'a}lise}{59}{section.5.1}}
\newlabel{sectionAnalise}{{5.1}{59}{Análise}{section.5.1}{}}
\@writefile{brf}{\backcite{whittle2010relax}{{59}{5.1}{section.5.1}}}
\acro@used@twice{sa}{59}{59}{61}
\@@wrindexm@m{monografia}{sa@{SA}|hyperpage}{59}
\acro@used@twice{ide}{59}{59}{61}
\@@wrindexm@m{monografia}{ide@{IDE}|hyperpage}{59}
\acro@used@twice{sa}{59}{59}{61}
\@@wrindexm@m{monografia}{sa@{SA}|hyperpage}{59}
\@writefile{brf}{\backcite{whittle2010relax}{{59}{5.1}{section.5.1}}}
\@writefile{toc}{\contentsline {subsection}{\numberline {5.1.1}Hist\IeC {\'o}rias de Usu\IeC {\'a}rio}{59}{subsection.5.1.1}}
\@writefile{brf}{\backcite{whittle2010relax}{{59}{5.1.1}{subsection.5.1.1}}}
\acro@used@once{xp}{59}{59}{61}
\@@wrindexm@m{monografia}{xp@{XP}|hyperpage}{59}
\@writefile{lot}{\contentsline {table}{\numberline {3}{\ignorespaces Narrativas de requisitos}}{60}{table.5.3}}
\newlabel{tab:estorias}{{3}{60}{Narrativas de requisitos}{table.5.3}{}}
\@writefile{toc}{\contentsline {subsection}{\numberline {5.1.2}\textit  {StoryBoard}}{60}{subsection.5.1.2}}
\@writefile{lof}{\contentsline {figure}{\numberline {6}{\ignorespaces \textit  {Storyboard} - parte I}}{60}{figure.5.6}}
\newlabel{fig_storyBoard1}{{6}{60}{\textit {Storyboard} - parte I}{figure.5.6}{}}
\BKM@entry{id=52,dest={73756273656374696F6E2E352E312E33},srcline={81}}{4D6F64656C6F206465204361736F2064652055736F}
\@writefile{lof}{\contentsline {figure}{\numberline {7}{\ignorespaces \textit  {Storyboard} - parte II}}{61}{figure.5.7}}
\newlabel{fig_storyBoard2}{{7}{61}{\textit {Storyboard} - parte II}{figure.5.7}{}}
\@writefile{lof}{\contentsline {figure}{\numberline {8}{\ignorespaces \textit  {Storyboard} - parte III}}{61}{figure.5.8}}
\newlabel{fig_storyBoard3}{{8}{61}{\textit {Storyboard} - parte III}{figure.5.8}{}}
\@writefile{lof}{\contentsline {figure}{\numberline {9}{\ignorespaces \textit  {Storyboard} - parte IV}}{61}{figure.5.9}}
\newlabel{fig_storyBoard4}{{9}{61}{\textit {Storyboard} - parte IV}{figure.5.9}{}}
\@writefile{toc}{\contentsline {subsection}{\numberline {5.1.3}Modelo de Caso de Uso}{61}{subsection.5.1.3}}
\BKM@entry{id=53,dest={73656374696F6E2E352E32},srcline={97}}{50726F6A65746F}
\BKM@entry{id=54,dest={73756273656374696F6E2E352E322E31},srcline={103}}{4469616772616D61206465204172717569746574757261}
\@writefile{lof}{\contentsline {figure}{\numberline {10}{\ignorespaces Diagrama de caso de uso.}}{62}{figure.5.10}}
\newlabel{fig_casoDeUso}{{10}{62}{Diagrama de caso de uso}{figure.5.10}{}}
\acro@used@once{crud}{62}{62}{64}
\@@wrindexm@m{monografia}{crud@{CRUD}|hyperpage}{62}
\@writefile{toc}{\contentsline {section}{\numberline {5.2}Projeto}{62}{section.5.2}}
\newlabel{sectionProjeto}{{5.2}{62}{Projeto}{section.5.2}{}}
\BKM@entry{id=55,dest={73756273656374696F6E2E352E322E32},srcline={118}}{4469616772616D6120646520436C6173736573}
\@writefile{toc}{\contentsline {subsection}{\numberline {5.2.1}Diagrama de Arquitetura}{63}{subsection.5.2.1}}
\acro@used@once{dao}{63}{63}{65}
\@@wrindexm@m{monografia}{dao@{DAO}|hyperpage}{63}
\acro@used@once{mvc}{63}{63}{65}
\@@wrindexm@m{monografia}{mvc@{MVC}|hyperpage}{63}
\@writefile{lof}{\contentsline {figure}{\numberline {11}{\ignorespaces Arquitetura utilizada.}}{63}{figure.5.11}}
\newlabel{fig_arquitetura}{{11}{63}{Arquitetura utilizada}{figure.5.11}{}}
\acro@used@twice{dao}{63}{63}{65}
\@@wrindexm@m{monografia}{dao@{DAO}|hyperpage}{63}
\@writefile{toc}{\contentsline {subsection}{\numberline {5.2.2}Diagrama de Classes}{63}{subsection.5.2.2}}
\@writefile{lof}{\contentsline {figure}{\numberline {12}{\ignorespaces Modelo de classes - parte 1.}}{64}{figure.5.12}}
\newlabel{fig_diagramaDeClasse1}{{12}{64}{Modelo de classes - parte 1}{figure.5.12}{}}
\@writefile{lof}{\contentsline {figure}{\numberline {13}{\ignorespaces Modelo de classes - parte 2.}}{64}{figure.5.13}}
\newlabel{fig_diagramaDeClasse2}{{13}{64}{Modelo de classes - parte 2}{figure.5.13}{}}
\BKM@entry{id=56,dest={73756273656374696F6E2E352E322E33},srcline={142}}{4469616772616D6120646520536571755C3335326E636961}
\@writefile{toc}{\contentsline {subsection}{\numberline {5.2.3}Diagrama de Sequ\IeC {\^e}ncia}{65}{subsection.5.2.3}}
\@writefile{lof}{\contentsline {figure}{\numberline {14}{\ignorespaces Modelo de sequ\IeC {\^e}ncia - parte 1.}}{65}{figure.5.14}}
\newlabel{fig_diagramaDeSeq1}{{14}{65}{Modelo de sequência - parte 1}{figure.5.14}{}}
\BKM@entry{id=57,dest={73656374696F6E2E352E33},srcline={174}}{496D706C656D656E74615C3334375C3334336F}
\BKM@entry{id=58,dest={73756273656374696F6E2E352E332E31},srcline={179}}{496E746572666163652047725C33343166696361}
\@writefile{lof}{\contentsline {figure}{\numberline {15}{\ignorespaces Modelo de sequ\IeC {\^e}ncia - parte 2.}}{66}{figure.5.15}}
\newlabel{fig_diagramaDeSeq2}{{15}{66}{Modelo de sequência - parte 2}{figure.5.15}{}}
\@writefile{toc}{\contentsline {section}{\numberline {5.3}Implementa\IeC {\c c}\IeC {\~a}o}{66}{section.5.3}}
\newlabel{sectionImplementacao}{{5.3}{66}{Implementação}{section.5.3}{}}
\@writefile{toc}{\contentsline {subsection}{\numberline {5.3.1}Interface Gr\IeC {\'a}fica}{66}{subsection.5.3.1}}
\BKM@entry{id=59,dest={73756273656374696F6E2E352E332E32},srcline={210}}{50726F63657373616D656E746F20646520457870726573735C3336356573}
\@writefile{lof}{\contentsline {figure}{\numberline {16}{\ignorespaces Interface gr\IeC {\'a}fica - tela principal}}{67}{figure.5.16}}
\newlabel{fig_implementacaoTelaInicial}{{16}{67}{Interface gráfica - tela principal}{figure.5.16}{}}
\@writefile{toc}{\contentsline {subsection}{\numberline {5.3.2}Processamento de Express\IeC {\~o}es}{67}{subsection.5.3.2}}
\BKM@entry{id=60,dest={73756273656374696F6E2E352E332E33},srcline={228}}{506572736973745C3335326E636961}
\BKM@entry{id=61,dest={73656374696F6E2E352E34},srcline={241}}{546573746573}
\@writefile{lof}{\contentsline {figure}{\numberline {17}{\ignorespaces Diagrama de atividades - Processador de Linguagem}}{68}{figure.5.17}}
\newlabel{fig_diagramaDeAtividadesProcessadorDeLinguagem}{{17}{68}{Diagrama de atividades - Processador de Linguagem}{figure.5.17}{}}
\@writefile{toc}{\contentsline {subsection}{\numberline {5.3.3}Persist\IeC {\^e}ncia}{68}{subsection.5.3.3}}
\acro@used@twice{xml}{68}{68}{70}
\@@wrindexm@m{monografia}{xml@{XML}|hyperpage}{68}
\@writefile{toc}{\contentsline {section}{\numberline {5.4}Testes}{68}{section.5.4}}
\newlabel{sectionTestes}{{5.4}{68}{Testes}{section.5.4}{}}
\BKM@entry{id=62,dest={73756273656374696F6E2E352E342E31},srcline={247}}{506172746963696F6E616D656E746F20706F72204571756976616C5C3335326E636961}
\BKM@entry{id=63,dest={73756273656374696F6E2E352E342E32},srcline={287}}{416E5C3334316C69736520646520436F62657274757261}
\@writefile{lof}{\contentsline {figure}{\numberline {18}{\ignorespaces Persist\IeC {\^e}ncia do \textit  {plugin} - hierarquia de arquivos~\ac {xml}.}}{69}{figure.5.18}}
\acro@used@twice{xml}{69}{69}{71}
\@@wrindexm@m{monografia}{xml@{XML}|hyperpage}{69}
\newlabel{fig_persistenciaXML}{{18}{69}{Persistência do \textit {plugin} - hierarquia de arquivos~\ac {xml}}{figure.5.18}{}}
\@writefile{toc}{\contentsline {subsection}{\numberline {5.4.1}Particionamento por Equival\IeC {\^e}ncia}{69}{subsection.5.4.1}}
\@writefile{toc}{\contentsline {subsection}{\numberline {5.4.2}An\IeC {\'a}lise de Cobertura}{69}{subsection.5.4.2}}
\BKM@entry{id=64,dest={73656374696F6E2E352E35},srcline={310}}{436F6E7369646572615C3334375C333635657320646F204361705C33353574756C6F}
\@writefile{lot}{\contentsline {table}{\numberline {4}{\ignorespaces Particionamento por equival\IeC {\^e}ncia.}}{70}{table.5.4}}
\newlabel{fig_particionamentoPorEquivalencia}{{4}{70}{Particionamento por equivalência}{table.5.4}{}}
\@writefile{lot}{\contentsline {table}{\numberline {5}{\ignorespaces Cobertura dos Testes}}{70}{table.5.5}}
\newlabel{tab:coberturaDosTestes}{{5}{70}{Cobertura dos Testes}{table.5.5}{}}
\@writefile{toc}{\contentsline {section}{\numberline {5.5}Considera\IeC {\c c}\IeC {\~o}es do Cap\IeC {\'\i }tulo}{70}{section.5.5}}
\acro@used@twice{sa}{70}{70}{72}
\@@wrindexm@m{monografia}{sa@{SA}|hyperpage}{70}
\BKM@entry{id=65,dest={636861707465722E36},srcline={1}}{4578706572696D656E746F20656D20416D6269656E746520436F6E74726F6C61646F}
\BKM@entry{id=66,dest={73656374696F6E2E362E31},srcline={8}}{50726F746F636F6C6F}
\@writefile{toc}{\setlength  {\cftchapterindent }{0em} \setlength  {\cftchapternumwidth }{\cftlastnumwidth }}
\@writefile{toc}{\contentsline {chapter}{\chapternumberline {6}\MakeTextUppercase  {Experimento em Ambiente Controlado}}{73}{chapter.6}}
\newlabel{conclusao}{{6}{73}{Experimento em Ambiente Controlado}{chapter.6}{}}
\@writefile{toc}{\contentsline {section}{\numberline {6.1}Protocolo}{73}{section.6.1}}
\newlabel{sectionProtocolo}{{6.1}{73}{Protocolo}{section.6.1}{}}
\@writefile{lof}{\contentsline {figure}{\numberline {19}{\ignorespaces Protocolo executado no experimento}}{73}{figure.6.19}}
\newlabel{fig_protocoloTeste}{{19}{73}{Protocolo executado no experimento}{figure.6.19}{}}
\BKM@entry{id=67,dest={73656374696F6E2E362E32},srcline={23}}{526573756C7461646F73204F627469646F73}
\@writefile{toc}{\contentsline {section}{\numberline {6.2}Resultados Obtidos}{74}{section.6.2}}
\newlabel{sectionAnaliseDeResultados}{{6.2}{74}{Resultados Obtidos}{section.6.2}{}}
\acro@used@twice{sa}{74}{74}{76}
\@@wrindexm@m{monografia}{sa@{SA}|hyperpage}{74}
\BKM@entry{id=68,dest={73656374696F6E2E362E33},srcline={77}}{436F6E7369646572615C3334375C333635657320646F204361705C33353574756C6F}
\@writefile{lot}{\contentsline {table}{\numberline {6}{\ignorespaces Tabela de resultados obtidos no experimento (Notas de 1 a 5).}}{75}{table.6.6}}
\newlabel{fig_experimento}{{6}{75}{Tabela de resultados obtidos no experimento (Notas de 1 a 5)}{table.6.6}{}}
\@writefile{toc}{\contentsline {section}{\numberline {6.3}Considera\IeC {\c c}\IeC {\~o}es do Cap\IeC {\'\i }tulo}{75}{section.6.3}}
\BKM@entry{id=69,dest={636861707465722E37},srcline={2}}{436F6E636C75735C3336356573}
\citation{whittle2010relax}
\citation{whittle2010relax}
\BKM@entry{id=70,dest={73656374696F6E2E372E31},srcline={21}}{54726162616C686F732046757475726F73}
\@writefile{toc}{\setlength  {\cftchapterindent }{0em} \setlength  {\cftchapternumwidth }{\cftlastnumwidth }}
\@writefile{toc}{\contentsline {chapter}{\chapternumberline {7}\MakeTextUppercase  {Conclus\IeC {\~o}es}}{77}{chapter.7}}
\newlabel{conclusao}{{7}{77}{Conclusões}{chapter.7}{}}
\acro@used@twice{ide}{77}{77}{79}
\@@wrindexm@m{monografia}{ide@{IDE}|hyperpage}{77}
\@writefile{brf}{\backcite{whittle2010relax}{{77}{7}{chapter.7}}}
\acro@used@twice{ide}{77}{77}{79}
\@@wrindexm@m{monografia}{ide@{IDE}|hyperpage}{77}
\acro@used@twice{er}{77}{77}{79}
\@@wrindexm@m{monografia}{er@{ER}|hyperpage}{77}
\acro@used@twice{sa}{77}{77}{79}
\@@wrindexm@m{monografia}{sa@{SA}|hyperpage}{77}
\@writefile{brf}{\backcite{whittle2010relax}{{77}{7}{chapter.7}}}
\acro@used@twice{sa}{77}{77}{79}
\@@wrindexm@m{monografia}{sa@{SA}|hyperpage}{77}
\@writefile{toc}{\contentsline {section}{\numberline {7.1}Trabalhos Futuros}{77}{section.7.1}}
\bibdata{abntex2-options,bibliografia,abntex2-modelo-references}
\@writefile{toc}{\vspace  {\cftbeforechapterskip }}
\BKM@entry{id=71,dest={73656374696F6E2A2E39},srcline={3}}{52656665725C3335326E63696173}
\bibcite{aho2008compiladores}{AHO, Sethi e Lam 2008}
\bibciteEXPL{aho2008compiladores}{AHO, Sethi e Lam}
\bibciteIMPL{aho2008compiladores}{AHO; SETHI; LAM}
\bibciteYEAR{aho2008compiladores}{2008}
\bibcite{ali2010reasoning}{Ali, Dalpiaz e Giorgini 2010}
\bibciteEXPL{ali2010reasoning}{Ali, Dalpiaz e Giorgini}
\bibciteIMPL{ali2010reasoning}{ALI; DALPIAZ; GIORGINI}
\bibciteYEAR{ali2010reasoning}{2010}
\bibcite{ali2013reasoning}{Ali, Dalpiaz e Giorgini 2013}
\bibciteEXPL{ali2013reasoning}{Ali, Dalpiaz e Giorgini}
\bibciteIMPL{ali2013reasoning}{ALI; DALPIAZ; GIORGINI}
\bibciteYEAR{ali2013reasoning}{2013}
\bibcite{ali2014requirements}{Ali, Dalpiaz e Giorgini 2014}
\bibciteEXPL{ali2014requirements}{Ali, Dalpiaz e Giorgini}
\bibciteIMPL{ali2014requirements}{ALI; DALPIAZ; GIORGINI}
\bibciteYEAR{ali2014requirements}{2014}
\bibcite{andre2010architectures}{Andr{\'e} et al. 2010}
\bibciteEXPL{andre2010architectures}{Andr{\'e} et al.}
\bibciteIMPL{andre2010architectures}{ANDR{\'E} et al.}
\bibciteYEAR{andre2010architectures}{2010}
\bibcite{azevedointegrative}{Azevedo et al. 2011}
\bibciteEXPL{azevedointegrative}{Azevedo et al.}
\bibciteIMPL{azevedointegrative}{AZEVEDO et al.}
\bibciteYEAR{azevedointegrative}{2011}
\bibcite{apostilaEclipseI}{Balsiger 2010}
\bibciteEXPL{apostilaEclipseI}{Balsiger}
\bibciteIMPL{apostilaEclipseI}{BALSIGER}
\bibciteYEAR{apostilaEclipseI}{2010}
\bibcite{beckers2013structured}{Beckers et al. 2013}
\bibciteEXPL{beckers2013structured}{Beckers et al.}
\bibciteIMPL{beckers2013structured}{BECKERS et al.}
\bibciteYEAR{beckers2013structured}{2013}
\bibcite{bencomo2012self}{Bencomo et al. 2012}
\bibciteEXPL{bencomo2012self}{Bencomo et al.}
\bibciteIMPL{bencomo2012self}{BENCOMO et al.}
\bibciteYEAR{bencomo2012self}{2012}
\bibcite{bencomo2010requirements}{Bencomo et al. 2010}
\bibciteEXPL{bencomo2010requirements}{Bencomo et al.}
\bibciteIMPL{bencomo2010requirements}{BENCOMO et al.}
\bibciteYEAR{bencomo2010requirements}{2010}
\bibcite{bilobrovec2004implementaccao}{Bilobrovec e Kovaleski 2004}
\bibciteEXPL{bilobrovec2004implementaccao}{Bilobrovec e Kovaleski}
\bibciteIMPL{bilobrovec2004implementaccao}{BILOBROVEC; KOVALESKI}
\bibciteYEAR{bilobrovec2004implementaccao}{2004}
\bibcite{brun2009engineering}{Brun et al. 2009}
\bibciteEXPL{brun2009engineering}{Brun et al.}
\bibciteIMPL{brun2009engineering}{BRUN et al.}
\bibciteYEAR{brun2009engineering}{2009}
\bibcite{butlersecure}{Butler e TSSG 2011}
\bibciteEXPL{butlersecure}{Butler e TSSG}
\bibciteIMPL{butlersecure}{BUTLER; TSSG}
\bibciteYEAR{butlersecure}{2011}
\bibcite{cheng2009software}{Cheng et al. 2009}
\bibciteEXPL{cheng2009software}{Cheng et al.}
\bibciteIMPL{cheng2009software}{CHENG et al.}
\bibciteYEAR{cheng2009software}{2009}
\@writefile{toc}{\setlength  {\cftchapterindent }{\cftlastnumwidth } \setlength  {\cftchapternumwidth }{2em}}
\@writefile{toc}{\contentsline {chapter}{\uppercase {Refer\^encias}}{79}{section*.9}}
\bibcite{daramolaSindreStalhane2012}{Daramola e Stalhane 2012}
\bibciteEXPL{daramolaSindreStalhane2012}{Daramola e Stalhane}
\bibciteIMPL{daramolaSindreStalhane2012}{DARAMOLA; STALHANE}
\bibciteYEAR{daramolaSindreStalhane2012}{2012}
\bibcite{daramolaSatalhaneSindreOmoronia2011}{Daramola Tor~Stalhane e Omoronyia 2011}
\bibciteEXPL{daramolaSatalhaneSindreOmoronia2011}{Daramola Tor~Stalhane e Omoronyia}
\bibciteIMPL{daramolaSatalhaneSindreOmoronia2011}{DARAMOLA TOR~STALHANE; OMORONYIA}
\bibciteYEAR{daramolaSatalhaneSindreOmoronia2011}{2011}
\bibcite{deitel2010java}{Deitel 2010}
\bibciteEXPL{deitel2010java}{Deitel}
\bibciteIMPL{deitel2010java}{DEITEL}
\bibciteYEAR{deitel2010java}{2010}
\bibcite{desrivieres2004eclipse}{desRivieres e Wiegand 2004}
\bibciteEXPL{desrivieres2004eclipse}{desRivieres e Wiegand}
\bibciteIMPL{desrivieres2004eclipse}{DESRIVIERES; WIEGAND}
\bibciteYEAR{desrivieres2004eclipse}{2004}
\bibcite{ecliseDocumentationLuna}{Eclipse Foundation 2014}
\bibciteEXPL{ecliseDocumentationLuna}{Eclipse Foundation}
\bibciteIMPL{ecliseDocumentationLuna}{ECLIPSE FOUNDATION}
\bibciteYEAR{ecliseDocumentationLuna}{2014}
\bibcite{fredericks2014autorelax}{Fredericks, DeVries e Cheng 2014}
\bibciteEXPL{fredericks2014autorelax}{Fredericks, DeVries e Cheng}
\bibciteIMPL{fredericks2014autorelax}{FREDERICKS; DEVRIES; CHENG}
\bibciteYEAR{fredericks2014autorelax}{2014}
\bibcite{herczeg2010smart}{Herczeg 2010}
\bibciteEXPL{herczeg2010smart}{Herczeg}
\bibciteIMPL{herczeg2010smart}{HERCZEG}
\bibciteYEAR{herczeg2010smart}{2010}
\bibcite{manualcupparausuario}{Hudson 1999}
\bibciteEXPL{manualcupparausuario}{Hudson}
\bibciteIMPL{manualcupparausuario}{HUDSON}
\bibciteYEAR{manualcupparausuario}{1999}
\bibcite{huebscher2008survey}{Huebscher e McCann 2008}
\bibciteEXPL{huebscher2008survey}{Huebscher e McCann}
\bibciteIMPL{huebscher2008survey}{HUEBSCHER; MCCANN}
\bibciteYEAR{huebscher2008survey}{2008}
\bibcite{hussein2013scenario}{Hussein et al. 2013}
\bibciteEXPL{hussein2013scenario}{Hussein et al.}
\bibciteIMPL{hussein2013scenario}{HUSSEIN et al.}
\bibciteYEAR{hussein2013scenario}{2013}
\bibcite{ito2011support}{Ito et al. 2011}
\bibciteEXPL{ito2011support}{Ito et al.}
\bibciteIMPL{ito2011support}{ITO et al.}
\bibciteYEAR{ito2011support}{2011}
\bibcite{saltzer2009principles}{Jerome e Kaashoek 2009}
\bibciteEXPL{saltzer2009principles}{Jerome e Kaashoek}
\bibciteIMPL{saltzer2009principles}{JEROME; KAASHOEK}
\bibciteYEAR{saltzer2009principles}{2009}
\bibcite{daengenharia}{Junior 2013}
\bibciteEXPL{daengenharia}{Junior}
\bibciteIMPL{daengenharia}{JUNIOR}
\bibciteYEAR{daengenharia}{2013}
\bibcite{manualjflexparausuario}{Klein e D\IeC {\'e}camps 2015}
\bibciteEXPL{manualjflexparausuario}{Klein e D\IeC {\'e}camps}
\bibciteIMPL{manualjflexparausuario}{KLEIN; D\IeC {\'e}CAMPS}
\bibciteYEAR{manualjflexparausuario}{2015}
\bibcite{zarinah2009supporting}{MK e S 2009}
\bibciteEXPL{zarinah2009supporting}{MK e S}
\bibciteIMPL{zarinah2009supporting}{MK; S}
\bibciteYEAR{zarinah2009supporting}{2009}
\bibcite{aanalise}{Moraes 2009}
\bibciteEXPL{aanalise}{Moraes}
\bibciteIMPL{aanalise}{MORAES}
\bibciteYEAR{aanalise}{2009}
\bibcite{pfleeger2004software}{Pfleeger e Atlee 2004}
\bibciteEXPL{pfleeger2004software}{Pfleeger e Atlee}
\bibciteIMPL{pfleeger2004software}{PFLEEGER; ATLEE}
\bibciteYEAR{pfleeger2004software}{2004}
\bibcite{pfleeger2010software}{Pfleeger e Atlee 2010}
\bibciteEXPL{pfleeger2010software}{Pfleeger e Atlee}
\bibciteIMPL{pfleeger2010software}{PFLEEGER; ATLEE}
\bibciteYEAR{pfleeger2010software}{2010}
\bibcite{abordagensDeEngDeReqComAuto}{Pimentel 2008}
\bibciteEXPL{abordagensDeEngDeReqComAuto}{Pimentel}
\bibciteIMPL{abordagensDeEngDeReqComAuto}{PIMENTEL}
\bibciteYEAR{abordagensDeEngDeReqComAuto}{2008}
\bibcite{pressman2011engenharia}{Pressman 2011}
\bibciteEXPL{pressman2011engenharia}{Pressman}
\bibciteIMPL{pressman2011engenharia}{PRESSMAN}
\bibciteYEAR{pressman2011engenharia}{2011}
\bibcite{qureshi2009engineering}{Qureshi e Perini 2009}
\bibciteEXPL{qureshi2009engineering}{Qureshi e Perini}
\bibciteIMPL{qureshi2009engineering}{QURESHI; PERINI}
\bibciteYEAR{qureshi2009engineering}{2009}
\bibcite{qureshi2010continuous}{Qureshi e Perini 2010}
\bibciteEXPL{qureshi2010continuous}{Qureshi e Perini}
\bibciteIMPL{qureshi2010continuous}{QURESHI; PERINI}
\bibciteYEAR{qureshi2010continuous}{2010a}
\bibcite{qureshi2010requirements}{Qureshi e Perini 2010}
\bibciteEXPL{qureshi2010requirements}{Qureshi e Perini}
\bibciteIMPL{qureshi2010requirements}{QURESHI; PERINI}
\bibciteYEAR{qureshi2010requirements}{2010b}
\bibcite{sawyer2010requirements}{Sawyer et al. 2010}
\bibciteEXPL{sawyer2010requirements}{Sawyer et al.}
\bibciteIMPL{sawyer2010requirements}{SAWYER et al.}
\bibciteYEAR{sawyer2010requirements}{2010}
\bibcite{sommervilleengenharia}{Sommerville 2011}
\bibciteEXPL{sommervilleengenharia}{Sommerville}
\bibciteIMPL{sommervilleengenharia}{SOMMERVILLE}
\bibciteYEAR{sommervilleengenharia}{2011}
\bibcite{adaptiveDynamicAndResilientSystem}{Suri e Cabri 2014}
\bibciteEXPL{adaptiveDynamicAndResilientSystem}{Suri e Cabri}
\bibciteIMPL{adaptiveDynamicAndResilientSystem}{SURI; CABRI}
\bibciteYEAR{adaptiveDynamicAndResilientSystem}{2014}
\bibcite{umoh2011refinto}{Umoh, Sampaio e Theodoulidis 2011}
\bibciteEXPL{umoh2011refinto}{Umoh, Sampaio e Theodoulidis}
\bibciteIMPL{umoh2011refinto}{UMOH; SAMPAIO; THEODOULIDIS}
\bibciteYEAR{umoh2011refinto}{2011}
\bibcite{varelaAraujoBritoMoreira2011}{Varela Jo\IeC {\~a}o~Ara\IeC {\'u}jo 2011}
\bibciteEXPL{varelaAraujoBritoMoreira2011}{Varela Jo\IeC {\~a}o~Ara\IeC {\'u}jo}
\bibciteIMPL{varelaAraujoBritoMoreira2011}{VARELA JO\IeC {\~a}O~ARA\IeC {\'u}JO}
\bibciteYEAR{varelaAraujoBritoMoreira2011}{2011}
\bibcite{wazlawick2004analise}{Wazlawick 2004}
\bibciteEXPL{wazlawick2004analise}{Wazlawick}
\bibciteIMPL{wazlawick2004analise}{WAZLAWICK}
\bibciteYEAR{wazlawick2004analise}{2004}
\bibcite{welsh2010understanding}{Welsh e Sawyer 2010}
\bibciteEXPL{welsh2010understanding}{Welsh e Sawyer}
\bibciteIMPL{welsh2010understanding}{WELSH; SAWYER}
\bibciteYEAR{welsh2010understanding}{2010}
\bibcite{whittle2010relax}{Whittle et al. 2010}
\bibciteEXPL{whittle2010relax}{Whittle et al.}
\bibciteIMPL{whittle2010relax}{WHITTLE et al.}
\bibciteYEAR{whittle2010relax}{2010}
\@switch{AP\^ENDICE} 
\@writefile{toc}{\setlength  {\cftpartindent }{\cftlastnumwidth } \setlength  {\cftpartnumwidth }{2em}}
\@writefile{toc}{\cftinsert {A}}
\BKM@entry{id=72,dest={73656374696F6E2A2E3130},srcline={5}}{41705C3335326E6469636573}
\@writefile{toc}{\contentsline {part}{\uppercase {Ap\^endices}}{83}{section*.10}}
\BKM@entry{id=73,dest={617070656E6469782E41},srcline={6}}{457370656369666963615C3334375C3334336F204A466C6578}
\@writefile{toc}{\setlength  {\cftchapterindent }{0em} \setlength  {\cftchapternumwidth }{\cftlastnumwidth }}
\@writefile{toc}{\setlength  {\cftchapterindent }{\cftlastnumwidth } \setlength  {\cftchapternumwidth }{2em}}
\@writefile{toc}{\cftinsert {A}}
\@writefile{toc}{\contentsline {appendix}{\chapternumberline {A}\MakeTextUppercase  {Especifica\IeC {\c c}\IeC {\~a}o JFlex}}{85}{appendix.A}}
\newlabel{especificacaoJFlex:apendice}{{A}{85}{Especificação JFlex}{appendix.A}{}}
\BKM@entry{id=74,dest={617070656E6469782E42},srcline={67}}{457370656369666963615C3334375C3334336F20435550}
\@writefile{toc}{\setlength  {\cftchapterindent }{0em} \setlength  {\cftchapternumwidth }{\cftlastnumwidth }}
\@writefile{toc}{\setlength  {\cftchapterindent }{\cftlastnumwidth } \setlength  {\cftchapternumwidth }{2em}}
\@writefile{toc}{\cftinsert {A}}
\@writefile{toc}{\contentsline {appendix}{\chapternumberline {B}\MakeTextUppercase  {Especifica\IeC {\c c}\IeC {\~a}o CUP}}{87}{appendix.B}}
\newlabel{especificacaoCUP:apendice}{{B}{87}{Especificação CUP}{appendix.B}{}}
\BKM@entry{id=75,dest={617070656E6469782E43},srcline={151}}{546162656C612064652052657175697369746F73205574696C697A616461206E6F2050726F746F636F6C6F202D204578706572696D656E746F2064612046657272616D656E7461}
\@writefile{toc}{\setlength  {\cftchapterindent }{0em} \setlength  {\cftchapternumwidth }{\cftlastnumwidth }}
\@writefile{toc}{\setlength  {\cftchapterindent }{\cftlastnumwidth } \setlength  {\cftchapternumwidth }{2em}}
\@writefile{toc}{\cftinsert {A}}
\@writefile{toc}{\contentsline {appendix}{\chapternumberline {C}\MakeTextUppercase  {Tabela de Requisitos Utilizada no Protocolo - Experimento da Ferramenta}}{89}{appendix.C}}
\newlabel{tabelaDeRequisitos:ProtocoloExperimentoFerramenta}{{C}{89}{Tabela de Requisitos Utilizada no Protocolo - Experimento da Ferramenta}{appendix.C}{}}
\@writefile{lot}{\contentsline {table}{\numberline {7}{\ignorespaces Requisitos da Especifica\IeC {\c c}\IeC {\~a}o Utilizada no Protocolo}}{90}{table.C.7}}
\newlabel{tab:requisitosExperimento}{{7}{90}{Requisitos da Especificação Utilizada no Protocolo}{table.C.7}{}}
\BKM@entry{id=76,dest={617070656E6469782E44},srcline={175}}{446F63756D656E74615C3334375C3334336F206465204361736F2064652055736F}
\@writefile{toc}{\setlength  {\cftchapterindent }{0em} \setlength  {\cftchapternumwidth }{\cftlastnumwidth }}
\@writefile{toc}{\setlength  {\cftchapterindent }{\cftlastnumwidth } \setlength  {\cftchapternumwidth }{2em}}
\@writefile{toc}{\cftinsert {A}}
\@writefile{toc}{\contentsline {appendix}{\chapternumberline {D}\MakeTextUppercase  {Documenta\IeC {\c c}\IeC {\~a}o de Caso de Uso}}{91}{appendix.D}}
\newlabel{docCasoDeUso:anexo}{{D}{91}{Documentação de Caso de Uso}{appendix.D}{}}
\@writefile{lot}{\contentsline {table}{\numberline {8}{\ignorespaces Requisitos N\IeC {\~a}o Funcionais}}{91}{table.D.8}}
\newlabel{tab:reqNf}{{8}{91}{Requisitos Não Funcionais}{table.D.8}{}}
\@writefile{lot}{\contentsline {table}{\numberline {9}{\ignorespaces CDU1: Criar Especifica\IeC {\c c}\IeC {\~a}o}}{91}{table.D.9}}
\newlabel{tab:cdu1}{{9}{91}{CDU1: Criar Especificação}{table.D.9}{}}
\acro@used@twice{ide}{91}{91}{93}
\@@wrindexm@m{monografia}{ide@{IDE}|hyperpage}{91}
\@writefile{lot}{\contentsline {table}{\numberline {10}{\ignorespaces CDU2: Abrir Especifica\IeC {\c c}\IeC {\~a}o}}{91}{table.D.10}}
\newlabel{tab:cdu1}{{10}{91}{CDU2: Abrir Especificação}{table.D.10}{}}
\acro@used@twice{ide}{91}{91}{93}
\@@wrindexm@m{monografia}{ide@{IDE}|hyperpage}{91}
\@writefile{lot}{\contentsline {table}{\numberline {11}{\ignorespaces CDU3: Remover Especifica\IeC {\c c}\IeC {\~a}o}}{92}{table.D.11}}
\newlabel{tab:cdu1}{{11}{92}{CDU3: Remover Especificação}{table.D.11}{}}
\acro@used@twice{ide}{92}{92}{94}
\@@wrindexm@m{monografia}{ide@{IDE}|hyperpage}{92}
\@writefile{lot}{\contentsline {table}{\numberline {12}{\ignorespaces CDU4: Escrever Requisitos em Linguagem Relax}}{92}{table.D.12}}
\newlabel{tab:cdu1}{{12}{92}{CDU4: Escrever Requisitos em Linguagem Relax}{table.D.12}{}}
\acro@used@twice{ide}{92}{92}{94}
\@@wrindexm@m{monografia}{ide@{IDE}|hyperpage}{92}
\@writefile{lot}{\contentsline {table}{\numberline {13}{\ignorespaces CDU5: Converter para Modelo Sem\IeC {\^a}ntico}}{93}{table.D.13}}
\newlabel{tab:cdu4}{{13}{93}{CDU5: Converter para Modelo Semântico}{table.D.13}{}}
\acro@used@twice{ide}{93}{93}{95}
\@@wrindexm@m{monografia}{ide@{IDE}|hyperpage}{93}
\@writefile{lot}{\contentsline {table}{\numberline {14}{\ignorespaces CDU6: Remover Requisito}}{93}{table.D.14}}
\newlabel{tab:cdu1}{{14}{93}{CDU6: Remover Requisito}{table.D.14}{}}
\acro@used@twice{ide}{93}{93}{95}
\@@wrindexm@m{monografia}{ide@{IDE}|hyperpage}{93}
\BKM@entry{id=77,dest={617070656E6469782E45},srcline={352}}{5175657374696F6E5C33343172696F205574696C697A61646F206E6F204578706572696D656E746F}
\@writefile{toc}{\setlength  {\cftchapterindent }{0em} \setlength  {\cftchapternumwidth }{\cftlastnumwidth }}
\@writefile{toc}{\contentsline {chapter}{\chapternumberline {E}\MakeTextUppercase  {Question\IeC {\'a}rio Utilizado no Experimento}}{95}{appendix.E}}
\newlabel{questionario:experimento}{{E}{95}{Questionário Utilizado no Experimento}{appendix.E}{}}
\newlabel{LastPage}{{}{96}{}{page.96}{}}
\xdef\lastpage@lastpage{96}
\xdef\lastpage@lastpageHy{96}
\bibstyle{abntex2-alf}
\memsetcounter{lastsheet}{98}
\memsetcounter{lastpage}{96}
