This is BibTeX, Version 0.99d (TeX Live 2015/dev/Debian)
Capacity: max_strings=35307, hash_size=35307, hash_prime=30011
The top-level auxiliary file: monografia.aux
The style file: abntex2-alf.bst
Reallocated singl_function (elt_size=4) to 100 items from 50.
Reallocated singl_function (elt_size=4) to 100 items from 50.
Reallocated singl_function (elt_size=4) to 100 items from 50.
Reallocated singl_function (elt_size=4) to 100 items from 50.
Reallocated wiz_functions (elt_size=4) to 6000 items from 3000.
Reallocated singl_function (elt_size=4) to 100 items from 50.
Reallocated singl_function (elt_size=4) to 100 items from 50.
Reallocated singl_function (elt_size=4) to 100 items from 50.
Reallocated wiz_functions (elt_size=4) to 9000 items from 6000.
Database file #1: abntex2-options.bib
Database file #2: bibliografia.bib
Database file #3: abntex2-modelo-references.bib
Reallocated singl_function (elt_size=4) to 100 items from 50.
Reallocated glb_str_ptr (elt_size=4) to 20 items from 10.
Reallocated global_strs (elt_size=20001) to 20 items from 10.
Reallocated glb_str_end (elt_size=4) to 20 items from 10.
+---------------------------------------------------------+
| Estilo bibliográfico abntex2-alf.bst versão v-1.9.2           |
| Em caso de dúvidas ou problemas com este estilo procure |
| http://abntex2.googlecode.com                           |
+---------------------------------------------------------+
You've used 46 entries,
            6711 wiz_defined-function locations,
            1420 strings with 17441 characters,
and the built_in function-call counts, 44289 in all, are:
= -- 3959
> -- 1441
< -- 367
+ -- 911
- -- 437
* -- 3096
:= -- 5769
add.period$ -- 185
call.type$ -- 46
change.case$ -- 505
chr.to.int$ -- 66
cite$ -- 45
duplicate$ -- 2754
empty$ -- 2947
format.name$ -- 2096
if$ -- 10134
int.to.chr$ -- 1
int.to.str$ -- 0
missing$ -- 819
newline$ -- 213
num.names$ -- 220
pop$ -- 1149
preamble$ -- 1
purify$ -- 188
quote$ -- 0
skip$ -- 2961
stack$ -- 1
substring$ -- 1739
swap$ -- 1142
text.length$ -- 44
text.prefix$ -- 0
top$ -- 0
type$ -- 4
warning$ -- 0
while$ -- 339
width$ -- 0
write$ -- 710
