\relax 
\providecommand\hyper@newdestlabel[2]{}
\providecommand\BKM@entry[2]{}
\providecommand\zref@newlabel[2]{}
\providecommand*{\memsetcounter}[2]{}
\providecommand\HyperFirstAtBeginDocument{\AtBeginDocument}
\HyperFirstAtBeginDocument{\ifx\hyper@anchor\@undefined
\global\let\oldcontentsline\contentsline
\gdef\contentsline#1#2#3#4{\oldcontentsline{#1}{#2}{#3}}
\global\let\oldnewlabel\newlabel
\gdef\newlabel#1#2{\newlabelxx{#1}#2}
\gdef\newlabelxx#1#2#3#4#5#6{\oldnewlabel{#1}{{#2}{#3}}}
\AtEndDocument{\ifx\hyper@anchor\@undefined
\let\contentsline\oldcontentsline
\let\newlabel\oldnewlabel
\fi}
\fi}
\global\let\hyper@last\relax 
\gdef\HyperFirstAtBeginDocument#1{#1}
\providecommand\HyField@AuxAddToFields[1]{}
\providecommand\HyField@AuxAddToCoFields[2]{}
\catcode`"\active
\citation{abnt-url-package=url}
\providecommand\acro@used@once[4]{}
\providecommand\acro@used@twice[4]{}
\providecommand\acro@pages[2]{}
\providecommand\acro@rerun@check{}
\@writefile{toc}{\changetocdepth  {4}}
\select@language{brazil}
\@writefile{toc}{\select@language{brazil}}
\@writefile{lof}{\select@language{brazil}}
\@writefile{lot}{\select@language{brazil}}
\BKM@entry{id=1,dest={6368617074657262312E30},srcline={388}}{466F6C686120646520726F73746F}
\BKM@entry{id=2,dest={6368617074657262322E30},srcline={2}}{526573756D6F}
\citation{whittle2010relax}
\acro@used@once{sa}{3}{3}{5}
\@@wrindexm@m{monografia}{sa@{SA}|hyperpage}{3}
\@writefile{brf}{\backcite{whittle2010relax}{{3}{(document)}{Doc-Start}}}
\acro@used@once{uml}{3}{3}{5}
\@@wrindexm@m{monografia}{uml@{UML}|hyperpage}{3}
\acro@used@once{emf}{3}{3}{5}
\@@wrindexm@m{monografia}{emf@{EMF}|hyperpage}{3}
\BKM@entry{id=3,dest={6368617074657262332E30},srcline={1}}{4162737472616374}
\citation{whittle2010relax}
\acro@used@twice{sa}{5}{5}{7}
\@@wrindexm@m{monografia}{sa@{SA}|hyperpage}{5}
\@writefile{brf}{\backcite{whittle2010relax}{{5}{(document)}{Doc-Start}}}
\acro@used@twice{uml}{5}{5}{7}
\@@wrindexm@m{monografia}{uml@{UML}|hyperpage}{5}
\acro@used@twice{emf}{5}{5}{7}
\@@wrindexm@m{monografia}{emf@{EMF}|hyperpage}{5}
\BKM@entry{id=4,dest={6C6F662E30},srcline={427}}{4C6973746120646520696C75737472615C3334375C3336356573}
\citation{introplateclipse}
\citation{budinsky2004eclipse}
\@writefile{toc}{\setlength  {\cftchapterindent }{\cftlastnumwidth } \setlength  {\cftchapternumwidth }{2em}}
\@writefile{brf}{\backcite{introplateclipse}{{7}{(document)}{Doc-Start}}}
\@writefile{brf}{\backcite{budinsky2004eclipse}{{7}{(document)}{Doc-Start}}}
\acro@used@once{mvc}{7}{7}{9}
\@@wrindexm@m{monografia}{mvc@{MVC}|hyperpage}{7}
\BKM@entry{id=5,dest={6C6F742E30},srcline={432}}{4C6973746120646520746162656C6173}
\@writefile{toc}{\setlength  {\cftchapterindent }{\cftlastnumwidth } \setlength  {\cftchapternumwidth }{2em}}
\BKM@entry{id=6,dest={6C6F612E30},srcline={444}}{4C69737461206465207369676C6173}
\acro@print@list
\@writefile{toc}{\setlength  {\cftchapterindent }{\cftlastnumwidth } \setlength  {\cftchapternumwidth }{2em}}
\BKM@entry{id=7,dest={6C6F732E30},srcline={450}}{4C6973746120646520735C3335356D626F6C6F73}
\BKM@entry{id=8,dest={746F632E30},srcline={458}}{53756D5C33343172696F}
\@writefile{toc}{\setlength  {\cftchapterindent }{\cftlastnumwidth } \setlength  {\cftchapternumwidth }{2em}}
\BKM@entry{id=9,dest={636861707465722E31},srcline={2}}{496E74726F64755C3334375C3334336F}
\citation{sommervilleengenharia}
\citation{whittle2010relax}
\@writefile{toc}{\setlength  {\cftchapterindent }{0em} \setlength  {\cftchapternumwidth }{\cftlastnumwidth }}
\@writefile{toc}{\contentsline {chapter}{\chapternumberline {1}\MakeTextUppercase  {Introdu\IeC {\c c}\IeC {\~a}o}}{15}{chapter.1}}
\newlabel{introducao}{{1}{15}{Introdução}{chapter.1}{}}
\acro@used@once{er}{15}{15}{17}
\@@wrindexm@m{monografia}{er@{ER}|hyperpage}{15}
\acro@used@twice{er}{15}{15}{17}
\@@wrindexm@m{monografia}{er@{ER}|hyperpage}{15}
\@writefile{brf}{\backcite{sommervilleengenharia}{{15}{1}{chapter.1}}}
\acro@used@twice{sa}{15}{15}{17}
\@@wrindexm@m{monografia}{sa@{SA}|hyperpage}{15}
\@writefile{brf}{\backcite{whittle2010relax}{{15}{1}{chapter.1}}}
\acro@used@twice{er}{15}{15}{17}
\@@wrindexm@m{monografia}{er@{ER}|hyperpage}{15}
\citation{daengenharia}
\BKM@entry{id=10,dest={73656374696F6E2E312E31},srcline={15}}{4D6F746976615C3334375C3334336F}
\citation{whittle2010relax}
\citation{whittle2010relax}
\acro@used@twice{sa}{16}{16}{18}
\@@wrindexm@m{monografia}{sa@{SA}|hyperpage}{16}
\acro@used@twice{er}{16}{16}{18}
\@@wrindexm@m{monografia}{er@{ER}|hyperpage}{16}
\@writefile{brf}{\backcite{daengenharia}{{16}{1}{chapter.1}}}
\acro@used@twice{sa}{16}{16}{18}
\@@wrindexm@m{monografia}{sa@{SA}|hyperpage}{16}
\@writefile{toc}{\contentsline {section}{\numberline {1.1}Motiva\IeC {\c c}\IeC {\~a}o}{16}{section.1.1}}
\@writefile{brf}{\backcite{whittle2010relax}{{16}{1.1}{section.1.1}}}
\acro@used@twice{sa}{16}{16}{18}
\@@wrindexm@m{monografia}{sa@{SA}|hyperpage}{16}
\@writefile{brf}{\backcite{whittle2010relax}{{16}{1.1}{section.1.1}}}
\acro@used@once{gore}{16}{16}{18}
\@@wrindexm@m{monografia}{gore@{GORE}|hyperpage}{16}
\acro@used@once{AR}{16}{16}{18}
\@@wrindexm@m{monografia}{AR@{AR}|hyperpage}{16}
\citation{whittle2010relax}
\BKM@entry{id=11,dest={73656374696F6E2E312E32},srcline={31}}{4F626A657469766F}
\citation{whittle2010relax}
\BKM@entry{id=12,dest={73656374696F6E2E312E33},srcline={42}}{4D65746F646F6C6F6769612064652054726162616C686F}
\acro@used@twice{sa}{17}{17}{19}
\@@wrindexm@m{monografia}{sa@{SA}|hyperpage}{17}
\@writefile{brf}{\backcite{whittle2010relax}{{17}{1.1}{section.1.1}}}
\acro@used@twice{AR}{17}{17}{19}
\@@wrindexm@m{monografia}{AR@{AR}|hyperpage}{17}
\acro@used@twice{sa}{17}{17}{19}
\@@wrindexm@m{monografia}{sa@{SA}|hyperpage}{17}
\acro@used@twice{uml}{17}{17}{19}
\@@wrindexm@m{monografia}{uml@{UML}|hyperpage}{17}
\acro@used@twice{sa}{17}{17}{19}
\@@wrindexm@m{monografia}{sa@{SA}|hyperpage}{17}
\acro@used@twice{uml}{17}{17}{19}
\@@wrindexm@m{monografia}{uml@{UML}|hyperpage}{17}
\@writefile{toc}{\contentsline {section}{\numberline {1.2}Objetivo}{17}{section.1.2}}
\acro@used@twice{AR}{17}{17}{19}
\@@wrindexm@m{monografia}{AR@{AR}|hyperpage}{17}
\acro@used@once{usm}{17}{17}{19}
\@@wrindexm@m{monografia}{usm@{US mapping}|hyperpage}{17}
\@writefile{brf}{\backcite{whittle2010relax}{{17}{1.2}{section.1.2}}}
\acro@used@twice{sa}{17}{17}{19}
\@@wrindexm@m{monografia}{sa@{SA}|hyperpage}{17}
\@writefile{toc}{\contentsline {section}{\numberline {1.3}Metodologia de Trabalho}{17}{section.1.3}}
\BKM@entry{id=13,dest={73656374696F6E2E312E34},srcline={57}}{4F7267616E697A615C3334375C3334336F20646F20446F63756D656E746F}
\acro@used@twice{er}{18}{18}{20}
\@@wrindexm@m{monografia}{er@{ER}|hyperpage}{18}
\acro@used@twice{sa}{18}{18}{20}
\@@wrindexm@m{monografia}{sa@{SA}|hyperpage}{18}
\acro@used@twice{emf}{18}{18}{20}
\@@wrindexm@m{monografia}{emf@{EMF}|hyperpage}{18}
\@writefile{toc}{\contentsline {section}{\numberline {1.4}Organiza\IeC {\c c}\IeC {\~a}o do Documento}{18}{section.1.4}}
\acro@used@twice{er}{18}{18}{20}
\@@wrindexm@m{monografia}{er@{ER}|hyperpage}{18}
\acro@used@twice{sa}{18}{18}{20}
\@@wrindexm@m{monografia}{sa@{SA}|hyperpage}{18}
\acro@used@twice{emf}{18}{18}{20}
\@@wrindexm@m{monografia}{emf@{EMF}|hyperpage}{18}
\acro@used@once{rup}{18}{18}{20}
\@@wrindexm@m{monografia}{rup@{RUP}|hyperpage}{18}
\acro@used@twice{rup}{18}{18}{20}
\@@wrindexm@m{monografia}{rup@{RUP}|hyperpage}{18}
\BKM@entry{id=14,dest={636861707465722E32},srcline={2}}{46756E64616D656E74615C3334375C3334336F2054655C33363372696361}
\BKM@entry{id=15,dest={73656374696F6E2E322E31},srcline={6}}{456E67656E68617269612064652052657175697369746F73}
\citation{pressman2011engenharia}
\BKM@entry{id=16,dest={73756273656374696F6E2E322E312E31},srcline={13}}{50726F636573736F20646520456E67656E68617269612064652052657175697369746F73}
\citation{pressman2011engenharia}
\citation{sommervilleengenharia}
\citation{pfleeger2004software}
\citation{pressman2011engenharia}
\@writefile{toc}{\setlength  {\cftchapterindent }{0em} \setlength  {\cftchapternumwidth }{\cftlastnumwidth }}
\@writefile{toc}{\contentsline {chapter}{\chapternumberline {2}\MakeTextUppercase  {Fundamenta\IeC {\c c}\IeC {\~a}o Te\IeC {\'o}rica}}{19}{chapter.2}}
\newlabel{fundamentacaoteorica}{{2}{19}{Fundamentação Teórica}{chapter.2}{}}
\acro@used@twice{er}{19}{19}{21}
\@@wrindexm@m{monografia}{er@{ER}|hyperpage}{19}
\acro@used@twice{uml}{19}{19}{21}
\@@wrindexm@m{monografia}{uml@{UML}|hyperpage}{19}
\@writefile{toc}{\contentsline {section}{\numberline {2.1}Engenharia de Requisitos}{19}{section.2.1}}
\newlabel{engenhariaderequisitos}{{2.1}{19}{Engenharia de Requisitos}{section.2.1}{}}
\@writefile{brf}{\backcite{pressman2011engenharia}{{19}{2.1}{section.2.1}}}
\acro@used@twice{er}{19}{19}{21}
\@@wrindexm@m{monografia}{er@{ER}|hyperpage}{19}
\acro@used@twice{er}{19}{19}{21}
\@@wrindexm@m{monografia}{er@{ER}|hyperpage}{19}
\@writefile{toc}{\contentsline {subsection}{\numberline {2.1.1}Processo de Engenharia de Requisitos}{19}{subsection.2.1.1}}
\acro@used@twice{er}{19}{19}{21}
\@@wrindexm@m{monografia}{er@{ER}|hyperpage}{19}
\@writefile{brf}{\backcite{pressman2011engenharia}{{19}{2.1.1}{subsection.2.1.1}}}
\@writefile{brf}{\backcite{sommervilleengenharia}{{19}{2.1.1}{subsection.2.1.1}}}
\@writefile{brf}{\backcite{pfleeger2004software}{{19}{2.1.1}{subsection.2.1.1}}}
\acro@used@twice{er}{19}{19}{21}
\@@wrindexm@m{monografia}{er@{ER}|hyperpage}{19}
\@writefile{brf}{\backcite{pressman2011engenharia}{{19}{2.1.1}{subsection.2.1.1}}}
\acro@used@twice{er}{19}{19}{21}
\@@wrindexm@m{monografia}{er@{ER}|hyperpage}{19}
\citation{sommervilleengenharia}
\citation{pfleeger2004software}
\@writefile{brf}{\backcite{sommervilleengenharia}{{20}{2.1.1}{subsection.2.1.1}}}
\@writefile{brf}{\backcite{pfleeger2004software}{{20}{2.1.1}{subsection.2.1.1}}}
\citation{pressman2011engenharia}
\citation{pfleeger2004software}
\citation{sommervilleengenharia}
\BKM@entry{id=17,dest={73756273756273656374696F6E2E322E312E312E31},srcline={39}}{496E766573746967615C3334375C3334336F}
\acro@used@twice{er}{21}{21}{23}
\@@wrindexm@m{monografia}{er@{ER}|hyperpage}{21}
\@writefile{brf}{\backcite{pressman2011engenharia}{{21}{2.1.1}{subsection.2.1.1}}}
\@writefile{brf}{\backcite{pfleeger2004software}{{21}{2.1.1}{subsection.2.1.1}}}
\@writefile{brf}{\backcite{sommervilleengenharia}{{21}{2.1.1}{subsection.2.1.1}}}
\acro@used@twice{er}{21}{21}{23}
\@@wrindexm@m{monografia}{er@{ER}|hyperpage}{21}
\@writefile{lof}{\contentsline {figure}{\numberline {1}{\ignorespaces Processo para ER utilizado em nosso trabalho.}}{21}{figure.2.1}}
\newlabel{fig_modeloER}{{1}{21}{Processo para ER utilizado em nosso trabalho}{figure.2.1}{}}
\BKM@entry{id=18,dest={73756273756273656374696F6E2E322E312E312E32},srcline={55}}{416E5C3334316C697365}
\citation{pressman2011engenharia}
\@writefile{toc}{\contentsline {subsubsection}{\numberline {2.1.1.1}Investiga\IeC {\c c}\IeC {\~a}o}{22}{subsubsection.2.1.1.1}}
\@writefile{toc}{\contentsline {subsubsection}{\numberline {2.1.1.2}An\IeC {\'a}lise}{22}{subsubsection.2.1.1.2}}
\@writefile{brf}{\backcite{pressman2011engenharia}{{22}{2.1.1.2}{subsubsection.2.1.1.2}}}
\citation{sommervilleengenharia}
\citation{sommervilleengenharia}
\@writefile{brf}{\backcite{sommervilleengenharia}{{23}{2.1.1.2}{subsubsection.2.1.1.2}}}
\@writefile{brf}{\backcite{sommervilleengenharia}{{23}{2.1.1.2}{subsubsection.2.1.1.2}}}
\citation{wazlawick2004analise}
\BKM@entry{id=19,dest={73756273756273656374696F6E2E322E312E312E33},srcline={83}}{457370656369666963615C3334375C3334336F}
\citation{sommervilleengenharia}
\citation{pfleeger2004software}
\acro@used@twice{uml}{24}{24}{26}
\@@wrindexm@m{monografia}{uml@{UML}|hyperpage}{24}
\@writefile{brf}{\backcite{wazlawick2004analise}{{24}{2.1.1.2}{subsubsection.2.1.1.2}}}
\@writefile{toc}{\contentsline {subsubsection}{\numberline {2.1.1.3}Especifica\IeC {\c c}\IeC {\~a}o}{24}{subsubsection.2.1.1.3}}
\acro@used@twice{er}{24}{24}{26}
\@@wrindexm@m{monografia}{er@{ER}|hyperpage}{24}
\citation{pfleeger2004software}
\BKM@entry{id=20,dest={73756273756273656374696F6E2E322E312E312E34},srcline={90}}{56616C6964615C3334375C3334336F}
\citation{pfleeger2004software}
\BKM@entry{id=21,dest={73656374696F6E2E322E32},srcline={96}}{53697374656D6173204175746F6164617074617469766F73}
\citation{daengenharia}
\@writefile{brf}{\backcite{sommervilleengenharia}{{25}{2.1.1.3}{subsubsection.2.1.1.3}}}
\@writefile{brf}{\backcite{pfleeger2004software}{{25}{2.1.1.3}{subsubsection.2.1.1.3}}}
\acro@used@twice{er}{25}{25}{27}
\@@wrindexm@m{monografia}{er@{ER}|hyperpage}{25}
\@writefile{brf}{\backcite{pfleeger2004software}{{25}{2.1.1.3}{subsubsection.2.1.1.3}}}
\@writefile{toc}{\contentsline {subsubsection}{\numberline {2.1.1.4}Valida\IeC {\c c}\IeC {\~a}o}{25}{subsubsection.2.1.1.4}}
\@writefile{brf}{\backcite{pfleeger2004software}{{25}{2.1.1.4}{subsubsection.2.1.1.4}}}
\citation{qureshi2010requirements}
\BKM@entry{id=22,dest={73756273656374696F6E2E322E322E31},srcline={103}}{50726F70726965646164657320646F732053697374656D6173204175746F6164617074617469766F73}
\citation{daengenharia}
\@writefile{toc}{\contentsline {section}{\numberline {2.2}Sistemas Autoadaptativos}{26}{section.2.2}}
\newlabel{sistemasautoadaptativos}{{2.2}{26}{Sistemas Autoadaptativos}{section.2.2}{}}
\@writefile{brf}{\backcite{daengenharia}{{26}{2.2}{section.2.2}}}
\acro@used@twice{sa}{26}{26}{28}
\@@wrindexm@m{monografia}{sa@{SA}|hyperpage}{26}
\@writefile{brf}{\backcite{qureshi2010requirements}{{26}{2.2}{section.2.2}}}
\@writefile{toc}{\contentsline {subsection}{\numberline {2.2.1}Propriedades dos Sistemas Autoadaptativos}{26}{subsection.2.2.1}}
\acro@used@twice{sa}{26}{26}{28}
\@@wrindexm@m{monografia}{sa@{SA}|hyperpage}{26}
\@writefile{brf}{\backcite{daengenharia}{{26}{2.2.1}{subsection.2.2.1}}}
\acro@used@twice{sa}{26}{26}{28}
\@@wrindexm@m{monografia}{sa@{SA}|hyperpage}{26}
\citation{adaptiveDynamicAndResilientSystem}
\@writefile{lof}{\contentsline {figure}{\numberline {2}{\ignorespaces Principais propriedades dos Sistemas Autoadaptativos.}}{27}{figure.2.2}}
\newlabel{fig_imgSA}{{2}{27}{Principais propriedades dos Sistemas Autoadaptativos}{figure.2.2}{}}
\acro@used@twice{sa}{27}{27}{29}
\@@wrindexm@m{monografia}{sa@{SA}|hyperpage}{27}
\acro@used@twice{sa}{27}{27}{29}
\@@wrindexm@m{monografia}{sa@{SA}|hyperpage}{27}
\@writefile{brf}{\backcite{adaptiveDynamicAndResilientSystem}{{27}{2.2.1}{figure.2.2}}}
\citation{qureshi2010requirements}
\BKM@entry{id=23,dest={73756273656374696F6E2E322E322E32},srcline={142}}{456E67656E68617269612064652052657175697369746F7320706172612053697374656D6173204175746F6164617074617469766F73}
\citation{daengenharia}
\citation{whittle2010relax}
\citation{whittle2010relax}
\acro@used@once{ibm}{28}{28}{30}
\@@wrindexm@m{monografia}{ibm@{IBM}|hyperpage}{28}
\acro@used@once{sbs}{28}{28}{30}
\@@wrindexm@m{monografia}{sbs@{SBS}|hyperpage}{28}
\@writefile{brf}{\backcite{qureshi2010requirements}{{28}{2.2.1}{figure.2.2}}}
\@writefile{toc}{\contentsline {subsection}{\numberline {2.2.2}Engenharia de Requisitos para Sistemas Autoadaptativos}{28}{subsection.2.2.2}}
\newlabel{erparasa}{{2.2.2}{28}{Engenharia de Requisitos para Sistemas Autoadaptativos}{subsection.2.2.2}{}}
\acro@used@twice{gore}{28}{28}{30}
\@@wrindexm@m{monografia}{gore@{GORE}|hyperpage}{28}
\acro@used@twice{gore}{28}{28}{30}
\@@wrindexm@m{monografia}{gore@{GORE}|hyperpage}{28}
\@writefile{brf}{\backcite{daengenharia}{{28}{2.2.2}{subsection.2.2.2}}}
\acro@used@twice{sa}{28}{28}{30}
\@@wrindexm@m{monografia}{sa@{SA}|hyperpage}{28}
\acro@used@twice{er}{28}{28}{30}
\@@wrindexm@m{monografia}{er@{ER}|hyperpage}{28}
\@writefile{brf}{\backcite{whittle2010relax}{{28}{2.2.2}{subsection.2.2.2}}}
\@writefile{brf}{\backcite{whittle2010relax}{{28}{2.2.2}{subsection.2.2.2}}}
\citation{whittle2010relax}
\citation{whittle2010relax}
\citation{whittle2010relax}
\citation{whittle2010relax}
\@writefile{lot}{\contentsline {table}{\numberline {1}{\ignorespaces Operadores Relax}}{29}{table.2.1}}
\@writefile{brf}{\backcite{whittle2010relax}{{29}{1}{table.2.1}}}
\newlabel{tab:operadoresRelaxEDefinicoes}{{1}{29}{Operadores Relax}{table.2.1}{}}
\acro@used@twice{sa}{29}{29}{31}
\@@wrindexm@m{monografia}{sa@{SA}|hyperpage}{29}
\BKM@entry{id=24,dest={73656374696F6E2E322E33},srcline={256}}{556E6966696564204D6F64656C696E67204C616E6775616765}
\citation{guedes2009uml}
\citation{booch2006uml}
\BKM@entry{id=25,dest={73656374696F6E2E322E34},srcline={269}}{436F6E636C75735C3334336F20646F204361705C33353574756C6F}
\@writefile{toc}{\contentsline {section}{\numberline {2.3}Unified Modeling Language}{30}{section.2.3}}
\newlabel{uml}{{2.3}{30}{Unified Modeling Language}{section.2.3}{}}
\acro@used@twice{uml}{30}{30}{32}
\@@wrindexm@m{monografia}{uml@{UML}|hyperpage}{30}
\@writefile{brf}{\backcite{guedes2009uml}{{30}{2.3}{section.2.3}}}
\@writefile{brf}{\backcite{booch2006uml}{{30}{2.3}{section.2.3}}}
\acro@used@twice{uml}{30}{30}{32}
\@@wrindexm@m{monografia}{uml@{UML}|hyperpage}{30}
\acro@used@twice{uml}{30}{30}{32}
\@@wrindexm@m{monografia}{uml@{UML}|hyperpage}{30}
\@writefile{toc}{\contentsline {section}{\numberline {2.4}Conclus\IeC {\~a}o do Cap\IeC {\'\i }tulo}{31}{section.2.4}}
\acro@used@twice{er}{31}{31}{33}
\@@wrindexm@m{monografia}{er@{ER}|hyperpage}{31}
\acro@used@twice{er}{31}{31}{33}
\@@wrindexm@m{monografia}{er@{ER}|hyperpage}{31}
\acro@used@twice{uml}{31}{31}{33}
\@@wrindexm@m{monografia}{uml@{UML}|hyperpage}{31}
\acro@used@twice{er}{31}{31}{33}
\@@wrindexm@m{monografia}{er@{ER}|hyperpage}{31}
\acro@used@twice{uml}{31}{31}{33}
\@@wrindexm@m{monografia}{uml@{UML}|hyperpage}{31}
\@writefile{lot}{\contentsline {table}{\numberline {2}{\ignorespaces Sem\IeC {\^a}ntica para Express\IeC {\~a}o Relax}}{32}{table.2.2}}
\@writefile{brf}{\backcite{whittle2010relax}{{32}{2}{table.2.2}}}
\newlabel{tab:semanticaOperador}{{2}{32}{Semântica para Expressão Relax}{table.2.2}{}}
\BKM@entry{id=26,dest={636861707465722E33},srcline={275}}{4D5C333531746F646F732065205265637572736F73}
\BKM@entry{id=27,dest={73656374696F6E2E332E31},srcline={280}}{50725C333431746963617320646120456E67656E686172696120646520536F667477617265}
\BKM@entry{id=28,dest={73756273656374696F6E2E332E312E31},srcline={284}}{526174696F6E616C20556E69666965642050726F63657373}
\citation{kruchten2001rational}
\@writefile{toc}{\setlength  {\cftchapterindent }{0em} \setlength  {\cftchapternumwidth }{\cftlastnumwidth }}
\@writefile{toc}{\contentsline {chapter}{\chapternumberline {3}\MakeTextUppercase  {M\IeC {\'e}todos e Recursos}}{33}{chapter.3}}
\newlabel{metodoserecursos}{{3}{33}{Métodos e Recursos}{chapter.3}{}}
\acro@used@twice{emf}{33}{33}{35}
\@@wrindexm@m{monografia}{emf@{EMF}|hyperpage}{33}
\@writefile{toc}{\contentsline {section}{\numberline {3.1}Pr\IeC {\'a}ticas da Engenharia de Software}{33}{section.3.1}}
\newlabel{praticasES}{{3.1}{33}{Práticas da Engenharia de Software}{section.3.1}{}}
\acro@used@twice{rup}{33}{33}{35}
\@@wrindexm@m{monografia}{rup@{RUP}|hyperpage}{33}
\@writefile{toc}{\contentsline {subsection}{\numberline {3.1.1}\textit  {Rational Unified Process}}{33}{subsection.3.1.1}}
\newlabel{processounificado}{{3.1.1}{33}{\textit {Rational Unified Process}}{subsection.3.1.1}{}}
\acro@used@twice{rup}{33}{33}{35}
\@@wrindexm@m{monografia}{rup@{RUP}|hyperpage}{33}
\acro@used@twice{ibm}{33}{33}{35}
\@@wrindexm@m{monografia}{ibm@{IBM}|hyperpage}{33}
\@writefile{brf}{\backcite{kruchten2001rational}{{33}{3.1.1}{subsection.3.1.1}}}
\citation{kruchten2001rational}
\BKM@entry{id=29,dest={73756273756273656374696F6E2E332E312E312E31},srcline={306}}{466173657320646F2050726F636573736F20556E6966696361646F}
\BKM@entry{id=30,dest={73756273756273656374696F6E2E332E312E312E32},srcline={329}}{4469736369706C696E617320646F2050726F636573736F20556E6966696361646F}
\acro@used@twice{uml}{34}{34}{36}
\@@wrindexm@m{monografia}{uml@{UML}|hyperpage}{34}
\@writefile{brf}{\backcite{kruchten2001rational}{{34}{3.1.1}{subsection.3.1.1}}}
\@writefile{toc}{\contentsline {subsubsection}{\numberline {3.1.1.1}Fases do Processo Unificado}{34}{subsubsection.3.1.1.1}}
\newlabel{faserup}{{3.1.1.1}{34}{Fases do Processo Unificado}{subsubsection.3.1.1.1}{}}
\BKM@entry{id=31,dest={73756273656374696F6E2E332E312E32},srcline={355}}{557365722053746F72696573}
\citation{userstoryknowledge21}
\@writefile{toc}{\contentsline {subsubsection}{\numberline {3.1.1.2}Disciplinas do Processo Unificado}{35}{subsubsection.3.1.1.2}}
\newlabel{disciplinasrup}{{3.1.1.2}{35}{Disciplinas do Processo Unificado}{subsubsection.3.1.1.2}{}}
\@writefile{toc}{\contentsline {subsection}{\numberline {3.1.2}\textit  {User Stories}}{35}{subsection.3.1.2}}
\newlabel{userstories}{{3.1.2}{35}{\textit {User Stories}}{subsection.3.1.2}{}}
\citation{myscrumhalf}
\BKM@entry{id=32,dest={73756273656374696F6E2E332E312E33},srcline={369}}{53746F7279426F61726473}
\citation{storyboardbraga}
\BKM@entry{id=33,dest={73656374696F6E2E332E32},srcline={376}}{506C617461666F726D612045636C69707365}
\citation{ecliseDocumentationLuna}
\@writefile{brf}{\backcite{userstoryknowledge21}{{36}{3.1.2}{subsection.3.1.2}}}
\@writefile{brf}{\backcite{myscrumhalf}{{36}{3.1.2}{subsection.3.1.2}}}
\@writefile{toc}{\contentsline {subsection}{\numberline {3.1.3}\textit  {StoryBoards}}{36}{subsection.3.1.3}}
\newlabel{storyboard}{{3.1.3}{36}{\textit {StoryBoards}}{subsection.3.1.3}{}}
\@writefile{brf}{\backcite{storyboardbraga}{{36}{3.1.3}{subsection.3.1.3}}}
\BKM@entry{id=34,dest={73756273656374696F6E2E332E322E31},srcline={382}}{417271756974657475726120646120506C617461666F726D612045636C69707365}
\citation{introplateclipse}
\citation{introplateclipse}
\@writefile{toc}{\contentsline {section}{\numberline {3.2}Plataforma Eclipse}{37}{section.3.2}}
\newlabel{plataformaeclipse}{{3.2}{37}{Plataforma Eclipse}{section.3.2}{}}
\acro@used@once{ide}{37}{37}{39}
\@@wrindexm@m{monografia}{ide@{IDE}|hyperpage}{37}
\@writefile{brf}{\backcite{ecliseDocumentationLuna}{{37}{3.2}{section.3.2}}}
\acro@used@twice{ide}{37}{37}{39}
\@@wrindexm@m{monografia}{ide@{IDE}|hyperpage}{37}
\acro@used@once{pde}{37}{37}{39}
\@@wrindexm@m{monografia}{pde@{PDE}|hyperpage}{37}
\@writefile{toc}{\contentsline {subsection}{\numberline {3.2.1}Arquitetura da Plataforma Eclipse}{37}{subsection.3.2.1}}
\acro@used@once{jdt}{37}{37}{39}
\@@wrindexm@m{monografia}{jdt@{JDT}|hyperpage}{37}
\acro@used@twice{pde}{37}{37}{39}
\@@wrindexm@m{monografia}{pde@{PDE}|hyperpage}{37}
\acro@used@once{swt}{37}{37}{39}
\@@wrindexm@m{monografia}{swt@{SWT}|hyperpage}{37}
\acro@used@twice{swt}{37}{37}{39}
\@@wrindexm@m{monografia}{swt@{SWT}|hyperpage}{37}
\acro@used@twice{swt}{37}{37}{39}
\@@wrindexm@m{monografia}{swt@{SWT}|hyperpage}{37}
\BKM@entry{id=35,dest={73756273656374696F6E2E332E322E32},srcline={408}}{417271756974657475726120646520506C7567696E7320646120506C617461666F726D612045636C69707365}
\@writefile{lof}{\contentsline {figure}{\numberline {3}{\ignorespaces Arquitetura da Plataforma Eclipse~\cite  {introplateclipse}.}}{38}{figure.3.3}}
\@writefile{brf}{\backcite{introplateclipse}{{38}{3}{figure.3.3}}}
\newlabel{fig_arqEclipse}{{3}{38}{Arquitetura da Plataforma Eclipse~\cite {introplateclipse}}{figure.3.3}{}}
\acro@used@twice{ide}{38}{38}{40}
\@@wrindexm@m{monografia}{ide@{IDE}|hyperpage}{38}
\@writefile{toc}{\contentsline {subsection}{\numberline {3.2.2}Arquitetura de Plugins da Plataforma Eclipse}{38}{subsection.3.2.2}}
\acro@used@once{xml}{38}{38}{40}
\@@wrindexm@m{monografia}{xml@{XML}|hyperpage}{38}
\acro@used@once{jar}{38}{38}{40}
\@@wrindexm@m{monografia}{jar@{JAR}|hyperpage}{38}
\citation{apostilaEclipseI}
\BKM@entry{id=36,dest={73756273656374696F6E2E332E322E33},srcline={422}}{506C7567696E20446576656C6F706D656E7420456E7669726F6E6D656E74}
\citation{ecliseDocumentationLuna}
\@writefile{lof}{\contentsline {figure}{\numberline {4}{\ignorespaces Arquitetura de um \textit  {plugin} da Plataforma Eclipse.}}{39}{figure.3.4}}
\newlabel{fig_arquiteturaPlugin}{{4}{39}{Arquitetura de um \textit {plugin} da Plataforma Eclipse}{figure.3.4}{}}
\acro@used@twice{jar}{39}{39}{41}
\@@wrindexm@m{monografia}{jar@{JAR}|hyperpage}{39}
\@writefile{brf}{\backcite{apostilaEclipseI}{{39}{3.2.2}{figure.3.4}}}
\acro@used@twice{xml}{39}{39}{41}
\@@wrindexm@m{monografia}{xml@{XML}|hyperpage}{39}
\@writefile{toc}{\contentsline {subsection}{\numberline {3.2.3}\textit  {Plugin Development Environment}}{39}{subsection.3.2.3}}
\acro@used@twice{pde}{39}{39}{41}
\@@wrindexm@m{monografia}{pde@{PDE}|hyperpage}{39}
\acro@used@twice{jdt}{39}{39}{41}
\@@wrindexm@m{monografia}{jdt@{JDT}|hyperpage}{39}
\acro@used@once{api}{39}{39}{41}
\@@wrindexm@m{monografia}{api@{API}|hyperpage}{39}
\@writefile{brf}{\backcite{ecliseDocumentationLuna}{{39}{3.2.3}{subsection.3.2.3}}}
\BKM@entry{id=37,dest={73656374696F6E2E332E33},srcline={428}}{45636C69707365204D6F64656C696E67204672616D65776F726B}
\citation{emfvogella}
\citation{budinsky2004eclipse}
\citation{budinsky2004eclipse}
\citation{ecliseDocumentationLuna}
\BKM@entry{id=38,dest={73756273656374696F6E2E332E332E31},srcline={448}}{417271756974657475726120646F20454D46}
\citation{ecliseDocumentationLuna}
\acro@used@twice{api}{40}{40}{42}
\@@wrindexm@m{monografia}{api@{API}|hyperpage}{40}
\@writefile{toc}{\contentsline {section}{\numberline {3.3}\textit  {Eclipse Modeling Framework}}{40}{section.3.3}}
\newlabel{emf}{{3.3}{40}{\textit {Eclipse Modeling Framework}}{section.3.3}{}}
\acro@used@twice{emf}{40}{40}{42}
\@@wrindexm@m{monografia}{emf@{EMF}|hyperpage}{40}
\@writefile{brf}{\backcite{emfvogella}{{40}{3.3}{section.3.3}}}
\acro@used@twice{emf}{40}{40}{42}
\@@wrindexm@m{monografia}{emf@{EMF}|hyperpage}{40}
\acro@used@twice{xml}{40}{40}{42}
\@@wrindexm@m{monografia}{xml@{XML}|hyperpage}{40}
\acro@used@twice{uml}{40}{40}{42}
\@@wrindexm@m{monografia}{uml@{UML}|hyperpage}{40}
\acro@used@twice{uml}{40}{40}{42}
\@@wrindexm@m{monografia}{uml@{UML}|hyperpage}{40}
\@writefile{lof}{\contentsline {figure}{\numberline {5}{\ignorespaces Tecnologias Unificadas no EMF~\cite  {budinsky2004eclipse}.}}{40}{figure.3.5}}
\@writefile{brf}{\backcite{budinsky2004eclipse}{{40}{5}{figure.3.5}}}
\newlabel{fig_emf}{{5}{40}{Tecnologias Unificadas no EMF~\cite {budinsky2004eclipse}}{figure.3.5}{}}
\acro@used@twice{emf}{40}{40}{42}
\@@wrindexm@m{monografia}{emf@{EMF}|hyperpage}{40}
\@writefile{brf}{\backcite{ecliseDocumentationLuna}{{40}{3.3}{figure.3.5}}}
\BKM@entry{id=39,dest={73756273656374696F6E2E332E332E32},srcline={460}}{417271756974657475726120425C3334317369636120646520756D2050726F6A65746F20454D46}
\@writefile{toc}{\contentsline {subsection}{\numberline {3.3.1}Arquitetura do EMF}{41}{subsection.3.3.1}}
\acro@used@twice{emf}{41}{41}{43}
\@@wrindexm@m{monografia}{emf@{EMF}|hyperpage}{41}
\acro@used@twice{xml}{41}{41}{43}
\@@wrindexm@m{monografia}{xml@{XML}|hyperpage}{41}
\acro@used@twice{api}{41}{41}{43}
\@@wrindexm@m{monografia}{api@{API}|hyperpage}{41}
\@writefile{brf}{\backcite{ecliseDocumentationLuna}{{41}{3.3.1}{subsection.3.3.1}}}
\acro@used@twice{jdt}{41}{41}{43}
\@@wrindexm@m{monografia}{jdt@{JDT}|hyperpage}{41}
\@writefile{lof}{\contentsline {figure}{\numberline {6}{\ignorespaces Arquitetura Base do EMF.}}{41}{figure.3.6}}
\newlabel{fig_arquiteturaDaPlataforma}{{6}{41}{Arquitetura Base do EMF}{figure.3.6}{}}
\@writefile{toc}{\contentsline {subsection}{\numberline {3.3.2}Arquitetura B\IeC {\'a}sica de um Projeto EMF}{41}{subsection.3.3.2}}
\acro@used@twice{emf}{41}{41}{43}
\@@wrindexm@m{monografia}{emf@{EMF}|hyperpage}{41}
\acro@used@twice{emf}{41}{41}{43}
\@@wrindexm@m{monografia}{emf@{EMF}|hyperpage}{41}
\BKM@entry{id=40,dest={73656374696F6E2E332E34},srcline={482}}{436F6E636C75735C3334336F20646F204361705C33353574756C6F}
\@writefile{lof}{\contentsline {figure}{\numberline {7}{\ignorespaces Arquitetura B\IeC {\'a}sica de um Projeto EMF.}}{42}{figure.3.7}}
\newlabel{fig_arquiteturaEmf}{{7}{42}{Arquitetura Básica de um Projeto EMF}{figure.3.7}{}}
\@writefile{toc}{\contentsline {section}{\numberline {3.4}Conclus\IeC {\~a}o do Cap\IeC {\'\i }tulo}{42}{section.3.4}}
\acro@used@twice{emf}{42}{42}{44}
\@@wrindexm@m{monografia}{emf@{EMF}|hyperpage}{42}
\BKM@entry{id=41,dest={636861707465722E34},srcline={486}}{54726162616C686F732052656C6163696F6E61646F73}
\citation{petersen2008systematic}
\BKM@entry{id=42,dest={73656374696F6E2E342E31},srcline={491}}{4D65746F646F6C6F676961}
\@writefile{toc}{\setlength  {\cftchapterindent }{0em} \setlength  {\cftchapternumwidth }{\cftlastnumwidth }}
\@writefile{toc}{\contentsline {chapter}{\chapternumberline {4}\MakeTextUppercase  {Trabalhos Relacionados}}{43}{chapter.4}}
\newlabel{trabalhosrelacionados}{{4}{43}{Trabalhos Relacionados}{chapter.4}{}}
\acro@used@twice{AR}{43}{43}{45}
\@@wrindexm@m{monografia}{AR@{AR}|hyperpage}{43}
\@writefile{brf}{\backcite{petersen2008systematic}{{43}{4}{chapter.4}}}
\@writefile{toc}{\contentsline {section}{\numberline {4.1}Metodologia}{43}{section.4.1}}
\newlabel{tmetodologia}{{4.1}{43}{Metodologia}{section.4.1}{}}
\acro@used@twice{AR}{43}{43}{45}
\@@wrindexm@m{monografia}{AR@{AR}|hyperpage}{43}
\BKM@entry{id=43,dest={73656374696F6E2E342E32},srcline={505}}{526573756C7461646F73}
\BKM@entry{id=44,dest={73756273656374696F6E2E342E322E31},srcline={509}}{517561697320735C3334336F20617320736F6C755C3334375C3336356573206465207375706F7274652061206D6F64656C6167656D2064652072657175697369746F733F}
\citation{dimitrijevic2015comparative}
\citation{brace2014coramod}
\citation{de2014scram}
\citation{siqueira2014transforming}
\citation{casamayor2012functional}
\citation{ali2010reasoning}
\@writefile{toc}{\contentsline {section}{\numberline {4.2}Resultados}{44}{section.4.2}}
\newlabel{tresultados}{{4.2}{44}{Resultados}{section.4.2}{}}
\acro@used@twice{sa}{44}{44}{46}
\@@wrindexm@m{monografia}{sa@{SA}|hyperpage}{44}
\@writefile{toc}{\contentsline {subsection}{\numberline {4.2.1}Quais s\IeC {\~a}o as solu\IeC {\c c}\IeC {\~o}es de suporte a modelagem de requisitos?}{44}{subsection.4.2.1}}
\@writefile{brf}{\backcite{dimitrijevic2015comparative}{{44}{4.2.1}{subsection.4.2.1}}}
\@writefile{brf}{\backcite{brace2014coramod}{{44}{4.2.1}{subsection.4.2.1}}}
\@writefile{brf}{\backcite{de2014scram}{{44}{4.2.1}{subsection.4.2.1}}}
\@writefile{brf}{\backcite{siqueira2014transforming}{{44}{4.2.1}{subsection.4.2.1}}}
\acro@used@twice{ide}{44}{44}{46}
\@@wrindexm@m{monografia}{ide@{IDE}|hyperpage}{44}
\@writefile{brf}{\backcite{casamayor2012functional}{{44}{4.2.1}{subsection.4.2.1}}}
\citation{liu2012context}
\citation{dalpiaz2011exploiting}
\BKM@entry{id=45,dest={73756273656374696F6E2E342E322E32},srcline={527}}{517561697320735C3334336F20617320736F6C755C3334375C3336356573206465207375706F727465206120636C61737369666963615C3334375C3334336F2064652072657175697369746F733F}
\citation{liu2012context}
\BKM@entry{id=46,dest={73756273656374696F6E2E342E322E33},srcline={532}}{517561697320735C3334336F20617320736F6C755C3334375C3336356573206465207375706F7274652061206E65676F6369615C3334375C3334336F2064652072657175697369746F733F}
\citation{brace2014coramod}
\citation{de2014scram}
\@writefile{brf}{\backcite{ali2010reasoning}{{45}{4.2.1}{subsection.4.2.1}}}
\acro@used@twice{AR}{45}{45}{47}
\@@wrindexm@m{monografia}{AR@{AR}|hyperpage}{45}
\@writefile{brf}{\backcite{liu2012context}{{45}{4.2.1}{subsection.4.2.1}}}
\acro@used@twice{sa}{45}{45}{47}
\@@wrindexm@m{monografia}{sa@{SA}|hyperpage}{45}
\acro@used@once{r2ml}{45}{45}{47}
\@@wrindexm@m{monografia}{r2ml@{R2ML}|hyperpage}{45}
\@writefile{brf}{\backcite{dalpiaz2011exploiting}{{45}{4.2.1}{subsection.4.2.1}}}
\acro@used@once{sst}{45}{45}{47}
\@@wrindexm@m{monografia}{sst@{SST}|hyperpage}{45}
\acro@used@twice{sa}{45}{45}{47}
\@@wrindexm@m{monografia}{sa@{SA}|hyperpage}{45}
\acro@used@twice{sst}{45}{45}{47}
\@@wrindexm@m{monografia}{sst@{SST}|hyperpage}{45}
\@writefile{toc}{\contentsline {subsection}{\numberline {4.2.2}Quais s\IeC {\~a}o as solu\IeC {\c c}\IeC {\~o}es de suporte a classifica\IeC {\c c}\IeC {\~a}o de requisitos?}{45}{subsection.4.2.2}}
\@writefile{brf}{\backcite{liu2012context}{{45}{4.2.2}{subsection.4.2.2}}}
\acro@used@twice{sa}{45}{45}{47}
\@@wrindexm@m{monografia}{sa@{SA}|hyperpage}{45}
\@writefile{toc}{\contentsline {subsection}{\numberline {4.2.3}Quais s\IeC {\~a}o as solu\IeC {\c c}\IeC {\~o}es de suporte a negocia\IeC {\c c}\IeC {\~a}o de requisitos?}{45}{subsection.4.2.3}}
\@writefile{brf}{\backcite{brace2014coramod}{{45}{4.2.3}{subsection.4.2.3}}}
\BKM@entry{id=47,dest={73656374696F6E2E342E33},srcline={538}}{436F6E636C75735C3334336F20646F204361705C33353574756C6F}
\@writefile{brf}{\backcite{de2014scram}{{46}{4.2.3}{subsection.4.2.3}}}
\acro@used@twice{er}{46}{46}{48}
\@@wrindexm@m{monografia}{er@{ER}|hyperpage}{46}
\acro@used@twice{sa}{46}{46}{48}
\@@wrindexm@m{monografia}{sa@{SA}|hyperpage}{46}
\@writefile{toc}{\contentsline {section}{\numberline {4.3}Conclus\IeC {\~a}o do Cap\IeC {\'\i }tulo}{46}{section.4.3}}
\newlabel{tconclusao}{{4.3}{46}{Conclusão do Capítulo}{section.4.3}{}}
\acro@used@twice{er}{46}{46}{48}
\@@wrindexm@m{monografia}{er@{ER}|hyperpage}{46}
\BKM@entry{id=48,dest={636861707465722E35},srcline={543}}{446573656E766F6C76696D656E746F205072656C696D696E6172}
\citation{whittle2010relax}
\BKM@entry{id=49,dest={73656374696F6E2E352E31},srcline={548}}{4661736520646520436F6E6365705C3334375C3334336F}
\citation{larman2002utilizando}
\BKM@entry{id=50,dest={73756273656374696F6E2E352E312E31},srcline={553}}{4465736372695C3334375C3334336F20646F2050726F626C656D61}
\citation{whittle2010relax}
\citation{dalpiaz2011exploiting}
\citation{liu2012context}
\BKM@entry{id=51,dest={73756273656374696F6E2E352E312E32},srcline={562}}{4465736372695C3334375C3334336F20646120536F6C755C3334375C3334336F}
\@writefile{toc}{\setlength  {\cftchapterindent }{0em} \setlength  {\cftchapternumwidth }{\cftlastnumwidth }}
\@writefile{toc}{\contentsline {chapter}{\chapternumberline {5}\MakeTextUppercase  {Desenvolvimento Preliminar}}{47}{chapter.5}}
\newlabel{desenvolvimentopreliminar}{{5}{47}{Desenvolvimento Preliminar}{chapter.5}{}}
\@writefile{brf}{\backcite{whittle2010relax}{{47}{5}{chapter.5}}}
\acro@used@twice{rup}{47}{47}{49}
\@@wrindexm@m{monografia}{rup@{RUP}|hyperpage}{47}
\acro@used@twice{rup}{47}{47}{49}
\@@wrindexm@m{monografia}{rup@{RUP}|hyperpage}{47}
\@writefile{toc}{\contentsline {section}{\numberline {5.1}Fase de Concep\IeC {\c c}\IeC {\~a}o}{47}{section.5.1}}
\newlabel{concepcao}{{5.1}{47}{Fase de Concepção}{section.5.1}{}}
\@writefile{brf}{\backcite{larman2002utilizando}{{47}{5.1}{section.5.1}}}
\@writefile{toc}{\contentsline {subsection}{\numberline {5.1.1}Descri\IeC {\c c}\IeC {\~a}o do Problema}{47}{subsection.5.1.1}}
\newlabel{descrproblema}{{5.1.1}{47}{Descrição do Problema}{subsection.5.1.1}{}}
\acro@used@twice{er}{47}{47}{49}
\@@wrindexm@m{monografia}{er@{ER}|hyperpage}{47}
\@writefile{brf}{\backcite{whittle2010relax}{{47}{5.1.1}{subsection.5.1.1}}}
\acro@used@twice{sa}{47}{47}{49}
\@@wrindexm@m{monografia}{sa@{SA}|hyperpage}{47}
\acro@used@twice{sa}{47}{47}{49}
\@@wrindexm@m{monografia}{sa@{SA}|hyperpage}{47}
\@writefile{brf}{\backcite{dalpiaz2011exploiting}{{47}{5.1.1}{subsection.5.1.1}}}
\@writefile{brf}{\backcite{liu2012context}{{47}{5.1.1}{subsection.5.1.1}}}
\acro@used@twice{gore}{47}{47}{49}
\@@wrindexm@m{monografia}{gore@{GORE}|hyperpage}{47}
\acro@used@twice{sa}{47}{47}{49}
\@@wrindexm@m{monografia}{sa@{SA}|hyperpage}{47}
\acro@used@twice{er}{47}{47}{49}
\@@wrindexm@m{monografia}{er@{ER}|hyperpage}{47}
\BKM@entry{id=52,dest={73756273656374696F6E2E352E312E33},srcline={576}}{5669735C3334336F20476572616C}
\BKM@entry{id=53,dest={73756273656374696F6E2E352E312E34},srcline={581}}{557365722053746F72696573}
\@writefile{toc}{\contentsline {subsection}{\numberline {5.1.2}Descri\IeC {\c c}\IeC {\~a}o da Solu\IeC {\c c}\IeC {\~a}o}{48}{subsection.5.1.2}}
\newlabel{descrsolucao}{{5.1.2}{48}{Descrição da Solução}{subsection.5.1.2}{}}
\acro@used@twice{ide}{48}{48}{50}
\@@wrindexm@m{monografia}{ide@{IDE}|hyperpage}{48}
\acro@used@twice{sa}{48}{48}{50}
\@@wrindexm@m{monografia}{sa@{SA}|hyperpage}{48}
\acro@used@twice{uml}{48}{48}{50}
\@@wrindexm@m{monografia}{uml@{UML}|hyperpage}{48}
\@writefile{lof}{\contentsline {figure}{\numberline {8}{\ignorespaces Ambiente da Ferramenta \textit  {Relax Editor}.}}{48}{figure.5.8}}
\newlabel{fig_relaxeditor}{{8}{48}{Ambiente da Ferramenta \textit {Relax Editor}}{figure.5.8}{}}
\@writefile{toc}{\contentsline {subsection}{\numberline {5.1.3}Vis\IeC {\~a}o Geral}{48}{subsection.5.1.3}}
\newlabel{visaogeral}{{5.1.3}{48}{Visão Geral}{subsection.5.1.3}{}}
\BKM@entry{id=54,dest={73656374696F6E2E352E32},srcline={601}}{4661736520646520456C61626F72615C3334375C3334336F}
\BKM@entry{id=55,dest={73756273656374696F6E2E352E322E31},srcline={605}}{41727175697465747572612064612046657272616D656E7461}
\BKM@entry{id=56,dest={73756273656374696F6E2E352E322E32},srcline={618}}{53746F7279426F6172642064612046657272616D656E7461}
\@writefile{toc}{\contentsline {subsection}{\numberline {5.1.4}\textit  {User Stories}}{49}{subsection.5.1.4}}
\newlabel{userstories}{{5.1.4}{49}{\textit {User Stories}}{subsection.5.1.4}{}}
\@writefile{lot}{\contentsline {table}{\numberline {3}{\ignorespaces Narrativas de Requisitos}}{49}{table.5.3}}
\newlabel{tab:userstories}{{3}{49}{Narrativas de Requisitos}{table.5.3}{}}
\@writefile{toc}{\contentsline {section}{\numberline {5.2}Fase de Elabora\IeC {\c c}\IeC {\~a}o}{49}{section.5.2}}
\newlabel{Elabora\IeC {\c c}\IeC {\~a}o}{{5.2}{49}{Fase de Elaboração}{section.5.2}{}}
\@writefile{toc}{\contentsline {subsection}{\numberline {5.2.1}Arquitetura da Ferramenta}{49}{subsection.5.2.1}}
\newlabel{arquitetura}{{5.2.1}{49}{Arquitetura da Ferramenta}{subsection.5.2.1}{}}
\acro@used@twice{mvc}{49}{49}{51}
\@@wrindexm@m{monografia}{mvc@{MVC}|hyperpage}{49}
\acro@used@twice{emf}{49}{49}{51}
\@@wrindexm@m{monografia}{emf@{EMF}|hyperpage}{49}
\BKM@entry{id=57,dest={73756273656374696F6E2E352E322E33},srcline={635}}{436F6E636C75735C3334336F20646F204361705C33353574756C6F}
\@writefile{lof}{\contentsline {figure}{\numberline {9}{\ignorespaces Arquitetura da Ferramenta Baseada no Padr\IeC {\~a}o \ac {mvc}.}}{50}{figure.5.9}}
\acro@used@twice{mvc}{50}{50}{52}
\@@wrindexm@m{monografia}{mvc@{MVC}|hyperpage}{50}
\newlabel{fig_arqFerramenta}{{9}{50}{Arquitetura da Ferramenta Baseada no Padrão \ac {mvc}}{figure.5.9}{}}
\@writefile{toc}{\contentsline {subsection}{\numberline {5.2.2}\textit  {StoryBoard} da Ferramenta}{50}{subsection.5.2.2}}
\newlabel{storyboard}{{5.2.2}{50}{\textit {StoryBoard} da Ferramenta}{subsection.5.2.2}{}}
\@writefile{lof}{\contentsline {figure}{\numberline {10}{\ignorespaces \textit  {StoryBoard} da Ferramenta}}{50}{figure.5.10}}
\newlabel{fig:storyboards}{{10}{50}{\textit {StoryBoard} da Ferramenta}{figure.5.10}{}}
\@writefile{toc}{\contentsline {subsection}{\numberline {5.2.3}Conclus\IeC {\~a}o do Cap\IeC {\'\i }tulo}{51}{subsection.5.2.3}}
\newlabel{concdevpreliminar}{{5.2.3}{51}{Conclusão do Capítulo}{subsection.5.2.3}{}}
\BKM@entry{id=58,dest={636861707465722E36},srcline={2}}{436F6E636C75735C3336356573205072656C696D696E61726573}
\citation{whittle2010relax}
\BKM@entry{id=59,dest={73756273656374696F6E2E362E302E34},srcline={10}}{43726F6E6F6772616D612064652041746976696461646573}
\bibdata{abntex2-options,bibliografia,abntex2-modelo-references}
\@writefile{toc}{\setlength  {\cftchapterindent }{0em} \setlength  {\cftchapternumwidth }{\cftlastnumwidth }}
\@writefile{toc}{\contentsline {chapter}{\chapternumberline {6}\MakeTextUppercase  {Conclus\IeC {\~o}es Preliminares}}{53}{chapter.6}}
\newlabel{conclusoespreliminares}{{6}{53}{Conclusões Preliminares}{chapter.6}{}}
\@writefile{brf}{\backcite{whittle2010relax}{{53}{6}{chapter.6}}}
\acro@used@twice{ide}{53}{53}{55}
\@@wrindexm@m{monografia}{ide@{IDE}|hyperpage}{53}
\acro@used@twice{emf}{53}{53}{55}
\@@wrindexm@m{monografia}{emf@{EMF}|hyperpage}{53}
\acro@used@twice{mvc}{53}{53}{55}
\@@wrindexm@m{monografia}{mvc@{MVC}|hyperpage}{53}
\acro@used@twice{sa}{53}{53}{55}
\@@wrindexm@m{monografia}{sa@{SA}|hyperpage}{53}
\acro@used@twice{rup}{53}{53}{55}
\@@wrindexm@m{monografia}{rup@{RUP}|hyperpage}{53}
\@writefile{toc}{\contentsline {subsection}{\numberline {6.0.4}Cronograma de Atividades}{53}{subsection.6.0.4}}
\newlabel{cronograma}{{6.0.4}{53}{Cronograma de Atividades}{subsection.6.0.4}{}}
\@writefile{toc}{\vspace  {\cftbeforechapterskip }}
\@writefile{lot}{\contentsline {table}{\numberline {4}{\ignorespaces Cronograma das Atividades}}{54}{table.6.4}}
\newlabel{tab:cronograma}{{4}{54}{Cronograma das Atividades}{table.6.4}{}}
\acro@used@twice{er}{54}{54}{56}
\@@wrindexm@m{monografia}{er@{ER}|hyperpage}{54}
\acro@used@twice{sa}{54}{54}{56}
\@@wrindexm@m{monografia}{sa@{SA}|hyperpage}{54}
\acro@used@twice{emf}{54}{54}{56}
\@@wrindexm@m{monografia}{emf@{EMF}|hyperpage}{54}
\acro@used@once{tcc}{54}{54}{56}
\@@wrindexm@m{monografia}{tcc@{TCC}|hyperpage}{54}
\acro@used@twice{tcc}{54}{54}{56}
\@@wrindexm@m{monografia}{tcc@{TCC}|hyperpage}{54}
\BKM@entry{id=60,dest={73656374696F6E2A2E37},srcline={3}}{52656665725C3335326E63696173}
\bibcite{ali2010reasoning}{Ali, Dalpiaz e Giorgini 2010}
\bibciteEXPL{ali2010reasoning}{Ali, Dalpiaz e Giorgini}
\bibciteIMPL{ali2010reasoning}{ALI; DALPIAZ; GIORGINI}
\bibciteYEAR{ali2010reasoning}{2010}
\bibcite{NBR6028:2003}{Associa{\c c}\~ao Brasileira de Normas T\'ecnicas 2003}
\bibciteEXPL{NBR6028:2003}{ABNT}
\bibciteIMPL{NBR6028:2003}{ABNT}
\bibciteYEAR{NBR6028:2003}{2003}
\bibcite{apostilaEclipseI}{Balsiger 2010}
\bibciteEXPL{apostilaEclipseI}{Balsiger}
\bibciteIMPL{apostilaEclipseI}{BALSIGER}
\bibciteYEAR{apostilaEclipseI}{2010}
\bibcite{booch2006uml}{Booch, Rumbaugh e Jacobson 2006}
\bibciteEXPL{booch2006uml}{Booch, Rumbaugh e Jacobson}
\bibciteIMPL{booch2006uml}{BOOCH; RUMBAUGH; JACOBSON}
\bibciteYEAR{booch2006uml}{2006}
\bibcite{brace2014coramod}{Brace e Ekman 2014}
\bibciteEXPL{brace2014coramod}{Brace e Ekman}
\bibciteIMPL{brace2014coramod}{BRACE; EKMAN}
\bibciteYEAR{brace2014coramod}{2014}
\bibcite{budinsky2004eclipse}{Budinsky 2004}
\bibciteEXPL{budinsky2004eclipse}{Budinsky}
\bibciteIMPL{budinsky2004eclipse}{BUDINSKY}
\bibciteYEAR{budinsky2004eclipse}{2004}
\bibcite{casamayor2012functional}{Casamayor, Godoy e Campo 2012}
\bibciteEXPL{casamayor2012functional}{Casamayor, Godoy e Campo}
\bibciteIMPL{casamayor2012functional}{CASAMAYOR; GODOY; CAMPO}
\bibciteYEAR{casamayor2012functional}{2012}
\bibcite{introplateclipse}{Daflon 2015}
\bibciteEXPL{introplateclipse}{Daflon}
\bibciteIMPL{introplateclipse}{DAFLON}
\bibciteYEAR{introplateclipse}{2015}
\bibcite{dalpiaz2011exploiting}{Dalpiaz 2011}
\bibciteEXPL{dalpiaz2011exploiting}{Dalpiaz}
\bibciteIMPL{dalpiaz2011exploiting}{DALPIAZ}
\bibciteYEAR{dalpiaz2011exploiting}{2011}
\bibcite{dimitrijevic2015comparative}{Dimitrijevi{\'c}, Jovanovi{\'c} e Deved{\v {z}}i{\'c} 2015}
\bibciteEXPL{dimitrijevic2015comparative}{Dimitrijevi{\'c}, Jovanovi{\'c} e Deved{\v {z}}i{\'c}}
\bibciteIMPL{dimitrijevic2015comparative}{DIMITRIJEVI{\'C}; JOVANOVI{\'C}; DEVED{\v {Z}}I{\'C}}
\bibciteYEAR{dimitrijevic2015comparative}{2015}
\bibcite{ecliseDocumentationLuna}{Eclipse Foundation 2015}
\bibciteEXPL{ecliseDocumentationLuna}{Eclipse Foundation}
\bibciteIMPL{ecliseDocumentationLuna}{ECLIPSE FOUNDATION}
\bibciteYEAR{ecliseDocumentationLuna}{2015}
\bibcite{guedes2009uml}{Guedes 2009}
\bibciteEXPL{guedes2009uml}{Guedes}
\bibciteIMPL{guedes2009uml}{GUEDES}
\bibciteYEAR{guedes2009uml}{2009}
\bibcite{de2014scram}{Hidalga, Hardisty e Jones 2014}
\bibciteEXPL{de2014scram}{Hidalga, Hardisty e Jones}
\bibciteIMPL{de2014scram}{HIDALGA; HARDISTY; JONES}
\bibciteYEAR{de2014scram}{2014}
\bibcite{daengenharia}{Junior 2013}
\bibciteEXPL{daengenharia}{Junior}
\bibciteIMPL{daengenharia}{JUNIOR}
\bibciteYEAR{daengenharia}{2013}
\bibcite{userstoryknowledge21}{Knowledge21 2015}
\bibciteEXPL{userstoryknowledge21}{Knowledge21}
\bibciteIMPL{userstoryknowledge21}{KNOWLEDGE21}
\bibciteYEAR{userstoryknowledge21}{2015}
\@writefile{toc}{\setlength  {\cftchapterindent }{\cftlastnumwidth } \setlength  {\cftchapternumwidth }{2em}}
\@writefile{toc}{\contentsline {chapter}{\uppercase {Refer\^encias}}{55}{section*.7}}
\bibcite{kruchten2001rational}{Kruchten 2001}
\bibciteEXPL{kruchten2001rational}{Kruchten}
\bibciteIMPL{kruchten2001rational}{KRUCHTEN}
\bibciteYEAR{kruchten2001rational}{2001}
\bibcite{larman2002utilizando}{Larman 2002}
\bibciteEXPL{larman2002utilizando}{Larman}
\bibciteIMPL{larman2002utilizando}{LARMAN}
\bibciteYEAR{larman2002utilizando}{2002}
\bibcite{liu2012context}{Liu e Feng 2012}
\bibciteEXPL{liu2012context}{Liu e Feng}
\bibciteIMPL{liu2012context}{LIU; FENG}
\bibciteYEAR{liu2012context}{2012}
\bibcite{storyboardbraga}{Martinez 2013}
\bibciteEXPL{storyboardbraga}{Martinez}
\bibciteIMPL{storyboardbraga}{MARTINEZ}
\bibciteYEAR{storyboardbraga}{2013}
\bibcite{petersen2008systematic}{Petersen et al. 2008}
\bibciteEXPL{petersen2008systematic}{Petersen et al.}
\bibciteIMPL{petersen2008systematic}{PETERSEN et al.}
\bibciteYEAR{petersen2008systematic}{2008}
\bibcite{pfleeger2004software}{Pfleeger e Atlee 2004}
\bibciteEXPL{pfleeger2004software}{Pfleeger e Atlee}
\bibciteIMPL{pfleeger2004software}{PFLEEGER; ATLEE}
\bibciteYEAR{pfleeger2004software}{2004}
\bibcite{pressman2011engenharia}{Pressman 2011}
\bibciteEXPL{pressman2011engenharia}{Pressman}
\bibciteIMPL{pressman2011engenharia}{PRESSMAN}
\bibciteYEAR{pressman2011engenharia}{2011}
\bibcite{myscrumhalf}{Primo 2011}
\bibciteEXPL{myscrumhalf}{Primo}
\bibciteIMPL{myscrumhalf}{PRIMO}
\bibciteYEAR{myscrumhalf}{2011}
\bibcite{qureshi2010requirements}{Qureshi e Perini 2010}
\bibciteEXPL{qureshi2010requirements}{Qureshi e Perini}
\bibciteIMPL{qureshi2010requirements}{QURESHI; PERINI}
\bibciteYEAR{qureshi2010requirements}{2010}
\bibcite{siqueira2014transforming}{Siqueira e Silva 2014}
\bibciteEXPL{siqueira2014transforming}{Siqueira e Silva}
\bibciteIMPL{siqueira2014transforming}{SIQUEIRA; SILVA}
\bibciteYEAR{siqueira2014transforming}{2014}
\bibcite{sommervilleengenharia}{Sommerville 2011}
\bibciteEXPL{sommervilleengenharia}{Sommerville}
\bibciteIMPL{sommervilleengenharia}{SOMMERVILLE}
\bibciteYEAR{sommervilleengenharia}{2011}
\bibcite{adaptiveDynamicAndResilientSystem}{Suri e Cabri 2014}
\bibciteEXPL{adaptiveDynamicAndResilientSystem}{Suri e Cabri}
\bibciteIMPL{adaptiveDynamicAndResilientSystem}{SURI; CABRI}
\bibciteYEAR{adaptiveDynamicAndResilientSystem}{2014}
\bibcite{emfvogella}{Vogel 2015}
\bibciteEXPL{emfvogella}{Vogel}
\bibciteIMPL{emfvogella}{VOGEL}
\bibciteYEAR{emfvogella}{2015}
\bibcite{wazlawick2004analise}{Wazlawick 2004}
\bibciteEXPL{wazlawick2004analise}{Wazlawick}
\bibciteIMPL{wazlawick2004analise}{WAZLAWICK}
\bibciteYEAR{wazlawick2004analise}{2004}
\bibcite{whittle2010relax}{Whittle et al. 2010}
\bibciteEXPL{whittle2010relax}{Whittle et al.}
\bibciteIMPL{whittle2010relax}{WHITTLE et al.}
\bibciteYEAR{whittle2010relax}{2010}
\@switch{AP\^ENDICE} 
\newlabel{LastPage}{{}{57}{}{page.57}{}}
\xdef\lastpage@lastpage{57}
\xdef\lastpage@lastpageHy{57}
\bibstyle{abntex2-alf}
\memsetcounter{lastsheet}{59}
\memsetcounter{lastpage}{57}
