\relax 
\providecommand\hyper@newdestlabel[2]{}
\providecommand\HyperFirstAtBeginDocument{\AtBeginDocument}
\HyperFirstAtBeginDocument{\ifx\hyper@anchor\@undefined
\global\let\oldcontentsline\contentsline
\gdef\contentsline#1#2#3#4{\oldcontentsline{#1}{#2}{#3}}
\global\let\oldnewlabel\newlabel
\gdef\newlabel#1#2{\newlabelxx{#1}#2}
\gdef\newlabelxx#1#2#3#4#5#6{\oldnewlabel{#1}{{#2}{#3}}}
\AtEndDocument{\ifx\hyper@anchor\@undefined
\let\contentsline\oldcontentsline
\let\newlabel\oldnewlabel
\fi}
\fi}
\global\let\hyper@last\relax 
\gdef\HyperFirstAtBeginDocument#1{#1}
\providecommand\HyField@AuxAddToFields[1]{}
\providecommand\HyField@AuxAddToCoFields[2]{}
\catcode `"\active 
\@writefile{toc}{\beamer@endinputifotherversion {3.33pt}}
\@writefile{nav}{\beamer@endinputifotherversion {3.33pt}}
\select@language{brazilian}
\@writefile{toc}{\select@language{brazilian}}
\@writefile{lof}{\select@language{brazilian}}
\@writefile{lot}{\select@language{brazilian}}
\@writefile{nav}{\headcommand {\slideentry {0}{0}{1}{1/1}{}{0}}}
\@writefile{nav}{\headcommand {\beamer@framepages {1}{1}}}
\@writefile{nav}{\headcommand {\slideentry {0}{0}{2}{2/2}{}{0}}}
\@writefile{nav}{\headcommand {\beamer@framepages {2}{2}}}
\@writefile{toc}{\beamer@sectionintoc {1}{Introdu\IeC {\c c}\IeC {\~a}o}{3}{0}{1}}
\@writefile{nav}{\headcommand {\sectionentry {1}{Introdu\IeC {\c c}\IeC {\~a}o}{3}{Introdu\IeC {\c c}\IeC {\~a}o}{0}}}
\@writefile{nav}{\headcommand {\beamer@sectionpages {1}{2}}}
\@writefile{nav}{\headcommand {\beamer@subsectionpages {1}{2}}}
\@writefile{nav}{\headcommand {\slideentry {1}{0}{3}{3/3}{}{0}}}
\@writefile{nav}{\headcommand {\beamer@framepages {3}{3}}}
\citation{whittle2010}
\@writefile{nav}{\headcommand {\slideentry {1}{0}{4}{4/4}{}{0}}}
\@writefile{nav}{\headcommand {\beamer@framepages {4}{4}}}
\@writefile{toc}{\beamer@sectionintoc {2}{Fundamenta\IeC {\c c}\IeC {\~a}o Te\IeC {\'o}rica}{5}{0}{2}}
\@writefile{nav}{\headcommand {\sectionentry {2}{Fundamenta\IeC {\c c}\IeC {\~a}o Te\IeC {\'o}rica}{5}{Fundamenta\IeC {\c c}\IeC {\~a}o Te\IeC {\'o}rica}{0}}}
\@writefile{nav}{\headcommand {\beamer@sectionpages {3}{4}}}
\@writefile{nav}{\headcommand {\beamer@subsectionpages {3}{4}}}
\@writefile{nav}{\headcommand {\slideentry {2}{0}{5}{5/5}{}{0}}}
\@writefile{nav}{\headcommand {\beamer@framepages {5}{5}}}
\@writefile{nav}{\headcommand {\slideentry {2}{0}{6}{6/6}{}{0}}}
\@writefile{nav}{\headcommand {\beamer@framepages {6}{6}}}
\@writefile{nav}{\headcommand {\slideentry {2}{0}{7}{7/7}{}{0}}}
\@writefile{nav}{\headcommand {\beamer@framepages {7}{7}}}
\citation{whittle2010}
\@writefile{nav}{\headcommand {\slideentry {2}{0}{8}{8/8}{}{0}}}
\@writefile{nav}{\headcommand {\beamer@framepages {8}{8}}}
\citation{whittle2010}
\@writefile{nav}{\headcommand {\slideentry {2}{0}{9}{9/9}{}{0}}}
\@writefile{nav}{\headcommand {\beamer@framepages {9}{9}}}
\citation{whittle2010}
\@writefile{nav}{\headcommand {\slideentry {2}{0}{10}{10/10}{}{0}}}
\@writefile{nav}{\headcommand {\beamer@framepages {10}{10}}}
\@writefile{nav}{\headcommand {\slideentry {2}{0}{11}{11/11}{}{0}}}
\@writefile{nav}{\headcommand {\beamer@framepages {11}{11}}}
\@writefile{nav}{\headcommand {\slideentry {2}{0}{12}{12/12}{}{0}}}
\@writefile{nav}{\headcommand {\beamer@framepages {12}{12}}}
\@writefile{toc}{\beamer@sectionintoc {3}{Base Tecnol\IeC {\'o}gica}{13}{0}{3}}
\@writefile{nav}{\headcommand {\sectionentry {3}{Base Tecnol\IeC {\'o}gica}{13}{Base Tecnol\IeC {\'o}gica}{0}}}
\@writefile{nav}{\headcommand {\beamer@sectionpages {5}{12}}}
\@writefile{nav}{\headcommand {\beamer@subsectionpages {5}{12}}}
\@writefile{nav}{\headcommand {\slideentry {3}{0}{13}{13/13}{}{0}}}
\@writefile{nav}{\headcommand {\beamer@framepages {13}{13}}}
\@writefile{nav}{\headcommand {\slideentry {3}{0}{14}{14/14}{}{0}}}
\@writefile{nav}{\headcommand {\beamer@framepages {14}{14}}}
\@writefile{nav}{\headcommand {\slideentry {3}{0}{15}{15/15}{}{0}}}
\@writefile{nav}{\headcommand {\beamer@framepages {15}{15}}}
\@writefile{nav}{\headcommand {\slideentry {3}{0}{16}{16/16}{}{0}}}
\@writefile{nav}{\headcommand {\beamer@framepages {16}{16}}}
\@writefile{toc}{\beamer@sectionintoc {4}{Trabalhos Relacionados}{17}{0}{4}}
\@writefile{nav}{\headcommand {\sectionentry {4}{Trabalhos Relacionados}{17}{Trabalhos Relacionados}{0}}}
\@writefile{nav}{\headcommand {\beamer@sectionpages {13}{16}}}
\@writefile{nav}{\headcommand {\beamer@subsectionpages {13}{16}}}
\@writefile{nav}{\headcommand {\slideentry {4}{0}{17}{17/17}{}{0}}}
\@writefile{nav}{\headcommand {\beamer@framepages {17}{17}}}
\@writefile{nav}{\headcommand {\slideentry {4}{0}{18}{18/18}{}{0}}}
\@writefile{nav}{\headcommand {\beamer@framepages {18}{18}}}
\citation{butler}
\citation{azevedo}
\citation{beckers2013structured}
\citation{ito}
\citation{varelaAraujoBritoMoreira2011}
\@writefile{nav}{\headcommand {\slideentry {4}{0}{19}{19/19}{}{0}}}
\@writefile{nav}{\headcommand {\beamer@framepages {19}{19}}}
\citation{zarinah}
\citation{umoh2011refinto}
\citation{daramola}
\citation{daramolaSatalhaneSindreOmoronia2011}
\@writefile{nav}{\headcommand {\slideentry {4}{0}{20}{20/20}{}{0}}}
\@writefile{nav}{\headcommand {\beamer@framepages {20}{20}}}
\citation{ali}
\citation{hussein2013}
\citation{fredericks}
\@writefile{nav}{\headcommand {\slideentry {4}{0}{21}{21/21}{}{0}}}
\@writefile{nav}{\headcommand {\beamer@framepages {21}{21}}}
\@writefile{toc}{\beamer@sectionintoc {5}{Desenvolvimento da Ferramenta}{22}{0}{5}}
\@writefile{nav}{\headcommand {\sectionentry {5}{Desenvolvimento da Ferramenta}{22}{Desenvolvimento da Ferramenta}{0}}}
\@writefile{nav}{\headcommand {\beamer@sectionpages {17}{21}}}
\@writefile{nav}{\headcommand {\beamer@subsectionpages {17}{21}}}
\@writefile{nav}{\headcommand {\slideentry {5}{0}{22}{22/22}{}{0}}}
\@writefile{nav}{\headcommand {\beamer@framepages {22}{22}}}
\@writefile{nav}{\headcommand {\slideentry {5}{0}{23}{23/23}{}{0}}}
\@writefile{nav}{\headcommand {\beamer@framepages {23}{23}}}
\@writefile{nav}{\headcommand {\slideentry {5}{0}{24}{24/24}{}{0}}}
\@writefile{nav}{\headcommand {\beamer@framepages {24}{24}}}
\@writefile{nav}{\headcommand {\slideentry {5}{0}{25}{25/25}{}{0}}}
\@writefile{nav}{\headcommand {\beamer@framepages {25}{25}}}
\@writefile{nav}{\headcommand {\slideentry {5}{0}{26}{26/26}{}{0}}}
\@writefile{nav}{\headcommand {\beamer@framepages {26}{26}}}
\@writefile{nav}{\headcommand {\slideentry {5}{0}{27}{27/27}{}{0}}}
\@writefile{nav}{\headcommand {\beamer@framepages {27}{27}}}
\@writefile{nav}{\headcommand {\slideentry {5}{0}{28}{28/28}{}{0}}}
\@writefile{nav}{\headcommand {\beamer@framepages {28}{28}}}
\@writefile{nav}{\headcommand {\slideentry {5}{0}{29}{29/29}{}{0}}}
\@writefile{nav}{\headcommand {\beamer@framepages {29}{29}}}
\newlabel{tab:coberturaDosTestes}{{3}{30}{Desenvolvimento da Ferramenta}{Doc-Start}{}}
\@writefile{snm}{\beamer@slide {tab:coberturaDosTestes}{30}}
\@writefile{nav}{\headcommand {\slideentry {5}{0}{30}{30/30}{}{0}}}
\@writefile{nav}{\headcommand {\beamer@framepages {30}{30}}}
\newlabel{tab:coberturaDosTestes}{{4}{31}{Desenvolvimento da Ferramenta}{Doc-Start}{}}
\@writefile{snm}{\beamer@slide {tab:coberturaDosTestes}{31}}
\@writefile{nav}{\headcommand {\slideentry {5}{0}{31}{31/31}{}{0}}}
\@writefile{nav}{\headcommand {\beamer@framepages {31}{31}}}
\@writefile{toc}{\beamer@sectionintoc {6}{Experimento em Ambiente Controlado}{32}{0}{6}}
\@writefile{nav}{\headcommand {\sectionentry {6}{Experimento em Ambiente Controlado}{32}{Experimento em Ambiente Controlado}{0}}}
\@writefile{nav}{\headcommand {\beamer@sectionpages {22}{31}}}
\@writefile{nav}{\headcommand {\beamer@subsectionpages {22}{31}}}
\@writefile{nav}{\headcommand {\slideentry {6}{0}{32}{32/32}{}{0}}}
\@writefile{nav}{\headcommand {\beamer@framepages {32}{32}}}
\@writefile{nav}{\headcommand {\slideentry {6}{0}{33}{33/33}{}{0}}}
\@writefile{nav}{\headcommand {\beamer@framepages {33}{33}}}
\@writefile{nav}{\headcommand {\slideentry {6}{0}{34}{34/34}{}{0}}}
\@writefile{nav}{\headcommand {\beamer@framepages {34}{34}}}
\newlabel{tab:coberturaDosTestes}{{5}{35}{Experimento em Ambiente Controlado}{Doc-Start}{}}
\@writefile{snm}{\beamer@slide {tab:coberturaDosTestes}{35}}
\@writefile{nav}{\headcommand {\slideentry {6}{0}{35}{35/35}{}{0}}}
\@writefile{nav}{\headcommand {\beamer@framepages {35}{35}}}
\@writefile{toc}{\beamer@sectionintoc {7}{Demonstra\IeC {\c c}\IeC {\~a}o da Ferramenta}{36}{0}{7}}
\@writefile{nav}{\headcommand {\sectionentry {7}{Demonstra\IeC {\c c}\IeC {\~a}o da Ferramenta}{36}{Demonstra\IeC {\c c}\IeC {\~a}o da Ferramenta}{0}}}
\@writefile{nav}{\headcommand {\beamer@sectionpages {32}{35}}}
\@writefile{nav}{\headcommand {\beamer@subsectionpages {32}{35}}}
\@writefile{nav}{\headcommand {\slideentry {7}{0}{36}{36/36}{}{0}}}
\@writefile{nav}{\headcommand {\beamer@framepages {36}{36}}}
\@writefile{nav}{\headcommand {\slideentry {7}{0}{37}{37/37}{}{0}}}
\@writefile{nav}{\headcommand {\beamer@framepages {37}{37}}}
\@writefile{toc}{\beamer@sectionintoc {8}{Considera\IeC {\c c}\IeC {\~o}es Finais}{38}{0}{8}}
\@writefile{nav}{\headcommand {\sectionentry {8}{Considera\IeC {\c c}\IeC {\~o}es Finais}{38}{Considera\IeC {\c c}\IeC {\~o}es Finais}{0}}}
\@writefile{nav}{\headcommand {\beamer@sectionpages {36}{37}}}
\@writefile{nav}{\headcommand {\beamer@subsectionpages {36}{37}}}
\@writefile{nav}{\headcommand {\slideentry {8}{0}{38}{38/38}{}{0}}}
\@writefile{nav}{\headcommand {\beamer@framepages {38}{38}}}
\@writefile{nav}{\headcommand {\slideentry {8}{0}{39}{39/39}{}{0}}}
\@writefile{nav}{\headcommand {\beamer@framepages {39}{39}}}
\bibcite{ian}{\hyperlink {beamerbibian}{1}}
\bibcite{varelaAraujoBritoMoreira2011}{\hyperlink {beamerbibvarelaAraujoBritoMoreira2011}{2}}
\bibcite{butler}{\hyperlink {beamerbibbutler}{3}}
\bibcite{azevedo}{\hyperlink {beamerbibazevedo}{4}}
\bibcite{ali}{\hyperlink {beamerbibali}{5}}
\@writefile{nav}{\headcommand {\slideentry {8}{0}{40}{40/40}{}{0}}}
\@writefile{nav}{\headcommand {\beamer@framepages {40}{40}}}
\bibcite{daengenharia}{\hyperlink {beamerbibdaengenharia}{6}}
\bibcite{umoh2011refinto}{\hyperlink {beamerbibumoh2011refinto}{7}}
\bibcite{zarinah}{\hyperlink {beamerbibzarinah}{8}}
\bibcite{daramola}{\hyperlink {beamerbibdaramola}{9}}
\bibcite{ito}{\hyperlink {beamerbibito}{10}}
\@writefile{nav}{\headcommand {\slideentry {8}{0}{41}{41/41}{}{0}}}
\@writefile{nav}{\headcommand {\beamer@framepages {41}{41}}}
\bibcite{beckers2013structured}{\hyperlink {beamerbibbeckers2013structured}{11}}
\bibcite{daramolaSatalhaneSindreOmoronia2011}{\hyperlink {beamerbibdaramolaSatalhaneSindreOmoronia2011}{12}}
\bibcite{hussein2013}{\hyperlink {beamerbibhussein2013}{13}}
\bibcite{fredericks}{\hyperlink {beamerbibfredericks}{14}}
\bibcite{pressman}{\hyperlink {beamerbibpressman}{15}}
\@writefile{nav}{\headcommand {\slideentry {8}{0}{42}{42/42}{}{0}}}
\@writefile{nav}{\headcommand {\beamer@framepages {42}{42}}}
\bibcite{whittle2010}{\hyperlink {beamerbibwhittle2010}{16}}
\bibcite{brun2009engineering}{\hyperlink {beamerbibbrun2009engineering}{17}}
\bibcite{sawyer2010requirements}{\hyperlink {beamerbibsawyer2010requirements}{18}}
\bibcite{desvirivieres}{\hyperlink {beamerbibdesvirivieres}{19}}
\@writefile{nav}{\headcommand {\slideentry {8}{0}{43}{43/43}{}{0}}}
\@writefile{nav}{\headcommand {\beamer@framepages {43}{43}}}
\bibcite{huebscher}{\hyperlink {beamerbibhuebscher}{20}}
\bibcite{herczeg}{\hyperlink {beamerbibherczeg}{21}}
\bibcite{qureshi2010requirements}{\hyperlink {beamerbibqureshi2010requirements}{22}}
\bibcite{aho2008compiladores}{\hyperlink {beamerbibaho2008compiladores}{23}}
\@writefile{nav}{\headcommand {\slideentry {8}{0}{44}{44/44}{}{0}}}
\@writefile{nav}{\headcommand {\beamer@framepages {44}{44}}}
\@writefile{nav}{\headcommand {\slideentry {8}{0}{45}{45/45}{}{0}}}
\@writefile{nav}{\headcommand {\beamer@framepages {45}{45}}}
\@writefile{nav}{\headcommand {\beamer@partpages {1}{45}}}
\@writefile{nav}{\headcommand {\beamer@subsectionpages {38}{45}}}
\@writefile{nav}{\headcommand {\beamer@sectionpages {38}{45}}}
\@writefile{nav}{\headcommand {\beamer@documentpages {45}}}
\@writefile{nav}{\headcommand {\def \inserttotalframenumber {45}}}
