\beamer@endinputifotherversion {3.33pt}
\select@language {brazilian}
\beamer@sectionintoc {1}{Introdu\IeC {\c c}\IeC {\~a}o}{3}{0}{1}
\beamer@sectionintoc {2}{Fundamenta\IeC {\c c}\IeC {\~a}o Te\IeC {\'o}rica}{5}{0}{2}
\beamer@sectionintoc {3}{Base Tecnol\IeC {\'o}gica}{13}{0}{3}
\beamer@sectionintoc {4}{Trabalhos Relacionados}{17}{0}{4}
\beamer@sectionintoc {5}{Desenvolvimento da Ferramenta}{22}{0}{5}
\beamer@sectionintoc {6}{Experimento em Ambiente Controlado}{32}{0}{6}
\beamer@sectionintoc {7}{Demonstra\IeC {\c c}\IeC {\~a}o da Ferramenta}{36}{0}{7}
\beamer@sectionintoc {8}{Considera\IeC {\c c}\IeC {\~o}es Finais}{38}{0}{8}
