\relax 
\providecommand\hyper@newdestlabel[2]{}
\providecommand\HyperFirstAtBeginDocument{\AtBeginDocument}
\HyperFirstAtBeginDocument{\ifx\hyper@anchor\@undefined
\global\let\oldcontentsline\contentsline
\gdef\contentsline#1#2#3#4{\oldcontentsline{#1}{#2}{#3}}
\global\let\oldnewlabel\newlabel
\gdef\newlabel#1#2{\newlabelxx{#1}#2}
\gdef\newlabelxx#1#2#3#4#5#6{\oldnewlabel{#1}{{#2}{#3}}}
\AtEndDocument{\ifx\hyper@anchor\@undefined
\let\contentsline\oldcontentsline
\let\newlabel\oldnewlabel
\fi}
\fi}
\global\let\hyper@last\relax 
\gdef\HyperFirstAtBeginDocument#1{#1}
\providecommand\HyField@AuxAddToFields[1]{}
\providecommand\HyField@AuxAddToCoFields[2]{}
\catcode `"\active 
\@writefile{toc}{\beamer@endinputifotherversion {3.24pt}}
\@writefile{nav}{\beamer@endinputifotherversion {3.24pt}}
\select@language{brazilian}
\@writefile{toc}{\select@language{brazilian}}
\@writefile{lof}{\select@language{brazilian}}
\@writefile{lot}{\select@language{brazilian}}
\@writefile{nav}{\headcommand {\slideentry {0}{0}{1}{1/1}{}{0}}}
\@writefile{nav}{\headcommand {\beamer@framepages {1}{1}}}
\@writefile{nav}{\headcommand {\slideentry {0}{0}{2}{2/2}{}{0}}}
\@writefile{nav}{\headcommand {\beamer@framepages {2}{2}}}
\citation{whittle2010}
\@writefile{toc}{\beamer@sectionintoc {1}{Introdu\IeC {\c c}\IeC {\~a}o}{3}{0}{1}}
\@writefile{nav}{\headcommand {\sectionentry {1}{Introdu\IeC {\c c}\IeC {\~a}o}{3}{Introdu\IeC {\c c}\IeC {\~a}o}{0}}}
\@writefile{nav}{\headcommand {\beamer@sectionpages {1}{2}}}
\@writefile{nav}{\headcommand {\beamer@subsectionpages {1}{2}}}
\@writefile{nav}{\headcommand {\slideentry {1}{0}{3}{3/3}{}{0}}}
\@writefile{nav}{\headcommand {\beamer@framepages {3}{3}}}
\@writefile{toc}{\beamer@sectionintoc {2}{Fundamenta\IeC {\c c}\IeC {\~a}o Te\IeC {\'o}rica}{4}{0}{2}}
\@writefile{nav}{\headcommand {\sectionentry {2}{Fundamenta\IeC {\c c}\IeC {\~a}o Te\IeC {\'o}rica}{4}{Fundamenta\IeC {\c c}\IeC {\~a}o Te\IeC {\'o}rica}{0}}}
\@writefile{nav}{\headcommand {\beamer@sectionpages {3}{3}}}
\@writefile{nav}{\headcommand {\beamer@subsectionpages {3}{3}}}
\@writefile{nav}{\headcommand {\slideentry {2}{0}{4}{4/4}{}{0}}}
\@writefile{nav}{\headcommand {\beamer@framepages {4}{4}}}
\@writefile{nav}{\headcommand {\slideentry {2}{0}{5}{5/5}{}{0}}}
\@writefile{nav}{\headcommand {\beamer@framepages {5}{5}}}
\citation{whittle2010}
\@writefile{nav}{\headcommand {\slideentry {2}{0}{6}{6/6}{}{0}}}
\@writefile{nav}{\headcommand {\beamer@framepages {6}{6}}}
\@writefile{nav}{\headcommand {\slideentry {2}{0}{7}{7/7}{}{0}}}
\@writefile{nav}{\headcommand {\beamer@framepages {7}{7}}}
\@writefile{nav}{\headcommand {\slideentry {2}{0}{8}{8/8}{}{0}}}
\@writefile{nav}{\headcommand {\beamer@framepages {8}{8}}}
\@writefile{nav}{\headcommand {\slideentry {2}{0}{9}{9/9}{}{0}}}
\@writefile{nav}{\headcommand {\beamer@framepages {9}{9}}}
\citation{ali}
\citation{hussein2013}
\citation{fredericks}
\@writefile{nav}{\headcommand {\slideentry {2}{0}{10}{10/10}{}{0}}}
\@writefile{nav}{\headcommand {\beamer@framepages {10}{10}}}
\@writefile{toc}{\beamer@sectionintoc {3}{Modelos de An\IeC {\'a}lise}{11}{0}{3}}
\@writefile{nav}{\headcommand {\sectionentry {3}{Modelos de An\IeC {\'a}lise}{11}{Modelos de An\IeC {\'a}lise}{0}}}
\@writefile{nav}{\headcommand {\beamer@sectionpages {4}{10}}}
\@writefile{nav}{\headcommand {\beamer@subsectionpages {4}{10}}}
\@writefile{nav}{\headcommand {\slideentry {3}{0}{11}{11/11}{}{0}}}
\@writefile{nav}{\headcommand {\beamer@framepages {11}{11}}}
\@writefile{nav}{\headcommand {\slideentry {3}{0}{12}{12/12}{}{0}}}
\@writefile{nav}{\headcommand {\beamer@framepages {12}{12}}}
\@writefile{nav}{\headcommand {\slideentry {3}{0}{13}{13/13}{}{0}}}
\@writefile{nav}{\headcommand {\beamer@framepages {13}{13}}}
\@writefile{toc}{\beamer@sectionintoc {4}{Conclus\IeC {\~o}es}{14}{0}{4}}
\@writefile{nav}{\headcommand {\sectionentry {4}{Conclus\IeC {\~o}es}{14}{Conclus\IeC {\~o}es}{0}}}
\@writefile{nav}{\headcommand {\beamer@sectionpages {11}{13}}}
\@writefile{nav}{\headcommand {\beamer@subsectionpages {11}{13}}}
\@writefile{nav}{\headcommand {\slideentry {4}{0}{14}{14/14}{}{0}}}
\@writefile{nav}{\headcommand {\beamer@framepages {14}{14}}}
\bibcite{ali}{\hyperlink {beamerbibali}{5}}
\bibcite{hussein2013}{\hyperlink {beamerbibhussein2013}{13}}
\bibcite{fredericks}{\hyperlink {beamerbibfredericks}{14}}
\bibcite{whittle2010}{\hyperlink {beamerbibwhittle2010}{16}}
\@writefile{nav}{\headcommand {\slideentry {4}{0}{15}{15/15}{}{0}}}
\@writefile{nav}{\headcommand {\beamer@framepages {15}{15}}}
\@writefile{nav}{\headcommand {\slideentry {4}{0}{16}{16/16}{}{0}}}
\@writefile{nav}{\headcommand {\beamer@framepages {16}{16}}}
\@writefile{nav}{\headcommand {\beamer@partpages {1}{16}}}
\@writefile{nav}{\headcommand {\beamer@subsectionpages {14}{16}}}
\@writefile{nav}{\headcommand {\beamer@sectionpages {14}{16}}}
\@writefile{nav}{\headcommand {\beamer@documentpages {16}}}
\@writefile{nav}{\headcommand {\def \inserttotalframenumber {16}}}
