\BOOKMARK [2][]{Outline0.1}{Introdu\347\343o}{}% 1
\BOOKMARK [2][]{Outline0.2}{Fundamenta\347\343o Te\363rica}{}% 2
\BOOKMARK [2][]{Outline0.3}{Modelos de An\341lise}{}% 3
\BOOKMARK [2][]{Outline0.4}{Conclus\365es}{}% 4
