\beamer@endinputifotherversion {3.24pt}
\select@language {brazilian}
\beamer@sectionintoc {1}{Introdu\IeC {\c c}\IeC {\~a}o}{3}{0}{1}
\beamer@sectionintoc {2}{Fundamenta\IeC {\c c}\IeC {\~a}o Te\IeC {\'o}rica}{4}{0}{2}
\beamer@sectionintoc {3}{Modelos de An\IeC {\'a}lise}{11}{0}{3}
\beamer@sectionintoc {4}{Conclus\IeC {\~o}es}{14}{0}{4}
